215310298.504  838
1186.0  12.5111  11.9354  1.1906  1.1079  2.2986  0.0686  2.4104  0.8113
2919.0  9.6412  5.5498  1.2633  1.1079  2.3712  0.0444  0.482  0.542
9094.0  8.4214  7.3584  1.2643  1.1439  2.4083  0.0485  0.7784  0.6963
15513.0  8.8082  7.1097  1.264  1.1583  2.4223  0.0988  19.017  0.9858
29317.0  7.266  6.6076  1.2613  1.1079  2.3692  0.0868  0.9102  0.1963
48155.0  10.0369  10.0358  1.1079  1.1079  2.2159  0.0695  1.2474  0.5477
63482.0  9.2724  9.2716  1.1079  1.1079  2.2159  2.4005  6.1144  0.8042
82838.0  12.7571  12.532  1.2085  1.1079  2.3165  4.3164  9.5589  0.8613
102557.0  8.4378  6.6609  1.2635  1.1079  2.3715  0.0503  0.5398  0.5147
105429.0  13.3764  6.274  1.1513  1.4116  2.5629  0.0366  8.7887  0.9804
107385.0  7.0287  6.5627  1.2629  1.1079  2.3708  0.0652  0.5442  0.3058
114987.0  9.0408  6.3384  1.2621  1.1598  2.4219  0.5838  12.727  0.9496
120919.0  8.0578  7.461  1.2628  1.144  2.4069  0.0717  1.5111  0.7033
125862.0  12.2797  11.6457  1.1724  1.1079  2.2803  7.5689  3.5318  0.1644
126162.0  8.6158  7.3738  1.2631  1.1804  2.4434  0.0674  1.6162  0.7293
159076.0  8.5679  6.8688  1.2633  1.1334  2.3967  0.0477  0.5621  0.5812
176829.0  8.7798  7.3533  1.2631  1.19  2.453  0.0712  1.8624  0.7614
186962.0  14.1669  14.0671  1.2042  1.157  2.3612  0.0229  1.0252  0.6867
187522.0  8.5163  8.4662  1.2644  1.2113  2.4757  0.045  0.8014  0.6691
191534.0  8.6266  8.268  1.2632  1.2532  2.5164  0.0426  0.3234  0.0491
204028.0  8.944  5.8701  1.2642  1.1079  2.3722  0.0502  1.4016  0.8522
213818.0  7.2537  6.697  1.2616  1.1079  2.3696  0.0628  0.6031  0.232
214751.0  9.1636  9.0243  1.2642  1.3407  2.6049  0.0537  10.068  0.9773
218541.0  21.8491  21.6776  1.6401  1.5976  3.2377  0.1455  3.3381  0.7504
219899.0  9.224  7.2755  1.2634  1.2131  2.4765  0.0446  0.5434  0.3211
220686.0  9.1889  4.6727  1.2637  1.1079  2.3716  0.0571  0.9656  0.6416
227433.0  9.2423  4.8456  1.2622  1.1978  2.46  0.0484  6.5475  0.9995
234764.0  8.3291  7.2229  1.2638  1.1331  2.3969  0.0726  7.3838  0.9629
237755.0  12.3897  11.623  1.1812  1.1079  2.2891  0.0559  0.9149  0.1975
238857.0  8.7951  6.0669  1.2624  1.1139  2.3763  0.0797  1.0099  0.3491
252883.0  9.4105  5.0107  1.262  1.1079  2.3699  0.37  10.188  0.9444
256832.0  8.3692  7.3459  1.2625  1.3244  2.5869  0.2121  20.927  0.9811
261622.0  8.6919  7.0217  1.2645  1.1358  2.4004  0.0472  0.7061  0.6942
262076.0  9.1639  5.7357  1.2633  1.1578  2.4211  2.4087  5.5091  0.7524
283640.0  17.9026  17.2111  1.5986  1.3332  2.9318  0.027  1.3782  0.6512
285832.0  15.0944  14.8704  1.3051  1.2275  2.5326  0.0691  2.3977  0.779
318766.0  14.3196  13.9349  1.3268  1.1612  2.488  0.0335  0.9626  0.4596
334145.0  12.836  12.5263  1.1716  1.1079  2.2795  0.1465  1.3722  0.3328
343809.0  8.8966  6.1104  1.264  1.1079  2.3719  0.0485  0.5386  0.564
345405.0  7.2749  6.7842  1.2613  1.1079  2.3692  0.1712  1.242  0.0279
346969.0  9.2307  5.9921  1.2621  1.1409  2.4031  0.0988  2.5467  0.8067
348357.0  9.6168  5.0087  1.1094  1.1079  2.2173  0.0662  4.489  0.9387
354122.0  9.4487  5.0379  1.2633  1.1286  2.3919  0.233  2.6481  0.7199
354847.0  8.4925  6.6072  1.2624  1.129  2.3914  0.0962  1.2851  0.4953
374207.0  8.0587  7.2941  1.2627  1.1351  2.3978  0.0565  0.7047  0.3659
374327.0  8.4261  6.9445  1.2633  1.2965  2.5598  12.4644  191.02  0.9944
395695.0  19.294  18.8216  1.6169  1.4694  3.0864  0.3581  4.199  0.7615
414719.0  12.2561  11.5978  1.1692  1.1079  2.2771  0.0236  0.2941  0.424
416956.0  9.4839  7.149  1.2625  1.2455  2.5079  0.1041  4.2998  0.8935
422825.0  21.3315  15.4155  1.5916  1.8865  3.4782  1.2556  6.5137  0.7714
425688.0  11.6193  11.1304  1.1232  1.1079  2.2311  0.0691  1.0903  0.3941
426094.0  10.8022  10.343  1.108  1.1079  2.216  0.0303  0.5102  0.4455
431797.0  13.374  4.8098  1.1296  1.1655  2.2951  0.048  1.0035  0.5571
435304.0  7.0961  6.5442  1.2615  1.1079  2.3694  0.0692  0.8357  0.4711
493767.0  9.2682  6.1237  1.262  1.1584  2.4204  0.0603  0.9984  0.5037
521040.0  13.8163  13.6451  1.2884  1.1865  2.475  0.0196  0.5594  0.6291
529926.0  9.0892  6.1522  1.2623  1.1328  2.3951  0.2119  5.1547  0.8908
533544.0  8.8492  7.3863  1.2632  1.2008  2.4641  0.0464  1.6673  0.8651
563258.0  25.2918  25.038  1.7723  1.7235  3.4958  0.0088  15.735  0.9953
564111.0  9.0664  5.943  1.2627  1.1356  2.3983  0.0682  0.9865  0.4311
572606.0  12.7479  12.7177  1.2079  1.1634  2.3713  7.4403  25.085  0.9496
583182.0  9.2807  7.4612  1.2628  1.2497  2.5126  0.0438  0.6215  0.4133
588768.0  7.9452  7.6868  1.2632  1.3023  2.5655  4.6475  7.2028  0.77
590490.0  9.3048  7.1723  1.2636  1.206  2.4696  0.0765  4.9015  0.9276
594026.0  7.1017  6.2623  1.261  1.1079  2.369  0.2687  1.4473  0.0952
614019.0  12.7042  12.4555  1.14  1.1079  2.248  0.0204  0.2301  0.5914
633431.0  12.9568  12.8731  1.2236  1.1523  2.376  0.0219  0.6101  0.6175
641793.0  7.286  6.5718  1.2613  1.1079  2.3692  0.0731  0.8432  0.3609
657528.0  9.2425  5.1305  1.2626  1.1079  2.3706  0.0497  0.4206  0.0091
672168.0  8.7166  7.9788  1.2623  1.3973  2.6595  0.0532  6.3014  0.9619
673084.0  9.4772  6.7009  1.2636  1.1818  2.4454  0.0602  3.5003  0.9107
685912.0  9.4302  6.2934  1.2626  1.1667  2.4294  0.0445  0.4522  0.1972
698234.0  9.1464  5.7246  1.2627  1.1261  2.3889  0.101  1.5571  0.6119
729025.0  9.5436  6.7589  1.2633  1.2007  2.4641  0.0453  1.3418  0.8001
732003.0  8.3397  7.9197  1.2625  1.3634  2.6259  5.0396  7.6786  0.7779
740997.0  9.2056  5.9994  1.2623  1.1272  2.3895  0.0521  0.6236  0.1837
741321.0  8.7165  6.6456  1.264  1.1154  2.3794  0.1445  35.974  0.993
751696.0  9.1284  8.1711  1.262  1.295  2.557  1.5567  13.383  0.9306
779393.0  14.6134  5.8517  1.3173  1.3854  2.7027  3.6428  23.857  0.9525
784991.0  7.9805  7.0697  1.2632  1.1079  2.3712  0.0569  1.8092  0.8558
789917.0  9.219  6.7359  1.2622  1.2004  2.4626  0.0563  0.8453  0.3587
813710.0  9.08  7.3998  1.264  1.3783  2.6423  8.7631  7.1849  0.6998
820254.0  9.4478  6.4189  1.2634  1.1631  2.4265  0.0667  14.552  0.9842
821650.0  7.2106  6.2339  1.2613  1.1079  2.3692  0.1206  1.7265  0.6629
870685.0  8.707  5.7054  1.2622  1.1079  2.3701  0.0664  0.8913  0.4027
878484.0  13.5669  6.4296  1.1441  1.2952  2.4393  4.4075  5.5077  0.6878
927421.0  9.5253  3.8448  1.262  1.1079  2.37  0.069  1.9664  0.8114
937769.0  16.1364  15.7105  1.4648  1.2627  2.7276  0.0156  0.8122  0.8282
962971.0  24.2648  23.8674  1.7774  1.6853  3.4627  0.0173  2.863  0.8718
979682.0  14.046  13.7754  1.3063  1.1692  2.4755  0.2727  30.368  0.9866
983646.0  6.9593  5.9746  1.2613  1.1079  2.3692  0.4419  2.2024  0.5202
984053.0  9.3952  9.0279  1.2639  1.361  2.6249  0.0375  0.4805  0.4364
998311.0  9.3307  5.3337  1.262  1.1079  2.37  0.0631  0.8701  0.3606
1020310.0  18.1111  18.111  1.4301  1.4299  2.86  2.483  7.7907  0.8145
1047506.0  8.1632  7.9037  1.2615  1.3311  2.5926  2.6841  11.569  0.8977
1049251.0  18.5561  10.3093  1.4695  1.6352  3.1047  6.4722  4.4998  0.2834
1073105.0  10.4744  10.4699  1.1079  1.1079  2.2159  0.041  2.2061  0.862
1120594.0  18.7071  18.5807  1.4921  1.4555  2.9476  0.0384  2.4937  0.8072
1231904.0  9.0912  4.9793  1.263  1.1079  2.371  0.0651  3.2618  0.91
1232739.0  8.8334  8.0679  1.2638  1.2366  2.5004  0.0437  0.459  0.2425
1244542.0  8.103  6.9539  1.2627  1.1099  2.3726  0.0569  0.6839  0.3558
1247111.0  8.4569  6.0521  1.263  1.1079  2.3709  0.053  0.5185  0.3547
1247668.0  8.2056  7.8979  1.2612  1.3506  2.6118  2.4387  14.23  0.9235
1250738.0  9.4541  4.8497  1.2626  1.1079  2.3706  0.0553  2.0098  0.8593
1264211.0  12.2025  11.4572  1.1701  1.7142  2.8843  0.743  7.9317  0.8803
1273857.0  7.186  6.2614  1.2614  1.1079  2.3694  0.2158  2.2581  0.6739
1276576.0  9.0541  4.9896  1.2623  1.1079  2.3702  0.0755  1.2076  0.5727
1288244.0  8.5752  8.4703  1.2632  1.2325  2.4957  0.043  0.3581  0.2525
1310065.0  9.4746  7.6353  1.2636  1.2599  2.5235  0.0452  2.5613  0.9027
1311490.0  8.4368  8.2968  1.2633  1.2089  2.4723  0.0554  1.2471  0.6826
1321243.0  9.0632  6.4206  1.2626  1.1421  2.4047  0.3219  12.279  0.9578
1340976.0  15.3115  15.0609  1.3278  1.2317  2.5594  0.0319  1.9221  0.7982
1346276.0  11.3989  10.7446  1.1085  1.2608  2.3693  0.0269  0.3952  0.6255
1365305.0  9.3906  6.7635  1.2629  1.2011  2.4639  0.0452  0.7379  0.5586
1376633.0  9.0772  7.2978  1.2637  1.2783  2.5421  5.5149  7.3098  0.7624
1396818.0  9.4673  4.1796  1.2624  1.1079  2.3704  0.053  0.7902  0.5981
1401775.0  7.0597  6.119  1.261  1.2608  2.5218  0.3079  2.1186  0.5375
1434221.0  8.8396  7.9167  1.2646  1.2141  2.4787  0.0432  0.3898  0.3649
1439679.0  12.4349  11.8623  1.1847  1.1079  2.2927  0.0245  0.4806  0.3543
1443115.0  17.3331  16.7328  1.5581  1.3285  2.8866  0.0239  2.8377  0.884
1475621.0  7.2437  6.424  1.2612  1.1079  2.3691  0.1753  1.6832  0.5395
1521219.0  9.3052  5.8814  1.2636  1.1079  2.3716  0.0602  3.6864  0.924
1526402.0  8.0691  7.7543  1.2624  1.3293  2.5917  0.0473  6.5429  0.9982
1533316.0  12.4773  12.2959  1.1873  1.1079  2.2953  0.0227  0.6795  0.7432
1562187.0  7.2627  6.2002  1.2612  1.1079  2.3692  0.4588  2.298  0.5422
1567408.0  9.3697  5.3544  1.2624  1.1079  2.3703  0.0492  0.5624  0.3121
1572041.0  12.7358  12.3479  1.2065  1.1079  2.3145  0.0218  1.8775  0.9548
1574905.0  9.0695  5.8892  1.2627  1.1079  2.3707  0.0574  1.0174  0.6063
1579434.0  9.1219  6.324  1.2644  1.116  2.3805  0.0503  2.8154  0.9234
1579751.0  8.5812  8.4113  1.2625  1.2682  2.5308  0.049  4.968  0.9581
1583507.0  11.0516  11.0451  1.1079  1.1079  2.2159  0.0263  0.2758  0.9766
1590719.0  9.6701  5.6754  1.2625  1.1394  2.4019  0.1  4.1605  0.8974
1598887.0  8.365  7.7455  1.2635  1.3518  2.6153  0.6496  8.4899  0.9049
1600251.0  8.9405  7.085  1.2625  1.2007  2.4632  0.0806  2.2745  0.7967
1651111.0  8.0274  7.8358  1.1082  1.2608  2.369  0.0981  1.1741  0.3771
1660210.0  27.0429  26.4638  1.8914  1.7751  3.6665  1.9307  17.005  0.9218
1678513.0  8.3426  7.8696  1.2624  1.3593  2.6217  6.8926  25.064  0.9461
1693840.0  12.4304  8.1075  1.1841  1.1079  2.2921  0.046  0.5926  0.3508
1694988.0  8.4835  7.2064  1.2626  1.3188  2.5814  0.2054  10.738  0.9557
1698578.0  8.7135  5.6448  1.2626  1.1079  2.3706  0.0691  1.5164  0.7289
1705235.0  8.2999  7.7822  1.2646  1.1648  2.4295  0.0465  0.266  0.2653
1711041.0  8.334  8.0985  1.1097  1.3563  2.4661  1.6564  7.645  0.8586
1718054.0  15.2466  14.8173  1.3774  1.197  2.5744  0.0182  0.5619  0.3489
1727539.0  8.919  6.4259  1.2631  1.1242  2.3873  0.0597  1.9121  0.8233
1729357.0  8.2009  7.9174  1.2647  1.1633  2.428  0.1693  82.755  0.9974
1734778.0  9.3722  4.2781  1.2618  1.1079  2.3697  0.0761  1.1456  0.525
1735979.0  12.2615  9.2806  1.1088  1.5918  2.7006  9.0828  7.779  0.7248
1737036.0  7.223  6.2806  1.2615  1.1079  2.3694  0.113  1.1708  0.3846
1755563.0  7.2789  5.9482  1.2611  1.1079  2.369  0.6658  2.7677  0.599
1759504.0  9.8158  3.7702  1.2628  1.1079  2.3707  0.053  1.9577  0.883
1774615.0  14.1119  13.9176  1.3115  1.1951  2.5066  0.0199  0.6062  0.538
1781469.0  7.0938  6.6252  1.2617  1.1079  2.3696  1.6076  55.968  0.9891
1792340.0  12.4701  5.4504  1.1098  1.1612  2.271  0.0566  9.7922  0.9763
1792880.0  8.7761  6.9549  1.264  1.1415  2.4055  0.0672  7.0074  0.9622
1801075.0  7.1211  5.8283  1.2613  1.2608  2.5221  0.2493  1.9045  0.5104
1802818.0  9.5012  4.7764  1.2623  1.1079  2.3703  0.0681  2.136  0.8238
1841145.0  12.353  12.1167  1.178  1.1079  2.286  0.6435  2.6924  0.5925
1845457.0  26.3201  25.7554  1.7977  1.7006  3.4983  0.0825  28.169  0.9867
1854811.0  9.3849  5.6802  1.2627  1.1127  2.3754  0.0476  0.6442  0.5179
1882306.0  9.3429  4.7345  1.2637  1.1213  2.385  0.4534  5.3283  0.8603
1884740.0  7.0105  6.4101  1.2612  1.2608  2.522  0.1264  1.3576  0.439
1912597.0  13.325  13.0733  1.186  1.1079  2.294  0.0202  0.406  0.2136
1914563.0  8.2829  7.9662  1.2639  1.1836  2.4476  0.0477  0.5821  0.4907
1922907.0  11.5909  11.0831  1.1161  1.1079  2.2241  0.0254  0.2287  0.3717
1924670.0  9.4645  4.808  1.2638  1.1079  2.3717  0.0492  0.7293  0.692
1937021.0  8.5096  8.319  1.2621  1.3829  2.645  4.1234  6.873  0.7575
1938766.0  24.7965  24.4506  1.7814  1.7069  3.4884  8.5832  5.5379  0.3566
1976115.0  9.2172  6.08  1.2625  1.1392  2.4017  0.4632  47.759  0.9916
1977614.0  9.3089  6.0964  1.2631  1.1272  2.3903  0.0699  3.8303  0.9137
1980687.0  11.433  10.9299  1.1091  1.1079  2.2171  0.026  0.2233  0.2852
1989631.0  9.2997  7.6247  1.2634  1.2459  2.5093  0.0479  0.8117  0.4759
1994987.0  13.2527  12.8192  1.2467  1.1079  2.3546  0.0513  5.3933  0.9411
1995204.0  8.8449  7.2233  1.2629  1.1878  2.4507  0.093  2.8517  0.8366
2023879.0  8.72  8.2854  1.2628  1.2838  2.5466  0.5217  10.692  0.9361
2042099.0  7.0163  6.0165  1.2614  1.2608  2.5221  0.1158  1.2181  0.3911
2054279.0  11.7091  11.1512  1.1298  1.1079  2.2377  0.0257  0.7523  0.7939
2066008.0  9.0171  5.8238  1.262  1.1132  2.3752  0.1808  3.5935  0.8369
2078243.0  7.0128  5.9298  1.2613  1.2608  2.5221  0.1213  1.2903  0.4334
2080453.0  13.109  13.0162  1.1763  1.1369  2.3133  0.0811  1.9689  0.7206
2106244.0  11.309  7.9797  1.1089  1.2608  2.3697  0.0539  0.8117  0.4164
2110081.0  9.1783  4.7199  1.263  1.1079  2.371  0.0562  1.3051  0.7735
2114748.0  23.3662  22.9391  1.7566  1.6511  3.4077  0.0097  3.154  0.9604
2131780.0  12.4651  11.7914  1.1871  1.1079  2.295  0.0809  2.1549  0.762
2153250.0  15.2048  14.8889  1.3933  1.239  2.6323  0.0167  0.5262  0.7366
2173525.0  9.4062  6.1022  1.262  1.1664  2.4285  0.067  0.9204  0.2902
2202363.0  9.1307  5.4788  1.2634  1.1079  2.3713  0.0504  0.6855  0.5832
2215852.0  7.1505  5.6796  1.2614  1.2608  2.5222  0.1834  1.6067  0.4624
2228777.0  11.07  10.5197  1.1088  1.2608  2.3696  0.0277  0.2457  0.366
2252251.0  8.8262  6.2836  1.2633  1.1079  2.3713  0.0526  0.9454  0.6614
2255421.0  8.8029  8.0982  1.2638  1.2402  2.5039  0.0521  1.3974  0.7429
2258362.0  8.8469  7.2808  1.2643  1.1699  2.4342  0.069  10.101  0.9747
2275458.0  9.5464  4.7396  1.2633  1.1079  2.3712  0.0501  0.7469  0.6255
2289850.0  8.3891  7.0277  1.2626  1.1633  2.4259  0.1235  1.5671  0.5522
2290497.0  8.5232  8.0036  1.2646  1.2003  2.4648  0.0454  0.5838  0.5823
2318434.0  9.034  7.6948  1.265  1.2073  2.4723  0.0439  1.0819  0.7968
2330470.0  15.7788  10.6006  1.3029  1.5564  2.8593  1.5471  14.856  0.9325
2333091.0  9.2393  6.3518  1.2642  1.1298  2.394  0.06  6.3706  0.9621
2336729.0  8.1714  7.0391  1.2634  1.1116  2.375  0.0519  0.568  0.4447
2346322.0  6.948  6.5175  1.2613  1.1079  2.3693  0.7133  2.6761  0.5625
2346541.0  8.0828  7.7635  1.2624  1.1778  2.4403  0.0686  1.1826  0.5776
2348076.0  8.9956  6.313  1.2627  1.1539  2.4165  0.4205  6.6408  0.8966
2366275.0  12.2512  11.5314  1.1701  1.1079  2.2781  0.0238  0.2736  0.4016
2366962.0  12.6777  12.393  1.1498  1.1079  2.2578  0.0229  0.5912  0.51
2371243.0  9.1455  6.6717  1.2634  1.1572  2.4206  0.049  0.7618  0.53
2380340.0  6.9899  6.4502  1.2612  1.1079  2.3692  0.3138  2.6124  0.6845
2382931.0  16.1449  15.8765  1.4648  1.3288  2.7935  1.314  17.304  0.9485
2383773.0  20.8201  19.6141  1.8215  1.4392  3.2607  0.9093  5.8262  0.7774
2411254.0  8.4571  7.5521  1.2628  1.1845  2.4473  0.0483  0.4897  0.1418
2435148.0  11.9455  11.4162  1.1451  1.1079  2.253  0.0252  0.4768  0.4881
2444723.0  9.3598  4.6492  1.2619  1.1079  2.3698  0.1634  3.1414  0.8145
2462765.0  9.0822  7.8089  1.2619  1.2705  2.5325  6.862  7.3819  0.7473
2462807.0  9.363  6.3482  1.2628  1.1662  2.429  0.0436  0.3386  0.0988
2478877.0  7.0758  5.7905  1.2617  1.2608  2.5225  0.0931  1.0533  0.4279
2484502.0  8.9791  5.7607  1.2631  1.1079  2.3711  0.0571  1.396  0.764
2499812.0  9.0811  4.6164  1.2635  1.1079  2.3714  0.1083  1.2196  0.4038
2511599.0  12.5137  12.3085  1.1096  1.1079  2.2175  0.0214  0.3808  0.4076
2525669.0  8.7353  8.7339  1.1079  1.1079  2.2159  0.0568  1.2202  0.6443
2527995.0  9.6655  4.9473  1.2631  1.1079  2.371  0.0461  0.5097  0.5483
2546705.0  15.4736  15.2284  1.3345  1.2488  2.5832  0.017  0.4993  0.2675
2548612.0  10.4733  10.0619  1.1082  1.2608  2.369  0.03  0.4086  0.6963
2580644.0  8.9995  7.6322  1.2627  1.2463  2.509  0.0459  0.6304  0.3383
2591498.0  9.5414  4.6658  1.262  1.1079  2.3699  0.0998  1.5775  0.626
2612972.0  9.2345  9.0706  1.264  1.3542  2.6182  0.0553  8.1594  0.9686
2617322.0  12.2549  12.1995  1.1082  1.1079  2.2161  0.0211  0.2864  0.6017
2630390.0  8.3289  7.5896  1.2637  1.1611  2.4248  0.053  1.3088  0.7666
2654494.0  7.0799  6.4742  1.2617  1.1079  2.3697  0.0683  0.6398  0.0773
2681114.0  12.0781  11.4947  1.1571  1.1079  2.2651  14.5762  14.72  0.8825
2681445.0  9.1381  7.8494  1.262  1.2751  2.5371  1.1942  11.414  0.9227
2681493.0  8.8382  6.3192  1.2629  1.1551  2.418  0.1036  1.3295  0.4801
2691574.0  12.7431  12.6177  1.2053  1.1535  2.3588  0.272  9.5442  0.9448
2693501.0  8.4228  8.3777  1.2633  1.3827  2.6461  11.8428  7.1833  0.6633
2745735.0  9.1653  6.1181  1.2641  1.1079  2.3721  0.053  3.3099  0.93
2752087.0  9.4306  6.8703  1.2634  1.2006  2.464  0.0432  0.8109  0.6967
2759464.0  9.4611  5.4537  1.2621  1.1172  2.3793  0.0764  1.8464  0.7528
2772787.0  8.8602  6.1993  1.2632  1.1079  2.3711  0.0656  2.5099  0.8653
2780170.0  7.1448  5.9508  1.2629  1.2608  2.5237  0.0727  0.6644  0.4569
2789963.0  9.1013  8.1387  1.2619  1.2935  2.5554  0.2498  5.0896  0.8719
2790420.0  7.257  6.5794  1.2612  1.1079  2.3692  0.0589  0.5102  0.8546
2810524.0  12.3266  9.9042  1.1177  1.6284  2.7461  0.7773  7.3946  0.8731
2811977.0  8.7756  7.7718  1.2631  1.2226  2.4857  0.0572  1.09  0.5815
2823504.0  7.2657  6.6812  1.2615  1.1079  2.3694  0.1366  1.2393  0.3103
2835574.0  15.9006  15.8565  1.3092  1.2713  2.5805  0.0145  0.2801  0.5924
2842022.0  18.1098  16.9849  1.5266  1.8503  3.3769  1.233  4.0245  0.5528
2846956.0  9.4445  4.4296  1.2631  1.1079  2.3711  0.18  36.363  0.9925
2850644.0  10.8868  10.4483  1.1083  1.1079  2.2162  0.0284  0.6895  0.7936
2857049.0  12.6664  11.8979  1.2014  1.1079  2.3094  0.0225  1.545  0.9731
2861113.0  9.3296  6.1552  1.2621  1.1706  2.4326  0.0529  0.6786  0.1036
2861647.0  12.3174  11.716  1.176  1.1079  2.284  0.0236  0.5863  0.7351
2877903.0  16.1051  15.829  1.4617  1.3132  2.7748  0.0157  0.4162  0.4376
2884836.0  8.4307  7.8344  1.2627  1.3623  2.625  13.4424  8.4672  0.7237
2889730.0  8.8288  7.4681  1.2639  1.1916  2.4555  0.0615  3.5209  0.9115
2890531.0  9.2491  5.7311  1.262  1.1265  2.3885  0.4198  7.8036  0.9171
2918808.0  8.3533  7.8407  1.2638  1.1866  2.4504  0.0627  3.1716  0.9001
2946592.0  8.9158  5.6475  1.2637  1.1079  2.3716  0.0516  1.0362  0.7637
2961717.0  8.9605  6.4837  1.2626  1.2834  2.5461  11.006  6.9277  0.6688
2964336.0  13.5851  10.3046  1.1414  1.5804  2.7218  2.5935  6.9147  0.7915
2969592.0  8.3374  7.5705  1.2645  1.1518  2.4163  0.0504  1.8507  0.878
2971239.0  7.0884  6.1495  1.2613  1.1079  2.3693  0.6086  2.6491  0.5866
2980636.0  9.0603  7.9265  1.2638  1.2449  2.5087  0.055  1.8923  0.8103
2981184.0  8.3866  6.8379  1.2622  1.1409  2.4031  0.0641  0.8951  0.3959
2982803.0  11.701  11.6994  1.1079  1.1079  2.2159  0.025  0.8981  0.7674
3003068.0  12.181  12.1706  1.1657  1.1283  2.294  0.0377  0.9239  0.4832
3021384.0  13.0887  7.1633  1.1091  1.3298  2.439  8.1543  4.5153  0.4501
3034027.0  9.1072  7.8517  1.2635  1.2563  2.5198  0.0418  0.5148  0.4688
3042118.0  9.156  6.7105  1.2628  1.2017  2.4645  11.304  6.1685  0.6163
3048631.0  9.0872  6.4382  1.2621  1.1684  2.4305  0.1174  2.0137  0.6978
3050771.0  9.4328  4.6937  1.2618  1.1079  2.3698  0.0503  0.5744  0.4061
3061894.0  19.559  18.9409  1.6735  1.475  3.1485  0.1703  6.358  0.8929
3065251.0  24.3671  23.4704  1.9196  1.6806  3.6002  0.0102  16.364  0.9935
3069894.0  7.2202  6.422  1.2617  1.1079  2.3696  0.0706  0.7242  0.294
3083380.0  12.3762  8.9179  1.1107  1.4105  2.5213  13.0341  6.0179  0.5685
3107337.0  12.6242  12.2389  1.1819  1.1079  2.2899  0.6419  8.2157  0.9121
3117079.0  9.1351  5.8049  1.262  1.1173  2.3793  0.0706  1.0956  0.5031
3123967.0  9.0169  6.835  1.2626  1.3295  2.5921  11.8013  7.9375  0.7151
3138178.0  9.2008  5.8815  1.262  1.1306  2.3926  0.0473  0.5257  0.407
3177701.0  27.0941  26.956  1.8187  1.7945  3.6131  1.9138  7.4331  0.7698
3194616.0  9.3936  5.0124  1.262  1.1079  2.3699  0.0735  1.0303  0.4266
3195419.0  9.2534  7.3353  1.2624  1.2452  2.5076  1.6693  4.0278  0.6458
3204388.0  7.2339  6.3241  1.2615  1.1079  2.3694  0.097  1.1863  0.4979
3232864.0  8.3425  7.9327  1.2641  1.3652  2.6293  0.0825  19.736  0.9868
3299681.0  19.2122  18.5619  1.6964  1.4348  3.1312  0.0124  0.3182  0.5823
3317663.0  9.5596  5.2637  1.2628  1.1079  2.3708  0.048  1.1295  0.7829
3341475.0  9.2671  7.5406  1.2631  1.2513  2.5145  0.0439  0.9315  0.6849
3345219.0  8.5141  7.0661  1.2632  1.2037  2.4669  5.8946  6.0027  0.6887
3345750.0  9.4158  5.7467  1.2619  1.1372  2.3991  0.606  16.047  0.9625
3348325.0  10.4369  10.4179  1.1087  1.1079  2.2166  0.029  0.2482  0.6075
3349576.0  6.9719  5.6664  1.2614  1.2608  2.5222  0.1433  1.4041  0.4428
3393262.0  16.193  16.0968  1.3394  1.3048  2.6442  0.0162  0.7587  0.6247
3400397.0  12.8997  12.4409  1.2197  1.1079  2.3276  0.0609  4.2131  0.9131
3413297.0  13.483  13.1033  1.2417  1.1079  2.3496  1.5612  23.591  0.9687
3421069.0  14.048  13.5916  1.3069  1.1079  2.4148  0.0188  0.4234  0.3564
3437318.0  9.0234  6.3972  1.2631  1.1348  2.3979  0.0797  14.31  0.9821
3439406.0  7.0785  6.0449  1.2613  1.1079  2.3692  0.1474  1.213  0.2604
3455036.0  12.7478  11.0166  1.1098  1.5032  2.613  1.2478  4.6472  0.7312
3460249.0  9.4374  5.9331  1.2627  1.1372  2.3999  0.0513  1.2759  0.7449
3465153.0  7.2486  6.1836  1.2615  1.1079  2.3694  0.082  0.8979  0.3672
3476418.0  8.8926  7.6097  1.263  1.2217  2.4847  0.0432  0.3235  0.5429
3477095.0  6.9552  6.3809  1.2613  1.1079  2.3693  0.2203  1.4905  0.3306
3499142.0  9.175  5.2547  1.2624  1.1079  2.3703  0.0491  0.4038  0.378
3503948.0  8.8306  6.5603  1.2627  1.1368  2.3996  0.0576  1.14  0.6555
3514151.0  9.2385  5.1189  1.2636  1.1079  2.3716  0.0493  0.5178  0.5444
3524049.0  8.2001  8.0327  1.2631  1.3431  2.6062  5.4369  7.0708  0.7461
3595460.0  15.6558  15.2789  1.2846  1.2247  2.5093  0.0469  1.3789  0.5985
3609013.0  12.508  11.9374  1.1898  1.1079  2.2977  0.0243  0.8061  0.7194
3648517.0  21.9077  21.6423  1.6659  1.5988  3.2647  0.011  5.5908  0.9741
3665896.0  8.0701  7.6803  1.2641  1.3261  2.5902  0.0715  9.2005  0.97
3669327.0  12.0661  11.4689  1.1563  1.1079  2.2642  0.0273  0.5868  0.4174
3681948.0  13.7713  13.7462  1.2855  1.2163  2.5018  0.0194  0.4065  0.4048
3682818.0  8.6516  7.3186  1.264  1.3427  2.6067  0.0764  6.1413  0.9445
3686647.0  9.3688  5.8209  1.262  1.1397  2.4018  0.1336  1.9847  0.6722
3694438.0  7.241  6.6013  1.2613  1.1079  2.3692  0.362  2.9705  0.7199
3706497.0  8.7766  8.0624  1.2636  1.237  2.5007  0.0436  0.4026  0.0695
3723823.0  8.4383  7.1596  1.2624  1.1636  2.4259  0.0786  1.006  0.3204
3751457.0  8.9242  6.8122  1.2628  1.1635  2.4262  0.0552  0.7828  0.3665
3765146.0  24.0035  23.5206  1.7894  1.672  3.4614  0.2299  4.2179  0.7714
3766148.0  11.8388  11.1023  1.1395  1.1079  2.2475  0.0308  0.7657  0.5488
3779447.0  17.562  10.9313  1.5744  1.5343  3.1086  14.4421  7.7132  0.6078
3788577.0  9.2102  4.706  1.2621  1.1079  2.3701  0.0555  0.5905  0.1253
3806524.0  17.7998  17.4618  1.589  1.402  2.991  0.0136  0.4948  0.6601
3827240.0  22.5008  22.4519  1.6434  1.6319  3.2753  0.1831  3.7366  0.7649
3831071.0  9.1769  6.924  1.2642  1.1671  2.4313  0.0446  0.5484  0.5207
3846946.0  7.2387  6.4324  1.2612  1.1079  2.3691  0.0681  0.7903  0.4626
3859262.0  11.488  10.9829  1.1088  1.1079  2.2168  0.0259  0.2403  0.1514
3868568.0  14.997  5.3648  1.2404  1.2584  2.4988  0.0359  3.2019  0.9236
3885883.0  7.1914  5.7826  1.2615  1.2608  2.5223  0.1127  1.2758  0.4688
3890711.0  8.1221  7.2243  1.2623  1.1417  2.404  0.0816  1.1104  0.4441
3905939.0  12.7398  12.4785  1.1976  1.1079  2.3056  0.0205  12.622  0.9966
3937421.0  9.3882  5.5399  1.2621  1.1173  2.3794  0.0628  0.9854  0.4834
3959774.0  12.1009  11.4302  1.1591  1.1079  2.267  0.0343  2.2431  0.8759
3978069.0  8.4736  8.1423  1.2634  1.223  2.4864  0.0673  2.3615  0.8336
4004295.0  9.4352  4.109  1.2621  1.1079  2.37  0.0586  1.0195  0.6364
4019432.0  7.1693  6.5202  1.2613  1.1079  2.3693  0.06  0.8395  0.8127
4039004.0  9.6578  3.9557  1.2619  1.1079  2.3699  0.0496  0.4292  0.3241
4051611.0  12.3877  7.7701  1.1092  1.3435  2.4527  1.6958  29.365  0.9746
4078172.0  14.7765  14.327  1.3617  1.1602  2.522  0.0174  0.4044  0.7412
4082807.0  8.1692  8.1676  1.1079  1.2608  2.3687  0.0972  2.2078  0.7656
4088717.0  12.7457  12.7375  1.2072  1.1844  2.3917  0.0197  0.5107  0.9403
4093588.0  7.9794  7.56  1.2641  1.3113  2.5754  1.5234  170.97  0.997
4106103.0  8.8428  6.6258  1.2641  1.1206  2.3846  0.067  8.1812  0.9696
4130348.0  8.7142  8.0599  1.2627  1.2632  2.5259  0.1374  7.8675  0.9446
4130671.0  8.7585  6.4866  1.2622  1.1403  2.4025  0.1869  7.6539  0.9382
4133524.0  8.9085  8.8564  1.2632  1.2774  2.5406  0.7651  3.6949  0.697
4159705.0  9.1917  7.5867  1.263  1.25  2.513  0.0451  0.8347  0.593
4164962.0  8.2879  6.6621  1.2625  1.1234  2.3859  0.0517  0.4951  0.3841
4168133.0  6.9908  6.0131  1.2612  1.1079  2.3691  0.2954  1.9629  0.5267
4181056.0  6.9535  6.248  1.2631  1.1079  2.371  0.0672  0.3126  0.1069
4182226.0  9.0893  5.368  1.2621  1.1079  2.37  0.053  0.6057  0.2414
4198585.0  9.3195  6.2877  1.2622  1.1681  2.4303  0.0566  0.9748  0.5222
4201347.0  9.2203  6.7116  1.2637  1.1614  2.4251  0.0567  2.5893  0.8811
4202109.0  26.1229  25.8581  1.8078  1.7552  3.5629  13.4697  10.422  0.7146
4210705.0  8.8371  8.0995  1.264  1.4128  2.6768  0.0666  9.3654  0.9693
4213504.0  8.9482  8.2167  1.264  1.2581  2.5221  0.0493  1.3575  0.7477
4228047.0  8.7783  6.0494  1.2632  1.1494  2.4126  0.1636  1.9179  0.6181
4240870.0  8.9214  8.9182  1.1079  1.1079  2.2159  0.1309  1.6735  0.6019
4258438.0  12.029  11.3498  1.1537  1.1079  2.2616  0.3327  8.0173  0.9288
4265527.0  8.8166  6.7456  1.2625  1.1631  2.4256  0.0514  0.6091  0.2034
4266816.0  9.3963  4.6917  1.2619  1.1079  2.3699  0.0652  1.1564  0.6067
4269091.0  7.1023  5.6893  1.2611  1.2608  2.5219  0.4595  2.2234  0.4787
4272965.0  8.2169  7.4146  1.2637  1.1399  2.4036  0.0555  2.3323  0.8871
4296521.0  6.9517  5.8583  1.2613  1.2608  2.522  0.2031  1.5363  0.3652
4298128.0  9.4073  4.8175  1.2628  1.1079  2.3707  0.0567  1.0884  0.6686
4335310.0  8.2386  6.8166  1.2617  1.274  2.5357  3.4627  7.8788  0.8189
4346460.0  8.8286  7.2836  1.2636  1.1772  2.4407  0.0448  0.3189  0.0643
4354171.0  8.3379  6.9014  1.2636  1.1125  2.376  0.0588  2.2175  0.8693
4371807.0  9.0147  5.2432  1.2626  1.1079  2.3706  0.1591  2.5437  0.7562
4373429.0  12.1701  11.6126  1.1642  1.1079  2.2721  0.0235  0.2403  0.5627
4387078.0  7.9928  7.4146  1.2636  1.3017  2.5653  1.1739  127.93  0.9963
4389417.0  8.7504  6.1643  1.264  1.2614  2.5255  13.3476  7.2718  0.6711
4406374.0  7.2649  6.7522  1.2611  1.1079  2.3691  5.3247  5.6944  0.6914
4422156.0  7.2944  6.5994  1.2616  1.1079  2.3695  0.2627  4.9879  0.8791
4452715.0  9.259  7.6421  1.2632  1.2531  2.5163  0.0454  1.1406  0.7276
4457198.0  11.6156  11.0372  1.1196  1.1079  2.2276  0.0284  0.5208  0.3236
4460043.0  9.8171  3.6907  1.2623  1.1079  2.3702  0.049  0.2443  0.2829
4488313.0  8.7944  7.5192  1.2628  1.2106  2.4734  0.46  19.984  0.9734
4516235.0  8.6532  8.6136  1.2635  1.4129  2.6764  2.7399  10.589  0.8808
4517114.0  8.2752  7.7485  1.2632  1.1786  2.4419  0.3796  45.105  0.9914
4531254.0  8.2613  7.9901  1.1083  1.2608  2.3691  0.0551  0.8613  0.4506
4555336.0  7.0631  6.6031  1.2616  1.1079  2.3696  0.0954  1.0495  0.3559
4556736.0  6.9557  5.8196  1.2613  1.2608  2.5221  0.1658  1.4698  0.4135
4566880.0  24.0156  23.7152  1.7467  1.6802  3.4269  4.8935  4.2674  0.1441
4571338.0  7.1555  5.6662  1.2612  1.2608  2.5219  0.3117  1.8589  0.4176
4571704.0  8.0837  7.6318  1.2637  1.1479  2.4116  0.0515  0.8087  0.6358
4573749.0  9.0972  5.6536  1.263  1.1335  2.3965  0.1018  1.3013  0.4756
4579030.0  9.5078  5.343  1.2628  1.1079  2.3707  0.0478  0.8824  0.7035
4587773.0  9.1768  6.5438  1.2628  1.1661  2.4289  0.063  2.9968  0.8885
4588234.0  9.1615  8.3977  1.1082  1.1079  2.2162  0.0394  0.5028  0.8519
4608641.0  8.7075  6.3766  1.2628  1.1453  2.4081  0.1637  2.1568  0.6797
4616299.0  9.4709  4.5211  1.2619  1.1079  2.3699  0.0802  1.8798  0.7576
4616424.0  8.4687  6.4641  1.2642  1.2028  2.4669  0.3601  5.9668  0.8861
4622578.0  11.8441  11.1102  1.1398  1.1079  2.2477  0.0431  0.8036  0.2723
4639849.0  9.1832  5.5537  1.2619  1.1079  2.3699  0.0958  1.3912  0.5565
4657898.0  9.042  6.0523  1.2621  1.1342  2.3963  0.3684  8.5646  0.9298
4662361.0  13.4605  13.0189  1.2615  1.1079  2.3694  2.4202  3.2092  0.439
4668085.0  9.1059  6.5426  1.2644  1.1288  2.3932  0.0491  2.5348  0.9156
4681183.0  8.8529  6.1443  1.2639  1.2685  2.5324  4.3685  8.816  0.8309
4711590.0  7.2298  6.0872  1.2613  1.1079  2.3692  0.23  2.6459  0.7335
4738540.0  7.1984  6.3536  1.2615  1.1079  2.3695  0.065  0.5772  0.2977
4748483.0  9.5561  3.9542  1.2627  1.1079  2.3707  0.051  0.6238  0.6285
4753492.0  24.1626  23.5448  1.8235  1.6739  3.4974  3.4558  15.012  0.893
4768201.0  9.1205  7.6  1.2627  1.2494  2.5122  0.0558  1.9136  0.8086
4774167.0  8.323  7.9113  1.2631  1.2009  2.4641  0.051  1.4312  0.7946
4792478.0  9.2785  5.8239  1.2621  1.1358  2.3979  0.2817  5.1859  0.8782
4796258.0  6.9526  5.9175  1.2616  1.1079  2.3695  0.3543  7.2407  0.9175
4800915.0  8.7355  6.5624  1.2621  1.1528  2.4149  0.1207  1.7783  0.6369
4827976.0  12.2084  11.514  1.1669  1.1079  2.2748  0.9695  3.8148  0.7177
4830219.0  7.1799  6.303  1.2611  1.2608  2.5218  0.2833  1.8431  0.4338
4839026.0  8.9783  6.6354  1.2631  1.1475  2.4107  0.0526  0.8639  0.5483
4869124.0  8.8241  6.1262  1.2624  1.1079  2.3703  0.0648  0.8967  0.3988
4888403.0  8.9446  7.9516  1.2643  1.2289  2.4932  0.0435  0.5728  0.5039
4902625.0  9.6847  5.2325  1.2633  1.1079  2.3712  0.0447  0.3756  0.442
4919255.0  9.5125  3.9273  1.2627  1.1079  2.3706  0.0553  1.8189  0.8642
4933929.0  8.8192  6.4264  1.2624  1.127  2.3894  0.1475  3.7319  0.8582
4940218.0  8.7117  6.6594  1.2643  1.1079  2.3722  0.0473  0.3182  0.3065
4955331.0  8.3871  7.6743  1.2647  1.1625  2.4273  0.0475  0.8639  0.7523
4958263.0  8.7207  6.4036  1.2623  1.128  2.3903  0.1458  2.038  0.6751
4981336.0  7.0455  6.0072  1.2614  1.2608  2.5221  0.113  1.1622  0.3486
4985593.0  8.6528  6.5934  1.2621  1.1509  2.413  0.1083  1.4957  0.559
4989417.0  22.2931  21.4354  1.8357  1.5911  3.4267  0.1562  4.5774  0.8244
4994373.0  9.5664  9.182  1.1083  1.1079  2.2163  0.0435  0.6905  0.2852
5003571.0  7.2842  6.7847  1.2614  1.1079  2.3693  0.3849  2.8212  0.6893
5004343.0  6.9902  5.7908  1.2613  1.2608  2.5221  0.2031  1.5756  0.3983
5008419.0  22.551  22.0954  1.735  1.6186  3.3535  12.2258  28.634  0.9304
5036480.0  8.0076  7.5309  1.2636  1.1353  2.3989  0.0525  0.8544  0.6626
5040231.0  14.8611  14.5412  1.3678  1.2258  2.5936  0.0171  0.484  0.9915
5045444.0  11.1339  11.1305  1.1079  1.1079  2.2159  2.1008  9.6778  0.898
5073440.0  9.5478  4.3487  1.2626  1.1079  2.3706  0.0487  0.4616  0.4906
5088984.0  7.0155  6.5557  1.2615  1.1079  2.3694  0.2556  1.7668  0.469
5095163.0  15.5197  14.9925  1.4172  1.1912  2.6084  0.0162  0.3112  0.87
5105721.0  9.2049  7.9363  1.2638  1.2628  2.5266  0.047  4.0042  0.9424
5108898.0  8.9109  6.186  1.2635  1.1813  2.4448  0.0483  5.0794  0.9793
5124508.0  7.2241  6.5533  1.2612  1.1079  2.3692  0.1138  1.2442  0.4395
5127852.0  12.3629  11.6802  1.1791  1.1079  2.287  0.0611  0.9321  0.1379
5128193.0  9.319  6.0316  1.2625  1.1336  2.3961  0.0829  1.5417  0.6538
5129594.0  12.2066  11.5127  1.1648  1.1079  2.2727  0.0245  0.8299  0.8037
5132308.0  8.4073  7.1814  1.2624  1.1678  2.4302  0.0831  2.0477  0.7696
5144877.0  10.05  10.0464  1.1079  1.1079  2.2159  0.0311  0.4872  0.3068
5148879.0  16.2445  15.7097  1.4746  1.2581  2.7327  0.0209  0.6659  0.1626
5178710.0  7.9906  7.7527  1.2627  1.1483  2.411  0.0672  1.1458  0.5793
5185244.0  9.1104  8.3147  1.2621  1.3046  2.5668  0.442  13.015  0.9527
5189035.0  20.0174  19.9288  1.5463  1.5223  3.0685  3.3741  3.8991  0.3334
5200524.0  9.1077  6.0696  1.2628  1.1166  2.3794  0.0499  0.5527  0.2172
5200996.0  8.9349  7.8637  1.2631  1.2508  2.5139  0.0429  0.4492  0.2388
5218916.0  12.1075  11.4516  1.1575  1.1079  2.2654  0.0239  0.2306  0.9359
5222361.0  24.8633  24.652  1.7521  1.7084  3.4605  2.7514  4.261  0.3994
5233761.0  11.3719  10.8741  1.1081  1.1079  2.2161  0.0265  0.3028  0.2549
5248808.0  11.6647  11.083  1.1252  1.1079  2.2332  0.0262  1.4228  0.8998
5274284.0  12.4577  11.7258  1.1865  1.1079  2.2944  0.0272  0.8349  0.6379
5284657.0  11.8986  11.2336  1.144  1.1079  2.2519  0.9541  3.5459  0.6916
5296619.0  7.0882  6.2043  1.2613  1.1079  2.3692  0.7944  3.0158  0.6207
5303733.0  6.979  5.7944  1.2614  1.2608  2.5222  0.1024  1.046  0.3213
5307711.0  7.2484  6.6302  1.2614  1.1079  2.3694  0.1033  1.0217  0.2007
5323006.0  8.6872  6.414  1.264  1.2755  2.5395  4.9178  7.734  0.7892
5329931.0  9.0618  6.5221  1.2639  1.1304  2.3943  0.0463  0.593  0.6064
5332579.0  15.0874  14.6062  1.3844  1.1677  2.5521  0.0388  1.1298  0.5086
5334552.0  9.2884  6.396  1.2625  1.1628  2.4253  0.0487  0.5876  0.2033
5335671.0  14.967  14.9517  1.2386  1.2147  2.4533  0.0316  1.5197  0.7347
5340972.0  9.1763  6.8517  1.2624  1.2008  2.4632  0.0606  1.1648  0.5884
5343753.0  9.2542  4.8027  1.2625  1.1079  2.3704  0.0765  1.3494  0.6266
5343860.0  29.9065  29.8111  1.9241  1.9088  3.8329  0.02  3.182  0.8585
5343922.0  8.9266  7.1594  1.2626  1.201  2.4637  0.0437  0.3107  0.3789
5353199.0  13.416  13.0733  1.2586  1.1153  2.3739  0.1585  1.4679  0.3535
5353691.0  8.5158  8.4285  1.2648  1.2028  2.4676  0.0579  8.532  0.9737
5361435.0  9.285  5.3697  1.2621  1.1079  2.37  0.0571  0.7083  0.187
5363829.0  8.276  6.7789  1.2628  1.1079  2.3707  0.0624  1.1866  0.6638
5365177.0  9.4195  4.6847  1.2619  1.1079  2.3699  0.2986  7.2891  0.9217
5390225.0  8.9797  6.0332  1.2624  1.122  2.3844  1.0764  24.876  0.9743
5397649.0  9.5216  5.3315  1.2629  1.1079  2.3709  0.0489  1.1614  0.7734
5434757.0  9.1439  5.5166  1.2639  1.1079  2.3719  0.0608  6.6017  0.9659
5470476.0  28.1682  27.9712  1.8628  1.8308  3.6936  0.191  4.863  0.8113
5478470.0  14.3818  14.1464  1.2601  1.1627  2.4228  0.0218  0.6851  0.4216
5485969.0  9.5005  7.2332  1.2646  1.2128  2.4774  0.0528  5.0  0.9501
5498762.0  9.2271  4.8712  1.2636  1.1171  2.3808  0.0556  0.6773  0.3626
5508679.0  7.276  6.4235  1.2614  1.1079  2.3693  0.4255  2.5094  0.6146
5524766.0  8.8016  6.5162  1.2635  1.1156  2.379  0.0469  0.2354  0.342
5529962.0  7.2074  6.3835  1.2615  1.1079  2.3695  0.0846  0.9389  0.3419
5547089.0  24.8267  24.3647  1.8087  1.7047  3.5134  0.2338  2.5524  0.5015
5547169.0  8.3332  6.9413  1.2629  1.1237  2.3866  0.0489  0.3018  0.3971
5562187.0  7.2401  6.6279  1.2612  1.1079  2.3692  0.4281  3.1036  0.7177
5568643.0  8.7791  7.4042  1.2638  1.1822  2.446  0.0823  8.6836  0.9644
5570336.0  12.9055  12.4518  1.2208  1.1079  2.3287  0.0217  1.0677  0.8732
5581660.0  9.5801  5.515  1.2627  1.112  2.3747  0.0511  1.5007  0.8038
5586433.0  9.2511  5.216  1.2619  1.1079  2.3699  0.0565  0.8529  0.4959
5593265.0  7.096  5.8641  1.2613  1.2608  2.5221  0.173  1.463  0.3801
5596852.0  7.0554  6.1248  1.2613  1.1079  2.3693  0.0801  0.962  0.4946
5605940.0  22.1173  21.6143  1.7226  1.5884  3.311  1.4132  4.5985  0.6245
5607968.0  9.626  5.1984  1.2627  1.1079  2.3706  0.0488  0.839  0.6299
5630100.0  9.2026  5.8857  1.2625  1.113  2.3755  0.0729  1.2699  0.5967
5638531.0  9.491  4.9913  1.2623  1.1079  2.3702  0.0559  0.9277  0.5572
5649287.0  8.7029  8.1077  1.2627  1.4058  2.6685  0.044  6.7524  0.9804
5661032.0  8.0999  7.7693  1.2628  1.1713  2.4342  0.0489  0.4388  0.2826
5662400.0  8.4737  7.3363  1.263  1.1641  2.4271  0.0494  0.5279  0.2223
5669270.0  21.7255  21.5091  1.6514  1.595  3.2464  1.1258  5.4387  0.7356
5688821.0  8.3233  8.2937  1.1083  1.1079  2.2162  1.0408  22.715  0.9734
5726608.0  8.5836  8.4332  1.2637  1.2231  2.4867  0.0455  0.625  0.4326
5730946.0  11.4938  10.9862  1.108  1.1079  2.2159  0.0258  0.2763  0.6478
5734558.0  7.2847  6.5853  1.2616  1.1079  2.3695  0.126  1.9311  0.6958
5737429.0  19.8867  19.0251  1.7485  1.4401  3.1886  0.012  2.7751  0.973
5740100.0  9.4577  4.7346  1.263  1.1079  2.3709  0.0499  0.5496  0.4534
5749156.0  13.0066  12.293  1.1132  1.5639  2.6771  0.1499  4.9329  0.8826
5759865.0  7.9513  7.7561  1.2625  1.151  2.4134  0.1173  2.1405  0.7312
5777215.0  11.2642  10.6417  1.1085  1.2608  2.3693  0.0272  0.2704  0.356
5780192.0  9.1326  5.5603  1.2641  1.1079  2.372  0.0481  0.4166  0.5057
5787374.0  12.0275  11.4624  1.1519  1.1079  2.2599  0.0247  0.4301  0.4822
5793906.0  9.2763  5.7754  1.2627  1.1122  2.3749  0.0587  2.5474  0.88
5804320.0  19.116  18.5025  1.6274  1.4326  3.06  1.1203  5.3264  0.7451
5804781.0  11.7947  11.2163  1.1275  1.1079  2.2355  0.0248  0.2253  0.5135
5805815.0  20.112  19.0287  1.7689  1.4128  3.1817  1.9309  4.7917  0.622
5826168.0  8.1472  8.1445  1.1079  1.2608  2.3687  0.0423  0.4195  0.4613
5879162.0  9.1001  5.0949  1.2635  1.1079  2.3714  0.0653  5.6363  0.9554
5885614.0  9.2535  4.5543  1.2617  1.1079  2.3697  0.1017  1.5626  0.6218
5908818.0  12.4712  10.4875  1.1372  1.4791  2.6163  4.6023  5.4924  0.6573
5920629.0  12.2308  5.4584  1.1088  1.2432  2.352  0.038  5.7759  0.9751
5929278.0  18.6788  17.9115  1.6639  1.3594  3.0233  0.0135  0.5132  0.4767
5933854.0  9.0451  5.1578  1.2632  1.1079  2.3711  0.0711  1.0038  0.4575
5942973.0  9.4861  5.0713  1.262  1.1079  2.37  0.0898  1.2918  0.5225
5959333.0  9.3923  5.1565  1.2635  1.1409  2.4044  0.0547  0.6908  0.3139
5964440.0  9.2951  5.0958  1.2619  1.1079  2.3698  0.0567  0.8905  0.5297
5969644.0  12.4793  5.3422  1.1098  1.1485  2.2583  0.1196  11.585  0.9711
5972192.0  8.7562  7.3001  1.2635  1.1759  2.4393  0.0459  0.4095  0.1379
5982576.0  9.3089  7.9785  1.2643  1.2583  2.5227  0.0461  1.5175  0.8027
5992699.0  9.1458  5.4439  1.264  1.1079  2.3719  0.0483  0.3759  0.421
5993681.0  8.1827  7.8235  1.2625  1.2008  2.4633  0.1003  4.0673  0.8934
5996248.0  8.8076  7.8195  1.2635  1.2826  2.5461  9.5101  28.468  0.9501
6007281.0  7.1967  6.4196  1.2615  1.1079  2.3694  0.062  0.5901  0.5485
6021434.0  9.3959  5.8825  1.2624  1.1399  2.4022  0.0748  1.8737  0.7573
6030901.0  9.3167  4.7587  1.2628  1.1079  2.3707  0.0504  0.4858  0.4295
6052626.0  9.4069  5.9693  1.2625  1.1376  2.4001  0.0511  1.1436  0.7071
6068574.0  8.3081  7.5209  1.2631  1.1621  2.4252  0.0565  1.1322  0.6685
6083631.0  11.0828  10.5373  1.1083  1.2608  2.3691  0.0276  0.2102  0.2223
6090717.0  8.2296  7.5605  1.2632  1.1598  2.423  0.103  6.0339  0.9366
6098827.0  11.9149  11.2304  1.1417  1.1079  2.2496  0.0247  0.4386  0.9611
6123557.0  9.0459  5.4558  1.2635  1.1368  2.4003  0.4117  4.8771  0.8476
6131348.0  14.8067  14.4317  1.3635  1.1985  2.562  0.0182  0.6061  0.6132
6159650.0  8.2531  7.5044  1.2624  1.1754  2.4378  0.0583  0.7587  0.2873
6165242.0  8.2705  8.1176  1.1083  1.2608  2.3691  0.0578  0.9938  0.5155
6170095.0  7.2561  6.7263  1.2612  1.1079  2.3692  0.209  1.4761  0.3296
6187954.0  12.8716  12.5313  1.1785  1.1079  2.2865  0.0202  0.2354  0.7184
6188981.0  8.3856  7.8171  1.2638  1.1842  2.448  0.0583  2.6634  0.8856
6192851.0  8.5642  7.343  1.2645  1.1514  2.4159  0.0544  4.5933  0.9511
6209146.0  9.0714  6.6179  1.2636  1.1451  2.4087  0.0579  3.1192  0.9075
6216336.0  9.2592  7.9055  1.2638  1.2639  2.5278  0.0403  0.7084  0.7405
6234599.0  6.9977  6.533  1.2614  1.1079  2.3693  1.7445  9.986  0.9028
6261532.0  9.1674  5.6647  1.2624  1.1079  2.3704  0.0653  1.0174  0.5056
6279212.0  7.1075  5.7394  1.2612  1.2608  2.522  0.1597  1.5432  0.4789
6282887.0  8.7328  6.6149  1.2624  1.1454  2.4078  0.0476  0.4448  0.5311
6300874.0  12.1187  11.3791  1.1575  1.1079  2.2654  0.0245  0.9848  0.8854
6360503.0  8.3758  7.6715  1.264  1.1676  2.4316  0.0573  2.959  0.9051
6365770.0  15.3571  15.011  1.3583  1.228  2.5863  0.0239  1.5706  0.7866
6381860.0  16.6469  16.4326  1.3981  1.3295  2.7276  0.3033  3.2607  0.719
6398239.0  9.3612  6.0243  1.2629  1.1366  2.3995  0.0488  1.0032  0.6938
6398379.0  13.5588  13.0821  1.2694  1.1079  2.3774  0.0222  0.8362  0.6868
6401519.0  11.8733  11.2805  1.1378  1.1079  2.2458  0.0252  0.43  0.5328
6417544.0  9.7406  9.7402  1.1079  1.1079  2.2159  0.1746  2.2959  0.7104
6418403.0  8.4837  7.5312  1.264  1.1652  2.4293  0.0468  0.4338  0.371
6421632.0  8.8854  8.5632  1.2644  1.2709  2.5352  0.0423  0.5443  0.4385
6422301.0  13.3747  13.0794  1.2047  1.1079  2.3127  0.3824  7.5459  0.9168
6430537.0  8.2928  8.2627  1.2631  1.1996  2.4627  0.7359  69.637  0.9941
6447809.0  15.3137  15.096  1.3159  1.2186  2.5346  0.0154  0.2433  0.9415
6466675.0  14.1881  14.1167  1.317  1.2277  2.5447  0.0181  0.3895  0.7187
6485435.0  9.0687  7.1972  1.2638  1.1883  2.452  0.0451  0.5478  0.4241
6491390.0  9.4403  6.7783  1.263  1.201  2.464  0.0633  4.4222  0.9296
6496455.0  9.4741  6.7155  1.2628  1.2011  2.4639  0.0589  3.3459  0.9055
6547281.0  20.3629  20.0079  1.5597  1.503  3.0626  0.0116  4.0348  0.9728
6565870.0  12.6104  12.3502  1.1982  1.1079  2.3061  0.0233  0.434  0.1929
6618661.0  20.3726  19.3552  1.7913  1.4443  3.2356  4.2808  4.3867  0.3627
6627470.0  9.265  5.8795  1.262  1.162  2.424  0.0509  0.6176  0.1689
6658260.0  7.191  6.6836  1.2613  1.1079  2.3692  0.0655  0.7873  0.4745
6661604.0  7.0908  5.7036  1.2615  1.2608  2.5223  0.1114  1.2378  0.4558
6675245.0  13.454  13.0377  1.2615  1.1079  2.3694  0.2963  2.1117  0.5463
6695950.0  12.5576  12.4941  1.1933  1.1437  2.3369  6.78  87.73  0.9894
6705055.0  12.5073  11.9531  1.1897  1.1079  2.2976  0.9324  2.062  0.1203
6721148.0  17.2506  16.65  1.5487  1.3023  2.851  0.0141  0.2904  0.9222
6727612.0  8.8355  6.3408  1.2621  1.1405  2.4026  0.1031  1.9825  0.7215
6748711.0  10.9076  10.3864  1.1086  1.2608  2.3694  0.0284  0.2688  0.3976
6763905.0  8.6719  6.3689  1.2621  1.2725  2.5346  0.5524  16.118  0.9619
6773619.0  9.1627  7.4434  1.2626  1.2457  2.5083  0.0582  1.3198  0.6599
6814290.0  19.3128  9.3706  1.7354  1.1079  2.8433  1.9184  3.5902  0.4848
6823602.0  12.6164  11.9884  1.1984  1.1079  2.3063  0.0977  1.5243  0.5596
6824569.0  21.7864  21.6487  1.6344  1.6005  3.2349  8.2714  26.468  0.9348
6838076.0  8.7175  8.6213  1.2633  1.251  2.5144  0.0592  1.4384  0.6928
6840209.0  12.1133  11.4385  1.1598  1.1079  2.2677  5.3715  13.611  0.907
6846793.0  8.2462  7.4766  1.2627  1.1654  2.428  0.06  1.1575  0.6446
6847375.0  8.1753  8.1156  1.2633  1.1786  2.4418  0.0725  2.8545  0.8674
6847708.0  8.6094  7.1949  1.2631  1.2136  2.4767  0.0634  16.134  0.9875
6851710.0  7.2298  6.4641  1.2614  1.1079  2.3693  0.5195  2.8852  0.66
6853068.0  9.4127  6.4163  1.2632  1.164  2.4272  0.0456  1.0488  0.7547
6856048.0  9.1022  5.2366  1.2623  1.1391  2.4015  0.0568  0.6788  0.1837
6862931.0  8.393  7.3975  1.2627  1.1693  2.432  0.0551  0.697  0.2599
6874170.0  8.6346  6.4423  1.2631  1.1643  2.4274  0.0669  6.1047  0.9569
6883084.0  23.4576  23.0182  1.7606  1.6547  3.4153  1.2828  3.7326  0.4725
6883659.0  9.5528  4.7995  1.2631  1.1079  2.3711  0.0478  0.8205  0.7404
6888180.0  19.4894  19.1498  1.5187  1.4606  2.9794  0.012  0.3014  0.3361
6890095.0  12.5102  11.8254  1.1898  1.1079  2.2977  3.7002  3.4831  0.4363
6905943.0  7.1226  6.2656  1.2614  1.1079  2.3693  0.6933  3.8102  0.7447
6973137.0  9.3199  4.5144  1.2624  1.1079  2.3704  0.1952  24.614  0.9867
6977697.0  13.2512  12.9789  1.1913  1.1079  2.2992  0.1543  1.7802  0.5676
6982805.0  13.8322  13.4617  1.2654  1.1079  2.3734  0.0186  0.3678  0.3913
7027399.0  8.2381  8.1015  1.2646  1.1631  2.4277  0.046  0.3905  0.4433
7030571.0  9.3392  9.2854  1.2652  1.348  2.6132  0.04  1.2836  0.7977
7076170.0  8.3139  8.1722  1.264  1.3607  2.6247  0.5682  8.0358  0.9021
7094593.0  8.6928  8.6923  1.1079  1.1079  2.2159  0.037  0.3297  0.8224
7103212.0  22.5227  21.9984  1.754  1.6165  3.3705  14.2269  6.1475  0.3578
7121082.0  9.2475  7.4851  1.2628  1.2486  2.5114  0.0534  1.4874  0.7421
7123663.0  9.2312  5.7119  1.2621  1.1167  2.3788  0.0953  1.9447  0.7303
7124873.0  15.1678  15.0575  1.276  1.2272  2.5032  0.02  1.8973  0.8691
7137482.0  8.1399  7.5302  1.2633  1.3203  2.5835  0.451  10.634  0.9383
7161398.0  13.991  6.2167  1.2226  1.4178  2.6404  0.3648  6.4172  0.8866
7163191.0  8.2943  8.1328  1.2636  1.1835  2.447  0.0453  0.2641  0.3211
7171615.0  9.0883  5.8774  1.2627  1.1079  2.3706  0.0476  0.3978  0.3851
7201395.0  9.12  8.1312  1.262  1.2917  2.5538  1.985  5.001  0.7192
7214994.0  8.6647  6.4491  1.2642  1.1079  2.3722  0.0489  0.5792  0.6232
7222927.0  13.3861  13.0263  1.2266  1.1079  2.3346  0.0226  0.5636  0.3098
7258978.0  15.0738  11.7547  1.385  1.1079  2.493  0.0315  3.4321  0.9265
7270311.0  7.2145  6.7156  1.2614  1.1079  2.3693  0.0579  0.767  0.7578
7271952.0  8.4683  7.2087  1.2628  1.1576  2.4204  0.1447  5.4271  0.913
7278149.0  15.6762  15.3681  1.3708  1.244  2.6148  0.0151  0.3779  0.701
7283145.0  9.5306  6.3759  1.2634  1.1624  2.4258  0.0429  0.5914  0.6416
7291848.0  9.5191  3.933  1.2628  1.1079  2.3707  0.0504  0.2884  0.2273
7317146.0  12.8349  12.5348  1.2143  1.1079  2.3223  0.0356  0.9329  0.4942
7319755.0  27.3837  25.4077  1.8446  1.6706  3.5152  0.018  1.4455  0.6494
7359012.0  13.6443  13.3053  1.2759  1.1246  2.4005  0.2216  5.9296  0.903
7361613.0  14.2383  13.8524  1.3198  1.1378  2.4575  0.0183  6.1216  0.9922
7367803.0  8.5289  7.0434  1.2645  1.1254  2.3899  0.0479  0.579  0.6348
7371122.0  9.6052  5.7678  1.2638  1.1145  2.3783  0.0734  9.521  0.9717
7379253.0  11.507  11.0024  1.1128  1.1079  2.2208  0.0285  0.5993  0.4924
7404851.0  7.1792  6.1831  1.2614  1.1079  2.3693  0.1446  1.5091  0.5248
7436303.0  9.041  5.653  1.2629  1.1079  2.3709  0.0502  0.6711  0.5803
7438423.0  7.9899  7.2334  1.2631  1.1179  2.381  0.0548  0.6958  0.4756
7438596.0  9.5212  9.521  1.1079  1.1079  2.2159  7.3739  4.9141  0.5938
7441548.0  11.0014  10.5546  1.11  1.4852  2.5952  0.0285  2.6001  0.973
7454388.0  8.4862  7.6995  1.2637  1.185  2.4487  0.0479  0.6478  0.5146
7463876.0  9.294  6.5352  1.2643  1.1452  2.4095  0.0469  1.3171  0.8169
7470653.0  9.6537  4.4522  1.2626  1.1079  2.3705  0.0581  3.1605  0.9148
7501472.0  9.4551  6.0159  1.2621  1.1646  2.4267  0.2015  3.9939  0.8471
7545838.0  11.7046  11.0696  1.1292  1.1079  2.2371  0.0254  1.0901  0.9664
7547859.0  8.2174  7.9558  1.2625  1.1835  2.446  0.1216  2.32  0.7482
7549930.0  7.0649  6.571  1.2626  1.1079  2.3706  0.0656  0.5254  0.0191
7572068.0  9.3025  5.7844  1.2619  1.1349  2.3968  1.0028  26.524  0.9769
7602661.0  9.1648  7.6714  1.2636  1.236  2.4996  1.8595  1028.7  0.9996
7602901.0  10.935  10.9322  1.1079  1.1079  2.2159  0.2311  6.7386  0.9237
7609362.0  18.0892  17.4402  1.614  1.3809  2.9949  0.0245  2.3004  0.8346
7622967.0  9.0728  4.9742  1.2634  1.1968  2.4602  0.5224  13.472  0.9543
7626192.0  17.2248  16.8783  1.4739  1.3483  2.8222  0.0147  0.4974  0.2266
7647453.0  8.5971  7.2  1.2611  1.328  2.589  0.2475  6.6104  0.9093
7666985.0  8.2009  7.8114  1.2629  1.2188  2.4817  0.0678  9.5239  0.9738
7668581.0  7.1747  6.6326  1.2615  1.1079  2.3694  0.1361  1.1901  0.2443
7680120.0  11.0836  10.6045  1.109  1.1079  2.2169  0.0424  7.3604  0.9712
7684663.0  9.1714  5.2706  1.2628  1.1079  2.3707  0.0534  0.7167  0.4753
7684873.0  8.2459  7.4131  1.264  1.3171  2.5811  2.5556  8.8575  0.8582
7692412.0  9.1809  8.5625  1.2622  1.3244  2.5867  8.5549  7.5803  0.7302
7729562.0  12.6724  12.5086  1.2024  1.1079  2.3103  0.0304  0.7009  0.2998
7732740.0  8.4295  7.05  1.2635  1.3051  2.5686  5.0206  21.401  0.9422
7751712.0  12.6436  11.8997  1.2002  1.1079  2.3081  0.0291  0.8892  0.6072
7778484.0  12.575  12.1993  1.1953  1.1079  2.3032  0.0674  1.0591  0.3162
7804330.0  15.4845  15.2386  1.282  1.3931  2.6751  0.0162  0.6281  0.6146
7823738.0  9.3863  4.4697  1.2626  1.1079  2.3705  0.0488  0.2681  0.1654
7826467.0  13.3963  13.195  1.1756  1.1079  2.2835  0.0187  0.2492  0.8515
7837825.0  9.6665  6.2177  1.2634  1.1633  2.4267  0.048  2.7169  0.912
7840798.0  8.7827  6.2481  1.2642  1.1079  2.3721  0.0518  2.5675  0.9198
7860680.0  9.1057  6.3723  1.2639  1.1233  2.3871  0.2095  82.429  0.9969
7873398.0  9.1785  5.4239  1.2633  1.1338  2.397  0.2769  4.5265  0.8557
7873724.0  8.7915  7.3508  1.2632  1.1892  2.4524  0.0567  1.1698  0.6475
7874738.0  8.6442  6.6999  1.2641  1.1091  2.3732  0.0486  0.6651  0.6571
7885195.0  6.9733  6.2875  1.2611  1.1079  2.3691  0.4546  1.8916  0.3482
7909233.0  11.5759  10.9024  1.1158  1.2608  2.3766  0.0262  0.3107  0.4338
7910318.0  7.0996  5.6157  1.2614  1.2608  2.5221  0.1634  1.3941  0.3598
7913685.0  8.7955  7.0468  1.2632  1.3319  2.5951  1.9884  20.015  0.9541
7936343.0  8.45  6.271  1.2635  1.1079  2.3714  0.0508  0.3732  0.2856
7952832.0  9.5777  4.5291  1.2626  1.1079  2.3705  0.0478  0.3931  0.3305
7962593.0  13.3341  13.2489  1.2523  1.1844  2.4367  0.0214  7.7684  0.9853
7972076.0  9.3142  4.7392  1.262  1.1211  2.3832  0.1236  1.545  0.5519
7977243.0  11.194  10.5952  1.1082  1.2608  2.369  0.0274  0.2243  0.2732
7988758.0  12.7247  12.0698  1.2064  1.1079  2.3144  0.0225  0.3348  0.2465
7999804.0  8.8482  8.1309  1.2636  1.2459  2.5095  0.0461  0.6881  0.4482
8002434.0  19.7406  16.587  1.5281  1.8921  3.4201  2.021  6.7308  0.7468
8007560.0  11.9829  11.9825  1.1499  1.1468  2.2967  0.0218  0.6017  0.8318
8055895.0  13.9424  13.9357  1.1465  1.1266  2.2731  3.2442  5.4336  0.736
8061420.0  12.7792  11.9927  1.21  1.1079  2.3179  0.0223  0.3584  0.6807
8074209.0  9.1194  7.7882  1.2619  1.2707  2.5326  3.9477  10.581  0.8715
8089768.0  8.7239  7.5648  1.2638  1.1897  2.4535  0.0446  0.3033  0.0634
8103274.0  8.8696  5.8206  1.2631  1.1339  2.3969  0.1135  1.3423  0.4624
8107522.0  14.2167  14.0418  1.2295  1.1583  2.3878  0.0173  0.503  0.7048
8117631.0  6.9768  6.0624  1.2613  1.1079  2.3692  0.0926  0.9862  0.3828
8130764.0  9.1705  5.408  1.2626  1.1079  2.3705  0.138  3.6201  0.8587
8139893.0  9.2437  5.6707  1.2619  1.1177  2.3796  0.693  34.99  0.986
8156135.0  7.0115  6.1917  1.2626  1.2608  2.5234  0.0764  0.8416  0.4611
8157740.0  8.6589  6.2565  1.2634  1.2633  2.5267  1.0178  6.1898  0.837
8171413.0  9.0973  7.2928  1.2621  1.2319  2.4939  11.7539  7.4799  0.7028
8171858.0  20.4849  19.3911  1.7912  1.4348  3.226  0.0115  0.3503  0.9165
8190966.0  9.0754  6.942  1.2624  1.2009  2.4632  0.0599  1.3134  0.665
8196059.0  8.1634  6.9082  1.2624  1.1173  2.3797  0.0651  0.8303  0.3313
8207454.0  8.6667  8.6419  1.2628  1.275  2.5378  5.3667  5.8631  0.6792
8217436.0  11.1506  11.1448  1.108  1.1079  2.2159  0.0245  0.7419  0.8515
8219643.0  8.539  8.1913  1.2648  1.2115  2.4763  0.045  0.7625  0.6944
8269877.0  9.1083  7.6383  1.2629  1.2496  2.5125  0.0466  0.8954  0.6006
8277582.0  13.5514  13.2947  1.2064  1.1079  2.3143  0.0188  0.4081  0.6017
8303568.0  9.7923  9.7874  1.1079  1.1079  2.2159  0.0922  4.5495  0.9131
8337174.0  8.7985  5.7153  1.263  1.1079  2.3709  0.0528  0.7675  0.6072
8340439.0  9.1016  7.6973  1.2637  1.2325  2.4963  0.0434  0.4821  0.2788
8346390.0  9.4048  5.5416  1.262  1.1175  2.3795  0.0862  1.8174  0.722
8392581.0  12.2581  12.2173  1.1713  1.1185  2.2898  0.053  0.9721  0.3427
8403384.0  24.0494  23.2538  1.8254  1.6386  3.464  6.6612  21.856  0.9178
8411512.0  14.0769  13.6097  1.3087  1.1277  2.4364  0.0376  1.0707  0.5152
8421458.0  12.8998  12.6731  1.1507  1.1079  2.2587  1.0618  7.2158  0.8784
8428382.0  9.6897  5.2054  1.2631  1.1079  2.3711  0.055  6.3809  0.9666
8434843.0  12.6879  11.9406  1.203  1.1079  2.3109  0.1002  2.1972  0.7412
8457614.0  27.956  27.3245  1.863  1.7781  3.6411  2.0714  4.9118  0.5593
8457968.0  12.1806  11.463  1.1435  1.1079  2.2514  0.0243  0.33  0.3797
8465520.0  15.2119  15.2016  1.2529  1.2483  2.5012  0.0165  0.4917  0.4063
8478001.0  7.2494  5.7747  1.2614  1.2608  2.5222  0.1291  1.3276  0.4275
8490617.0  8.4754  7.0185  1.2635  1.1286  2.3921  0.0548  1.923  0.8564
8544211.0  12.4054  12.1543  1.139  1.1079  2.247  0.0212  0.3171  0.6662
8558388.0  9.0721  9.0158  1.2621  1.347  2.6091  9.8421  5.3702  0.5159
8560267.0  9.6966  3.4034  1.2628  1.2608  2.5236  0.0528  0.3857  0.4765
8621259.0  29.2978  28.521  1.9152  1.8355  3.7507  0.0077  13.836  0.9971
8624766.0  8.5716  5.8904  1.2635  1.2281  2.4917  0.2758  9.5536  0.9442
8639338.0  9.1924  6.2853  1.2621  1.1653  2.4274  0.0702  0.9593  0.3189
8640028.0  10.8221  10.3531  1.1081  1.1079  2.216  0.0322  0.732  0.5902
8654790.0  6.9469  6.2588  1.2615  1.1079  2.3695  0.0967  1.0113  0.3379
8656486.0  12.3328  5.4233  1.1084  1.2962  2.4046  1.4413  11.497  0.9228
8657449.0  27.5069  27.2342  1.8542  1.8062  3.6604  13.2775  7.2964  0.4946
8676071.0  18.2905  18.0316  1.5054  1.4225  2.9279  0.0136  0.7781  0.6522
8679979.0  8.8443  7.6069  1.2642  1.1986  2.4628  0.0576  4.2685  0.9356
8718663.0  12.6874  12.6431  1.2036  1.1514  2.355  0.0498  1.0175  0.3979
8759658.0  8.6335  8.071  1.264  1.3084  2.5724  4.437  6.7347  0.751
8780285.0  9.2912  6.1265  1.2619  1.1594  2.4213  0.275  4.3504  0.8457
8790142.0  7.0988  5.8604  1.2612  1.2608  2.522  0.2035  1.6491  0.4451
8791208.0  8.2579  7.8931  1.2642  1.1742  2.4384  0.1472  33.529  0.9921
8801711.0  8.7998  6.6786  1.2624  1.1525  2.4148  0.2087  3.6085  0.8241
8809981.0  18.9859  18.5887  1.5809  1.4567  3.0376  0.1598  3.6549  0.7879
8837954.0  8.124  7.8675  1.2626  1.1682  2.4308  0.0715  2.1067  0.8068
8867966.0  8.1074  7.7852  1.2636  1.1619  2.4255  0.0474  0.4345  0.5077
8887135.0  7.25  5.8132  1.2615  1.2608  2.5223  0.1024  1.1532  0.4239
8887627.0  7.0377  6.3097  1.2615  1.1079  2.3694  0.2275  3.0903  0.7861
8903945.0  11.2701  10.6417  1.1084  1.2608  2.3692  0.0272  0.2454  0.1611
8905048.0  9.3575  5.7119  1.262  1.1312  2.3933  0.0472  0.5101  0.2978
8927428.0  9.1784  7.4498  1.2622  1.3083  2.5705  2.7501  7.6399  0.8234
8932426.0  8.6161  6.8187  1.2631  1.133  2.3961  0.053  0.7703  0.5025
8946422.0  7.1368  6.5658  1.2614  1.1079  2.3693  0.2938  3.5605  0.8011
8961613.0  9.063  6.8531  1.2625  1.1806  2.4431  0.0611  0.8647  0.3152
8965175.0  9.3379  5.8763  1.262  1.1415  2.4035  0.0468  0.6695  0.5749
8968905.0  14.2005  13.7639  1.3178  1.1424  2.4602  0.033  0.8933  0.4031
8984458.0  7.1138  6.0009  1.2613  1.1079  2.3692  0.1348  1.2497  0.3745
8985597.0  7.1912  6.1435  1.2621  1.1079  2.37  0.0657  0.5463  0.4131
8988076.0  9.4898  6.8789  1.2635  1.2004  2.4639  0.0427  0.8669  0.7323
9016308.0  9.283  6.2135  1.2624  1.1542  2.4166  0.0512  0.6322  0.1728
9022322.0  9.304  4.4941  1.2626  1.1079  2.3705  0.0778  1.0698  0.4558
9023602.0  9.3039  6.0683  1.2626  1.1375  2.4001  0.0684  4.0147  0.9194
9042019.0  14.933  14.5656  1.3736  1.2057  2.5793  0.1006  2.3279  0.7254
9042280.0  8.9762  7.1898  1.2629  1.1936  2.4564  0.1548  6.3702  0.9254
9046285.0  18.7323  17.9085  1.6682  1.3501  3.0182  0.0154  1.1822  0.7532
9052789.0  12.1925  4.7402  1.109  1.1079  2.2169  0.0393  0.485  0.4599
9057750.0  17.4755  17.1945  1.4048  1.3562  2.761  0.0887  1.8868  0.611
9058976.0  9.5147  5.2786  1.2628  1.1079  2.3707  0.0621  4.1135  0.9313
9079145.0  8.5617  6.7012  1.2626  1.1284  2.3909  0.0926  1.9334  0.7363
9090949.0  9.2527  6.6207  1.2633  1.1627  2.426  0.0453  0.6218  0.5797
9138237.0  9.0851  7.4148  1.2619  1.2427  2.5046  13.3009  7.2369  0.6721
9142566.0  12.5829  11.82  1.1954  1.1079  2.3033  0.0228  0.5664  0.8359
9144419.0  8.0491  7.3165  1.2639  1.1165  2.3804  0.0708  7.3293  0.9649
9172231.0  8.3076  6.4088  1.264  1.1079  2.3719  0.0573  3.3281  0.9328
9192345.0  11.1307  10.5503  1.1085  1.2608  2.3692  0.0276  0.2325  0.2251
9196313.0  9.4097  6.2043  1.2624  1.1677  2.4301  0.1019  4.8899  0.915
9199374.0  9.0893  5.3779  1.2638  1.1079  2.3717  0.0499  0.6726  0.6487
9223413.0  8.8362  6.082  1.2637  1.1079  2.3717  0.0502  0.9597  0.7563
9226074.0  15.6363  15.4538  1.2852  1.2584  2.5437  3.5899  5.5069  0.6965
9230857.0  29.0418  27.2169  1.9024  1.7656  3.668  11.8978  5.6912  0.176
9248083.0  6.9187  6.4211  1.2615  1.1079  2.3694  0.4356  4.4286  0.8271
9255152.0  13.3629  13.191  1.2548  1.1509  2.4058  0.0319  13.976  0.9877
9255777.0  8.9123  8.9101  1.1079  1.1079  2.2159  0.0358  0.3042  0.2964
9256328.0  9.4618  6.0307  1.2621  1.1644  2.4264  0.1528  2.4869  0.742
9261967.0  8.6664  6.1737  1.2628  1.1296  2.3924  0.1257  1.544  0.5461
9264684.0  9.4302  7.6373  1.2636  1.2584  2.5219  0.0414  0.7864  0.6727
9271276.0  12.2677  11.4882  1.1721  1.1079  2.28  0.0245  0.4481  0.5328
9281506.0  12.324  11.5949  1.1762  1.1079  2.2842  0.0463  1.1745  0.5905
9283008.0  13.5069  13.3131  1.2651  1.1589  2.424  0.0448  0.9229  0.2644
9308815.0  8.1376  7.9825  1.2631  1.17  2.4331  0.0604  1.2286  0.6607
9350638.0  7.1131  6.1015  1.2614  1.1079  2.3694  0.0647  0.6768  0.8145
9354186.0  8.1108  6.9954  1.2624  1.1208  2.3831  0.0944  1.4247  0.5886
9373273.0  9.1027  7.8054  1.2643  1.2308  2.495  0.0655  6.5767  0.9557
9387548.0  8.9289  7.1636  1.2637  1.1762  2.4399  0.1613  23.206  0.9864
9388728.0  8.5688  6.7472  1.2626  1.1521  2.4147  0.3171  4.5015  0.8453
9402346.0  9.4455  5.71  1.262  1.1363  2.3983  0.1487  2.2957  0.7194
9418154.0  7.1003  6.5128  1.2612  1.1079  2.3692  0.0842  0.9107  0.2888
9436027.0  8.3387  8.3368  1.1079  1.1079  2.2159  0.0405  0.3464  0.3402
9436066.0  20.3122  20.2687  1.5526  1.5407  3.0933  0.02  3.3683  0.904
9442589.0  8.6451  6.8889  1.2624  1.1633  2.4257  0.0761  0.9766  0.2985
9448649.0  21.0941  20.9638  1.594  1.5621  3.1561  0.0212  4.4832  0.9292
9450033.0  8.5967  7.3256  1.2644  1.2777  2.5421  0.7113  7.4434  0.8866
9458976.0  9.664  4.2424  1.2627  1.1079  2.3707  0.05  0.7973  0.6653
9460994.0  13.0766  12.7631  1.2324  1.1079  2.3403  0.0206  0.3516  0.7269
9468432.0  7.0552  5.8046  1.2614  1.1079  2.3693  0.137  1.1533  0.2498
9475034.0  8.6822  7.0879  1.2631  1.1579  2.421  0.075  2.7561  0.858
9479004.0  9.5693  5.6538  1.262  1.1413  2.4033  0.0646  0.8946  0.3067
9515985.0  13.2396  12.9495  1.2453  1.1079  2.3533  0.0418  6.748  0.9611
9523006.0  7.0473  6.452  1.2615  1.1079  2.3694  1.0017  25.457  0.9761
9525611.0  8.6303  7.2583  1.2643  1.1518  2.4161  0.0469  0.5658  0.5679
9527530.0  9.1489  8.3508  1.2635  1.2844  2.5479  5.1835  4.9739  0.5928
9540372.0  13.2021  9.208  1.1367  1.6304  2.7671  0.1422  8.3324  0.9408
9540431.0  8.2568  7.238  1.264  1.3063  2.5703  13.0117  34.106  0.9553
9552598.0  6.9699  6.5166  1.2611  1.2608  2.5219  0.2511  1.7828  0.438
9554813.0  9.0381  5.6713  1.2622  1.1079  2.3702  0.2616  6.5506  0.9145
9569556.0  9.0438  5.8272  1.2623  1.1079  2.3702  1.2392  33.967  0.9817
9578913.0  11.6964  11.2007  1.1198  1.1079  2.2277  0.0255  0.6071  0.7185
9583951.0  6.9278  5.8604  1.2612  1.2608  2.522  0.1298  1.2992  0.4042
9586220.0  8.9263  5.8324  1.264  1.2495  2.5136  7.6731  10.901  0.8457
9588852.0  26.6941  26.2714  1.8577  1.7733  3.631  8.6647  17.144  0.872
9618459.0  8.6814  8.6781  1.1079  1.1079  2.2159  0.0371  1.4593  0.996
9654486.0  19.9478  19.5007  1.5365  1.4784  3.015  0.4361  3.4987  0.675
9660035.0  8.6088  8.4499  1.2638  1.426  2.6898  0.3817  12.912  0.9528
9664310.0  8.8663  8.8647  1.1079  1.1079  2.2159  0.0362  0.3319  0.3952
9683020.0  9.4886  5.8648  1.1091  1.1379  2.247  0.0704  1.6621  0.7448
9685414.0  9.3633  4.9063  1.2625  1.1079  2.3704  0.0534  0.9536  0.6458
9685648.0  8.9832  8.7682  1.2623  1.3244  2.5868  5.3864  28.669  0.9585
9696772.0  7.1388  5.6923  1.2611  1.2608  2.5219  0.3417  1.9086  0.4148
9702117.0  7.2899  6.701  1.2617  1.1079  2.3697  0.1269  1.6284  0.6023
9703118.0  9.1018  8.0819  1.2639  1.2643  2.5282  0.0491  5.612  0.96
9725279.0  24.1675  23.9727  1.7279  1.6854  3.4133  1.5305  6.9823  0.7811
9731297.0  7.0895  5.8843  1.2614  1.2608  2.5221  0.1504  1.4573  0.4449
9745811.0  9.5201  4.4944  1.262  1.1079  2.3699  0.0543  0.674  0.3298
9748432.0  8.6223  5.985  1.2632  1.1079  2.3712  0.0499  0.218  0.4322
9776540.0  13.9354  13.8055  1.1985  1.1524  2.3509  0.0212  0.9443  0.7024
9784748.0  7.2563  6.0285  1.2611  1.2608  2.5219  0.2747  1.7378  0.3803
9797188.0  8.276  8.1648  1.2632  1.3574  2.6206  5.2192  8.7093  0.8107
9815141.0  9.0425  6.4298  1.2628  1.1711  2.4339  3.8077  9.1984  0.8536
9840114.0  9.477  5.2889  1.262  1.1079  2.3699  0.0851  2.6137  0.8346
9842835.0  9.4565  4.369  1.2619  1.1079  2.3698  0.0942  3.5051  0.8822
9844988.0  13.3122  13.1087  1.2509  1.1127  2.3636  0.0209  1.5601  0.9038
9848315.0  9.6996  9.6982  1.1079  1.1079  2.2159  0.7791  1.9334  0.1641
9881165.0  9.0625  5.4119  1.2627  1.1079  2.3706  0.0562  0.8772  0.5595
9885353.0  9.519  6.1634  1.2625  1.1673  2.4297  0.0683  2.1393  0.8076
9889593.0  9.134  5.5803  1.2627  1.1079  2.3706  0.0514  0.5786  0.2939
9909442.0  8.8098  6.3355  1.2626  1.1203  2.3828  0.0557  0.7656  0.4145
9933928.0  8.7944  6.0046  1.2629  1.1322  2.3952  0.0811  0.9924  0.3002
9934721.0  8.8342  8.5238  1.262  1.3018  2.5637  0.0568  19.011  0.9898
9943377.0  8.4584  6.6843  1.2638  1.1991  2.4628  0.0851  6.022  0.9437
9965045.0  8.5173  8.3821  1.2641  1.2082  2.4723  0.0475  1.5002  0.8247
9981972.0  8.5488  7.2319  1.2643  1.1417  2.4059  0.0471  0.5244  0.5792
9985746.0  8.9861  7.9063  1.2642  1.3272  2.5913  12.8447  7.4244  0.6765
