215362402.649  262
44296.0  51.3845  51.3033  5.8657  5.8227  11.6884  3.9258  10.5  0.2426
103523.0  51.2546  48.2602  7.0256  6.092  13.1176  0.1453  11.454  0.8045
120551.0  102.8023  85.8666  16.1215  10.4808  26.6023  1.4581  14.72  0.1955
149245.0  57.5082  56.7089  6.4595  6.2292  12.6887  0.8192  58.706  0.9605
193501.0  71.5276  65.9529  10.0672  7.5602  17.6274  13.464  21.766  0.4105
208999.0  110.9897  45.7855  14.8365  7.8458  22.6824  4.4771  105.1  0.943
226277.0  43.4797  42.306  8.2694  7.7148  15.9842  3.9335  12.586  0.0359
279679.0  39.2637  37.2605  8.3623  7.2357  15.598  0.3797  6.8529  0.0312
290970.0  41.3367  41.2574  7.5971  7.5371  15.1342  1.1226  8.8287  0.0408
299908.0  89.0097  34.6225  14.5619  5.8633  20.4253  0.0197  117.4  0.9939
312349.0  44.7323  44.2335  8.1147  7.8915  16.0062  7.3385  14.781  0.0408
371385.0  33.7597  32.7173  7.7287  5.646  13.3747  2.671  102.43  0.9691
487301.0  33.7861  32.9633  7.9801  5.7806  13.7607  6.4578  112.78  0.9619
536916.0  61.5885  61.3974  6.5536  6.4925  13.0461  8.3149  128.95  0.9662
548849.0  41.3025  39.8014  8.2523  7.4953  15.7476  0.9548  8.7271  0.0408
589771.0  48.6517  44.5662  5.8262  7.4717  13.2978  4.6674  49.728  0.9081
625320.0  77.1055  76.2471  8.4423  8.1427  16.585  10.7641  41.82  0.8092
712886.0  44.6123  44.4257  8.0113  7.8996  15.9109  4.1532  12.848  0.1103
792062.0  74.3447  74.2498  10.8701  10.7933  21.6633  12.2309  221.02  0.9684
806416.0  42.0544  40.6915  8.1517  7.5163  15.668  9.7509  15.694  0.0739
818419.0  37.4245  35.164  5.9908  7.5366  13.5274  13.8483  95.962  0.9411
827705.0  61.2638  57.8063  7.8341  6.5624  14.3965  2.4119  77.192  0.9545
839725.0  82.8009  73.2371  13.4112  8.5806  21.9918  6.6145  183.65  0.9677
878362.0  63.7477  61.2039  7.6608  6.7716  14.4324  0.4494  35.996  0.9303
882660.0  40.6882  39.0464  8.1114  7.3812  15.4925  14.0935  17.015  0.0058
889817.0  77.8746  38.6169  13.4445  6.0565  19.501  13.7972  95.829  0.9206
900734.0  114.4406  41.3102  16.3315  6.9868  23.3183  2.4418  101.67  0.9517
905215.0  40.8662  38.6264  5.6383  7.4658  13.1041  2.6944  10.106  0.1811
905621.0  41.0991  41.0217  7.4628  7.417  14.8798  10.9992  15.501  0.0091
947953.0  101.0804  99.8069  13.0708  12.4683  25.5391  0.2929  9.3587  0.0796
957482.0  138.3729  38.7968  16.7278  7.3255  24.0533  11.1387  114.36  0.928
1009003.0  49.0714  48.9965  5.6746  5.6348  11.3094  12.7708  14.123  0.281
1023906.0  40.7429  39.0882  8.2192  7.4653  15.6846  1.6575  9.9813  0.0169
1052695.0  46.3231  46.2808  8.2058  8.1667  16.3725  1.7767  10.529  0.061
1060573.0  46.5564  45.6849  5.6389  8.2226  13.8615  5.3311  14.57  0.433
1067488.0  44.9683  44.9212  7.9498  7.9186  15.8684  11.5803  16.515  0.0462
1114065.0  77.107  42.8222  13.3389  6.5128  19.8518  1.4464  85.065  0.956
1169526.0  97.0802  39.876  13.6776  7.2249  20.9024  5.2317  88.848  0.9314
1173168.0  40.9294  37.3918  6.5232  7.5748  14.0981  1.3555  9.2941  0.2539
1217775.0  42.8903  42.8355  7.7929  7.7468  15.5396  1.3133  9.4436  0.1025
1262214.0  41.4002  39.3264  5.7009  7.642  13.3429  0.7218  7.6201  0.265
1265292.0  39.1381  36.9996  5.6015  7.3231  12.9246  0.3812  6.569  0.3272
1338138.0  42.9517  42.8994  7.7022  7.668  15.3702  9.9609  15.598  0.0899
1354046.0  113.4015  56.2757  11.7749  6.0176  17.7925  4.2973  64.936  0.9184
1391006.0  84.1515  83.4045  9.3325  8.9792  18.3117  13.093  60.124  0.8605
1397746.0  46.4992  44.2586  6.0569  8.1851  14.242  10.164  15.633  0.2676
1469628.0  120.631  115.0057  13.8928  12.9122  26.805  6.0252  20.742  0.069
1482915.0  99.6665  56.759  16.465  8.2416  24.7066  0.0077  106.58  0.9947
1488479.0  87.6293  61.5926  16.1277  8.5586  24.6863  0.0204  118.04  0.9917
1508087.0  58.0881  57.9824  6.3097  6.2665  12.5763  12.6717  19.736  0.5585
1513864.0  70.4698  61.1897  13.454  7.2204  20.6743  10.9029  19.82  0.1654
1547143.0  64.3052  61.4376  8.4809  7.2991  15.78  6.2962  14.384  0.1666
1705404.0  40.3931  36.7294  6.496  7.3407  13.8366  8.9313  16.847  0.4395
1707220.0  53.3257  52.0185  6.4856  6.0634  12.549  11.7816  14.2  0.1575
1842584.0  42.3918  40.5395  5.5641  7.4874  13.0515  2.1737  11.437  0.4597
1864325.0  59.3553  59.2637  6.4868  6.4374  12.9243  6.2889  13.299  0.3174
1928102.0  50.0955  50.0444  5.7372  5.7041  11.4414  0.1484  6.5275  0.6187
1938916.0  106.1193  93.4523  14.8812  11.3947  26.2759  0.9384  12.726  0.0524
1988029.0  43.1698  42.8665  7.9771  7.8261  15.8032  0.5356  7.5892  0.071
2161864.0  126.6574  29.5787  13.6194  7.2737  20.8931  11.8347  82.808  0.9014
2252574.0  108.3957  33.5778  14.1045  6.7729  20.8774  1.328  87.726  0.957
2254219.0  44.5742  44.3716  7.9881  7.8729  15.861  7.018  14.513  0.04
2314429.0  141.1318  34.1289  16.9087  6.7989  23.7076  0.0207  146.35  0.9944
2381852.0  134.2516  42.207  15.4725  8.0438  23.5163  0.0693  102.18  0.9852
2397158.0  130.7763  93.1924  13.1775  9.8597  23.0372  3.4113  144.28  0.9635
2421964.0  81.6857  77.1388  10.7149  8.8009  19.5159  1.1567  154.57  0.9804
2443856.0  39.3109  38.5872  7.537  7.2114  14.7484  3.8798  11.89  0.0929
2534310.0  42.2235  42.1697  7.6413  7.601  15.2424  4.0232  12.232  0.0498
2599902.0  123.3758  32.3526  13.8532  7.4866  21.3398  0.1299  88.178  0.9802
2633391.0  39.3917  36.9549  5.5944  7.299  12.8934  11.1693  15.123  0.2966
2643960.0  42.9232  42.8667  7.9363  7.8824  15.8187  0.1923  5.8694  0.0884
2684855.0  61.5125  57.8359  10.6163  8.2758  18.8921  0.101  124.67  0.9895
2700324.0  85.0485  30.5892  11.9753  6.0952  18.0705  0.0225  72.184  0.9887
2766225.0  94.0233  25.0082  13.7667  5.5369  19.3036  0.7931  90.979  0.9688
2783880.0  60.6676  60.5349  6.5768  6.5193  13.0961  2.6256  14.176  0.5867
2832477.0  43.5558  42.706  8.2992  7.9263  16.2256  0.2768  6.5701  0.0934
2888784.0  66.5897  65.7066  7.514  7.1526  14.6666  7.6008  22.381  0.6455
2915042.0  56.701  39.744  9.5953  5.5325  15.1278  8.2118  64.291  0.9109
2973752.0  78.2223  37.9032  13.2857  6.1143  19.4  9.9205  83.61  0.9157
3075434.0  127.8907  30.2055  14.2821  7.1759  21.458  13.766  116.15  0.931
3144497.0  43.9807  43.9399  7.9082  7.8703  15.7785  1.8683  10.451  0.1107
3145396.0  120.0423  37.2977  14.745  7.3536  22.0986  0.3192  92.684  0.9731
3146983.0  129.7692  27.2923  13.6265  6.8677  20.4942  9.2328  86.509  0.9162
3204894.0  41.1612  40.3766  7.7653  7.431  15.1964  13.6819  16.679  0.0431
3283093.0  44.6773  43.5116  5.5728  8.001  13.5738  1.5546  8.9684  0.1656
3300919.0  105.4177  30.2253  13.2112  6.8507  20.0618  2.3861  82.264  0.9445
3308813.0  44.2874  30.2933  5.5708  5.952  11.5227  3.3601  55.202  0.9368
3343122.0  73.218  66.1239  11.2314  7.4115  18.6429  7.8011  24.483  0.5958
3357032.0  41.2276  40.2109  8.1175  7.6108  15.7282  0.1989  5.9057  0.1022
3369728.0  46.2854  33.5223  5.8818  6.1284  12.0102  0.0182  41.323  0.9859
3381719.0  44.983  43.9075  5.6341  8.097  13.7311  0.5629  6.8321  0.0226
3382987.0  39.9202  39.8801  7.3166  7.2858  14.6023  5.1483  12.602  0.0406
3392871.0  138.6173  43.1124  17.4672  7.4858  24.953  1.0933  110.27  0.965
3449471.0  60.7154  55.638  9.2104  6.7393  15.9497  6.3854  16.807  0.4205
3461134.0  97.6836  79.2032  16.1454  9.4079  25.5533  0.0141  241.53  0.9973
3608409.0  148.8394  27.6812  13.9109  7.3207  21.2316  9.5166  103.13  0.9294
3611900.0  76.1933  43.5403  10.4382  7.3626  17.8008  7.276  74.225  0.9156
3667106.0  43.3749  43.2135  7.8385  7.7485  15.587  3.5459  12.05  0.0505
3707582.0  64.7579  64.7011  6.9394  6.9083  13.8478  0.0045  15.678  0.9978
3800995.0  116.917  116.0681  13.2091  13.0583  26.2674  10.9457  23.942  0.1032
3806239.0  41.6624  41.617  7.5182  7.4897  15.0079  13.7747  16.713  0.1108
3862580.0  61.7303  61.2706  6.7226  6.5849  13.3076  0.1781  35.457  0.9523
4030970.0  40.7162  38.195  5.7802  7.573  13.3532  1.6675  9.0654  0.1719
4042426.0  46.7448  46.1047  5.6561  8.1937  13.8498  5.9049  17.391  0.5628
4161299.0  58.3597  56.1389  9.4182  8.019  17.4372  0.0089  104.33  0.9954
4222662.0  117.6991  42.6964  14.7639  7.8873  22.6512  0.018  97.643  0.9917
4260343.0  80.9516  67.5872  16.4769  8.8517  25.3285  0.1359  8.4566  0.3685
4276462.0  119.272  40.4989  14.5982  7.8124  22.4106  1.4149  115.26  0.9663
4287366.0  128.581  29.4387  14.3922  7.0179  21.4101  0.5672  129.62  0.9798
4395926.0  53.8833  53.3726  6.1127  5.9557  12.0684  0.315  20.171  0.8902
4484506.0  143.8473  39.3659  16.1425  7.7252  23.8677  0.1466  135.6  0.9872
4565743.0  60.0884  56.2938  9.1283  6.9787  16.107  0.2055  6.0445  0.1028
4575202.0  42.2398  41.162  8.0735  7.6251  15.6985  3.3447  11.947  0.0598
4640932.0  41.915  41.8348  7.6191  7.5662  15.1853  3.475  11.839  0.1013
4649780.0  42.3913  41.0417  8.1701  7.5237  15.6937  10.1156  15.88  0.082
4721264.0  96.5378  24.9847  13.4298  5.7457  19.1755  0.0282  102.39  0.9914
4750198.0  74.2505  69.7882  9.5641  7.5549  17.1189  2.3419  57.287  0.9228
4788492.0  75.3538  74.8195  8.046  7.8697  15.9157  0.0856  123.58  0.9914
4810223.0  74.7537  53.4422  12.3939  6.1316  18.5254  0.0071  75.068  0.9938
4813543.0  91.7006  44.2345  14.0834  7.1777  21.2611  1.5373  97.628  0.9595
4862669.0  40.7602  39.3422  8.0059  7.2576  15.2635  13.946  16.958  0.1076
4907689.0  92.374  88.3658  11.5347  9.8771  21.4118  3.421  19.002  0.4776
4973361.0  66.4848  65.6726  7.3545  7.0925  14.447  0.3049  19.712  0.866
4974454.0  41.153  41.0766  7.5146  7.464  14.9786  3.6204  11.747  0.0403
4982192.0  83.5444  50.0275  13.9409  7.5801  21.521  10.9262  99.393  0.9214
4983451.0  43.1169  43.0443  7.7823  7.7325  15.5148  3.088  11.669  0.0953
5050240.0  87.3119  37.5476  13.5677  6.4386  20.0063  3.1898  107.11  0.9564
5050598.0  39.0487  38.6819  7.3705  7.195  14.5656  2.0671  10.093  0.11
5084122.0  41.5408  41.4681  7.7424  7.6784  15.4208  0.1893  5.7577  0.1108
5119818.0  42.8871  42.8358  7.9947  7.9405  15.9352  0.0938  4.8845  0.0752
5164024.0  50.1603  49.535  5.8078  5.6644  11.4722  7.7151  37.476  0.8633
5168595.0  54.4002  51.126  7.7492  6.2871  14.0363  0.3582  7.0694  0.363
5239544.0  76.5229  76.3543  8.6111  8.4974  17.1085  7.0864  16.267  0.2454
5253173.0  88.556  55.2391  15.214  7.9812  23.1951  0.4167  100.54  0.9722
5293071.0  42.179  41.1962  8.024  7.5509  15.5749  3.3103  11.933  0.1079
5311044.0  42.8793  42.8168  7.8843  7.8295  15.7138  0.3487  6.8076  0.0973
5315595.0  41.684  39.8003  5.5183  7.3979  12.9161  4.7088  12.392  0.3316
5353660.0  92.5518  77.4856  15.6118  9.5007  25.1125  0.1352  255.94  0.9941
5359600.0  100.9196  26.2155  14.3242  5.7067  20.0309  8.0059  83.412  0.9203
5409171.0  40.7713  40.4452  7.637  7.4646  15.1016  0.7766  8.1079  0.1096
5413054.0  41.2824  39.5467  5.5344  7.6189  13.1533  6.613  27.191  0.7745
5520821.0  114.0036  29.4182  14.6018  6.3427  20.9445  6.1812  91.285  0.9312
5552770.0  45.7109  45.6278  8.111  8.0572  16.1682  3.2049  12.064  0.0384
5669173.0  45.7246  44.5647  5.8271  8.3184  14.1455  0.1091  4.616  0.0784
5895398.0  72.2264  69.4586  8.7388  7.6561  16.3949  0.3287  25.084  0.8869
5906271.0  51.3536  51.2812  5.7505  5.7171  11.4676  7.3611  13.139  0.3709
5910731.0  40.5989  40.3167  7.4716  7.3449  14.8165  11.9853  15.923  0.0943
5923517.0  65.7738  31.1827  7.8104  6.1827  13.9931  1.0763  53.415  0.9467
6027571.0  45.9421  45.9187  7.3377  7.3102  14.648  0.7982  352.79  0.9954
6052087.0  43.8695  42.3543  5.5667  7.7525  13.3191  1.5224  9.8948  0.3825
6097693.0  93.8512  87.5517  12.0122  9.5123  21.5245  3.6311  178.75  0.973
6118658.0  41.0532  40.1114  5.7237  8.1473  13.871  4.8179  133.39  0.9717
6158626.0  44.7844  43.7011  8.3299  7.8323  16.1622  13.0518  17.392  0.1022
6167292.0  49.5038  45.4906  7.281  5.8677  13.1486  12.4057  20.777  0.5766
6236020.0  128.3359  26.7229  13.6881  7.1483  20.8364  12.8367  89.418  0.9086
6243238.0  56.7103  55.2358  6.5612  6.1445  12.7057  10.0558  17.925  0.5253
6266318.0  40.5836  39.2662  7.9517  7.2849  15.2366  8.1544  14.649  0.0567
6328373.0  46.7788  43.5314  6.6693  8.2874  14.9567  11.1008  18.35  0.4103
6379524.0  78.8049  75.1142  9.7901  8.3057  18.0958  2.7979  25.621  0.7479
6488142.0  105.4969  102.2778  13.014  11.7729  24.7869  11.0086  24.075  0.2489
6514523.0  49.9604  48.1766  7.0683  6.853  13.9213  0.4124  93.884  0.9809
6541353.0  104.2125  36.2539  13.6818  7.1769  20.8587  2.9528  96.53  0.9492
6586369.0  105.8324  100.3348  13.3494  11.6111  24.9605  7.2769  20.983  0.1545
6598199.0  53.1827  52.7337  5.9696  5.8559  11.8255  0.1403  19.336  0.913
6603032.0  42.9426  42.916  7.6838  7.6632  15.3471  12.1545  16.455  0.1093
6623226.0  111.1102  59.6294  17.2113  8.6583  25.8697  6.6767  141.82  0.9494
6627610.0  114.8016  32.287  13.8277  7.0796  20.9073  9.4392  94.644  0.923
6665490.0  41.6012  40.8579  7.8175  7.4449  15.2624  8.7233  14.886  0.0105
6668815.0  38.9355  38.8886  7.4856  7.4319  14.9175  0.0487  3.8615  0.0223
6711321.0  44.6372  44.4458  7.992  7.8875  15.8795  7.0006  14.511  0.0349
6748350.0  35.5475  30.7614  7.9182  5.51  13.4281  1.5686  50.359  0.9375
6779563.0  53.394  52.2469  6.283  5.9673  12.2503  6.0015  18.276  0.642
6792012.0  40.5588  40.1806  7.8173  7.6108  15.4281  0.0689  4.3981  0.0978
6812121.0  81.2306  66.5365  8.7404  7.001  15.7414  0.0165  237.23  0.998
6821125.0  46.7251  44.1848  6.1563  8.1694  14.3257  10.4523  20.462  0.5534
6823724.0  69.7051  68.4631  7.8303  7.3929  15.2232  14.0927  75.135  0.9099
6894200.0  42.9625  40.9284  5.7849  7.8399  13.6248  2.7141  12.333  0.4476
6913653.0  32.127  30.5112  8.411  5.5905  14.0016  2.2327  209.41  0.9875
6951972.0  45.6598  44.6278  5.7104  8.238  13.9483  0.4472  6.9179  0.2524
6972538.0  42.7747  42.7284  7.6925  7.6586  15.3511  6.617  13.935  0.021
7017639.0  70.9111  70.6487  7.6554  7.5412  15.1966  9.1053  30.508  0.7474
7112239.0  123.3926  31.5619  14.0505  7.22  21.2705  5.3759  90.166  0.9311
7113954.0  139.4534  28.5726  15.7701  6.597  22.3671  4.0257  95.663  0.9406
7134931.0  41.0471  40.4397  7.7377  7.4444  15.182  2.7712  11.178  0.0982
7147939.0  102.2934  40.5641  16.0283  6.4774  22.5057  0.8401  177.11  0.9845
7159030.0  42.2302  41.8679  7.7479  7.5876  15.3355  5.3282  13.294  0.1021
7209324.0  45.878  42.0359  7.0437  8.3128  15.3565  14.8679  21.529  0.4759
7242951.0  39.1317  38.8429  7.4119  7.2462  14.6581  0.6142  7.3908  0.0132
7264403.0  37.9141  37.2236  7.6218  7.2297  14.8515  0.0509  3.9274  0.1008
7266812.0  70.6273  69.2193  7.9374  7.4778  15.4152  0.4684  19.918  0.8365
7433310.0  46.3312  46.2517  8.2204  8.1656  16.3859  1.7513  10.533  0.0862
7481022.0  41.5548  39.8509  8.3493  7.4409  15.7902  1.833  10.319  0.0619
7492523.0  81.3734  53.8312  14.2457  7.7654  22.0111  2.1416  127.97  0.9663
7608330.0  69.7463  45.1061  13.1272  6.492  19.6192  0.0114  133.05  0.9961
7636580.0  44.8794  42.4529  6.0751  7.9388  14.0138  14.9798  26.964  0.6707
7684881.0  119.5904  40.425  17.043  6.785  23.8279  1.3019  104.31  0.962
7698280.0  38.1725  37.0635  7.8653  7.215  15.0803  0.0576  4.0737  0.011
7787424.0  58.1547  37.1932  6.8235  6.608  13.4315  0.6605  66.838  0.967
7800207.0  39.9376  39.8894  7.5141  7.4645  14.9786  0.1794  5.5088  0.0568
7810764.0  48.5351  47.2307  5.8482  5.5388  11.387  8.1476  12.042  0.1657
7815792.0  54.0122  51.1364  8.4171  7.0828  15.5  7.2895  265.68  0.9842
7834314.0  42.4306  40.0197  5.772  7.5754  13.3475  13.4161  17.695  0.4128
7844186.0  84.0179  69.4172  15.4214  8.4906  23.912  7.8554  33.421  0.6696
7845910.0  41.3823  41.3349  7.565  7.5248  15.0897  1.9031  10.051  0.0338
7858661.0  86.2925  43.2503  14.7614  6.5367  21.2981  1.1471  110.6  0.9693
7860113.0  70.4994  68.0334  9.4609  8.331  17.7919  0.554  8.4331  0.1198
7870334.0  41.8131  41.4703  7.6511  7.5005  15.1515  13.9967  16.856  0.0969
7877218.0  37.9938  36.9434  7.917  7.3413  15.2583  0.0245  3.1906  0.0515
7984344.0  40.5339  39.1548  7.9599  7.2728  15.2328  13.5924  16.807  0.1027
7989265.0  39.6862  39.314  7.4301  7.247  14.6771  3.9056  11.838  0.077
8051599.0  99.0002  46.3136  15.4487  7.2192  22.6679  0.0059  123.81  0.9989
8060855.0  62.2537  59.3598  10.1457  8.226  18.3717  5.9464  265.59  0.9829
8106840.0  71.4294  60.4227  13.9805  8.4051  22.3856  12.9194  130.14  0.9379
8123877.0  90.9536  88.5003  10.9725  9.9971  20.9696  14.1383  22.06  0.1854
8133780.0  41.9433  40.9894  8.049  7.5755  15.6245  0.9897  8.8021  0.0847
8136287.0  87.5241  83.621  10.5609  9.0264  19.5872  5.8051  93.857  0.9357
8149488.0  67.7703  50.4018  13.3965  7.2334  20.6299  9.5331  160.22  0.96
8173300.0  41.0662  39.1473  8.3385  7.423  15.7615  9.0482  15.487  0.0867
8203370.0  75.0431  40.0319  12.2963  6.3506  18.6468  0.2184  77.577  0.9748
8210258.0  42.6312  42.0735  7.9129  7.6561  15.569  3.3889  11.964  0.0908
8221417.0  139.5406  119.319  15.7508  13.2605  29.0113  1.624  15.748  0.0343
8255524.0  123.4191  38.602  14.9468  7.5252  22.472  0.5313  94.448  0.9686
8272332.0  115.1815  33.3091  13.8211  7.2128  21.0338  0.097  90.598  0.9828
8324673.0  42.5331  41.3748  8.1424  7.64  15.7824  3.4987  12.19  0.0948
8330901.0  68.4111  66.0349  8.1819  7.2941  15.476  7.1573  20.02  0.563
8353383.0  39.6651  39.6053  7.309  7.2657  14.5748  3.2334  11.286  0.1066
8360494.0  34.136  31.7018  7.914  5.5896  13.5036  0.0093  78.836  0.9963
8461740.0  38.8528  38.7947  7.2682  7.2193  14.4875  0.7586  7.7847  0.0901
8462840.0  45.0809  44.2986  5.5294  7.9828  13.5122  11.066  17.569  0.4519
8572803.0  85.2879  36.5044  14.3872  5.8709  20.2581  0.4026  87.599  0.972
8574510.0  45.462  44.5681  5.5624  8.1214  13.6837  10.9149  22.417  0.6287
8581119.0  113.7948  24.9714  13.0962  6.4534  19.5496  0.8245  233.72  0.9902
8654538.0  104.2587  56.452  17.7508  7.9543  25.7051  3.1166  131.47  0.9579
8691216.0  56.6778  53.1949  7.468  6.0578  13.5258  12.9013  18.577  0.4618
8736258.0  43.8708  43.4833  7.9359  7.7579  15.6938  10.9335  16.166  0.0632
8755731.0  89.2947  45.8587  13.9663  7.3759  21.3423  7.5808  111.06  0.94
8782154.0  46.8473  34.2642  5.5323  6.3804  11.9126  5.5245  42.569  0.8928
8795942.0  74.4035  69.8477  9.5436  7.7055  17.2491  0.4978  39.491  0.9242
8872740.0  91.7593  72.1942  18.3601  9.1028  27.4629  1.5635  15.469  0.2581
8914515.0  32.2075  29.3015  7.8759  5.5869  13.4628  0.0454  168.02  0.996
9049623.0  92.6545  38.4205  14.0178  6.6607  20.6785  9.5261  97.553  0.927
9073570.0  71.7904  67.418  10.2527  8.0707  18.3234  0.4007  8.3306  0.2598
9083224.0  74.3625  70.6237  10.2772  8.4795  18.7567  2.5006  167.31  0.9774
9242018.0  40.6761  39.2348  8.1002  7.4105  15.5107  1.6154  9.9147  0.0953
9244170.0  71.5047  71.0063  7.7298  7.5613  15.2911  0.1224  590.41  0.9988
9264862.0  59.4638  57.1709  7.4035  6.5709  13.9744  3.6378  101.13  0.9634
9393213.0  40.9025  40.8574  7.4325  7.3908  14.8233  11.9051  15.857  0.0764
9439404.0  51.0258  50.9527  5.8824  5.8401  11.7225  3.7586  11.11  0.3538
9570287.0  103.3724  50.3362  16.4322  7.5363  23.9685  0.0103  164.6  0.9966
9624758.0  99.6223  29.249  14.1096  5.9627  20.0723  0.2099  95.418  0.98
9683486.0  48.4316  48.3491  5.519  8.3296  13.8486  9.6567  15.476  0.3179
9690113.0  41.0213  40.9799  7.5428  7.5031  15.046  1.1183  8.7734  0.0253
9726730.0  59.6729  59.5463  6.4948  6.4389  12.9337  1.6838  13.587  0.6337
9759384.0  98.0946  34.4745  13.8398  6.5444  20.3842  10.4285  87.683  0.9152
9799491.0  70.4612  41.4145  8.7104  7.2599  15.9704  3.8867  63.375  0.9243
9822618.0  41.0537  40.1711  7.8885  7.4754  15.3639  1.6186  9.8329  0.0832
9827397.0  35.8398  30.6319  8.2071  5.5239  13.731  0.2973  74.07  0.9773
9857977.0  41.775  41.0993  7.7814  7.4954  15.2768  14.4946  17.008  0.0521
9888961.0  41.4318  41.3811  7.5133  7.4783  14.9915  7.0786  14.016  0.0857
9919690.0  72.6762  71.069  8.8503  8.1861  17.0364  7.8819  20.708  0.5149
9956399.0  118.6633  112.7238  13.7518  13.0149  26.7667  1.8541  15.346  0.0305
9983119.0  40.574  38.9883  8.1347  7.3816  15.5163  2.8637  11.351  0.011
