215130781.304  1262
497.0  7.3021  2.4526  1.261  1.1079  2.369  0.1227  0.9965  0.1898
1138.0  7.0464  5.2385  1.108  1.1079  2.216  0.1248  1.4374  0.5936
5283.0  7.5139  3.2728  1.261  1.1079  2.3689  0.0873  0.8579  0.3498
31517.0  6.2653  5.8862  1.261  1.1221  2.3831  0.0997  0.9642  0.3325
34207.0  5.9968  5.5862  1.261  1.1079  2.369  0.0843  0.9365  0.566
43599.0  6.0931  5.8332  1.261  1.1105  2.3715  0.2336  1.9798  0.5959
49523.0  7.5778  6.2316  1.108  1.163  2.271  1.6777  5.089  0.773
54423.0  9.182  5.8188  1.1082  1.1972  2.3054  0.0609  1.3897  0.7552
55237.0  6.9015  4.7028  1.261  1.1079  2.3689  0.1553  1.3283  0.3832
60693.0  6.4189  5.382  1.2609  1.1079  2.3688  0.1937  2.5213  0.7443
60967.0  7.1248  3.4787  1.261  1.1079  2.369  0.0899  0.7577  0.2408
68456.0  7.363  7.36  1.1079  1.2608  2.3687  0.0619  1.856  0.8104
71659.0  6.3228  6.0835  1.2611  1.1157  2.3768  0.071  0.3326  0.1628
89352.0  7.0128  3.3806  1.261  1.1079  2.3689  0.1787  1.6451  0.5475
97229.0  19.2816  18.9916  1.7678  1.6702  3.438  12.8683  9.6648  0.6993
106370.0  7.693  3.0029  1.2608  1.1079  2.3688  0.0821  0.7498  0.2646
111542.0  6.4604  5.2443  1.261  1.1079  2.3689  1.4642  18.421  0.9584
119648.0  7.6952  3.7873  1.261  1.1079  2.3689  0.0679  0.757  0.6238
124358.0  7.9127  4.1935  1.108  1.1079  2.2159  0.0822  0.6968  0.0234
125024.0  7.1192  2.5315  1.1082  1.1079  2.2161  0.1339  1.1171  0.4751
129051.0  7.3786  2.639  1.261  1.1079  2.3689  0.2738  3.2621  0.7891
148334.0  6.0751  5.4813  1.2609  1.2608  2.5217  0.0771  0.5296  0.486
148913.0  7.1679  4.3436  1.2609  1.1079  2.3689  0.3887  3.1347  0.7356
154004.0  7.3592  6.2148  1.108  1.1215  2.2295  0.0587  0.6541  0.6804
158860.0  7.103  3.1411  1.2609  1.1079  2.3688  0.0857  0.6936  0.3161
167152.0  20.334  20.2752  1.843  1.825  3.668  0.0771  4.5866  0.8555
168536.0  7.0658  6.8158  1.108  1.155  2.2631  0.0579  0.56  0.6376
177671.0  7.5835  2.8692  1.2611  1.1079  2.369  0.0749  0.2391  0.1551
182697.0  10.5358  7.2902  1.115  1.1079  2.2229  0.075  0.9064  0.3128
187728.0  7.4386  4.1643  1.261  1.1079  2.3689  0.0801  0.7458  0.1417
194629.0  6.189  5.6203  1.2608  1.1079  2.3688  0.1734  1.7569  0.5929
198401.0  6.1538  5.5976  1.2611  1.1079  2.369  2.7104  4.5037  0.6642
199825.0  8.8167  8.813  1.1079  1.1079  2.2159  0.0642  1.3666  0.6523
203539.0  7.3648  3.0691  1.2609  1.1079  2.3689  0.2641  2.1412  0.6178
213215.0  7.2978  5.0873  1.108  1.1079  2.2159  0.0866  0.7496  0.1007
227510.0  7.0113  4.0479  1.261  1.1079  2.369  0.1305  1.7748  0.6792
238105.0  6.9248  5.7339  1.261  1.1662  2.4272  10.9114  10.228  0.817
246283.0  19.8443  19.5142  1.8095  1.7015  3.5111  0.1455  3.9339  0.785
253782.0  7.6515  4.1086  1.261  1.1079  2.3689  0.2244  1.9478  0.5847
255341.0  7.5756  6.4333  1.2612  1.2465  2.5077  0.0678  5.6392  0.9557
257613.0  7.6107  6.198  1.261  1.254  2.515  1.0002  5.9137  0.8289
266346.0  7.2569  2.407  1.2611  1.1079  2.369  0.0864  0.55  0.4424
267218.0  6.9961  4.3429  1.2611  1.1079  2.369  0.0845  2.369  0.8727
273474.0  7.1058  4.376  1.2609  1.1079  2.3689  0.1163  1.0291  0.1977
278775.0  7.4235  3.1148  1.261  1.1079  2.3689  0.079  0.6548  0.3507
285475.0  7.3458  3.2263  1.108  1.1079  2.2159  0.2871  162.99  0.9987
293130.0  8.2585  7.1122  1.108  1.2593  2.3673  8.0205  21.596  0.938
299140.0  7.9756  3.956  1.108  1.1079  2.216  0.0696  0.2885  0.2424
301508.0  7.2704  7.2676  1.1079  1.2608  2.3687  0.0791  3.2259  0.8849
309608.0  7.5167  4.241  1.261  1.1079  2.369  0.1042  1.5047  0.6457
310717.0  6.9435  5.8221  1.2611  1.162  2.423  0.0679  0.5745  0.2558
311005.0  7.0228  4.863  1.2609  1.1092  2.3701  0.6737  5.8932  0.8606
323600.0  7.4408  3.8384  1.261  1.1079  2.3689  1.2452  13.068  0.9392
329220.0  7.4768  7.4753  1.1079  1.1079  2.2159  0.1493  1.7387  0.6127
329680.0  6.0413  5.4338  1.261  1.1079  2.3689  0.0959  0.8545  0.2774
341245.0  7.6147  4.0036  1.261  1.1079  2.369  0.074  0.6275  0.0392
343643.0  7.399  6.1186  1.2611  1.2279  2.489  0.3604  5.1721  0.8622
359019.0  6.3176  5.1582  1.2609  1.2608  2.5217  0.2013  1.5936  0.4366
368114.0  16.7809  16.17  1.5818  1.5363  3.1181  2.2688  3.723  0.3898
372306.0  7.3854  3.5654  1.261  1.1079  2.3689  0.201  1.6801  0.5139
388226.0  7.7234  4.1656  1.2611  1.1079  2.369  0.0646  0.3224  0.2555
417233.0  7.9161  5.286  1.2612  1.1743  2.4355  0.0569  0.334  0.3557
419415.0  8.7683  2.9208  1.108  1.1079  2.2159  0.1064  1.0241  0.3787
433274.0  7.0984  3.6553  1.261  1.1079  2.3689  0.2674  2.0166  0.577
437872.0  7.8275  5.308  1.108  1.1079  2.216  0.128  1.5661  0.6171
439036.0  7.4863  3.8384  1.2608  1.1079  2.3688  0.1333  1.7316  0.647
440878.0  5.7372  5.7164  1.261  1.1079  2.3689  0.1573  1.2348  0.3229
443918.0  7.0229  3.3683  1.261  1.1079  2.3689  0.1151  0.9589  0.1617
444996.0  7.3706  4.939  1.2608  1.1388  2.3997  4.8571  6.8923  0.7687
461760.0  5.9855  5.8441  1.261  1.1079  2.369  0.1222  1.2706  0.5049
486124.0  7.0055  3.8663  1.261  1.1079  2.3689  0.3036  2.2298  0.6137
498546.0  7.0717  4.3398  1.2609  1.1079  2.3688  0.0777  0.7039  0.334
498784.0  6.6054  5.3281  1.261  1.1105  2.3715  1.8196  32.927  0.9781
499473.0  6.9314  4.7624  1.2611  1.1079  2.369  0.071  0.3345  0.1865
512216.0  7.2984  2.7145  1.261  1.1079  2.3689  0.3897  3.2014  0.746
516282.0  6.5997  5.7042  1.2611  1.1079  2.3691  0.0704  0.7803  0.7285
521626.0  10.1564  8.9842  1.108  1.1079  2.2159  0.0422  0.6347  0.1364
522429.0  7.0986  4.5415  1.2611  1.1079  2.369  0.0821  5.8742  0.9611
530932.0  6.8677  4.8519  1.2609  1.1079  2.3689  0.0853  0.7724  0.1365
540036.0  10.5355  9.5577  1.115  1.1079  2.2229  0.0314  1.0462  0.8265
550709.0  18.0808  8.6707  1.7253  1.1079  2.8333  0.0472  1.2062  0.6145
558033.0  6.2343  5.7201  1.2609  1.1079  2.3688  0.4007  3.972  0.8077
574444.0  7.207  2.6926  1.2609  1.1079  2.3688  0.1417  1.2025  0.3626
583663.0  6.0595  5.5702  1.2609  1.1079  2.3688  0.1944  1.7721  0.5697
597169.0  7.3106  5.0031  1.1081  1.1079  2.2161  0.0826  0.7705  0.2438
603250.0  7.3923  4.5915  1.261  1.1172  2.3781  0.1259  1.2093  0.3634
604630.0  10.0939  8.6674  1.1081  1.4556  2.5637  0.036  3.0257  0.9754
607604.0  7.1755  4.8086  1.261  1.1168  2.3778  0.3453  3.5452  0.7867
625199.0  7.1512  4.4048  1.2611  1.1079  2.369  0.0746  1.1271  0.7479
633458.0  7.4408  3.4188  1.2609  1.1079  2.3688  0.2664  2.786  0.7375
638325.0  7.0474  4.7455  1.261  1.1079  2.3689  0.1351  1.2281  0.3586
638621.0  7.771  2.8889  1.261  1.1079  2.369  0.504  4.0351  0.7934
642190.0  6.2083  5.7997  1.2609  1.1079  2.3688  0.0982  1.4665  0.6698
673302.0  19.4053  19.067  1.7771  1.6649  3.442  1.5207  3.887  0.4653
676506.0  7.2705  3.1788  1.261  1.1079  2.3689  0.1054  0.9162  0.1787
680640.0  8.3106  4.4664  1.108  1.1079  2.216  0.0662  1.4898  0.8481
682827.0  7.6912  5.6716  1.261  1.2196  2.4806  0.2026  7.3405  0.9315
691172.0  7.12  4.6477  1.2611  1.1079  2.369  0.0705  0.8274  0.7227
692412.0  21.1818  20.936  1.9085  1.8287  3.7372  8.2595  8.3219  0.6532
692506.0  7.8274  5.2042  1.1081  1.1079  2.216  0.0726  5.7918  0.9622
693356.0  6.5233  6.1643  1.261  1.1616  2.4226  0.0903  1.2086  0.5791
693422.0  7.3704  3.6382  1.261  1.1079  2.3689  0.2089  1.7314  0.526
700700.0  7.0416  2.4809  1.261  1.1079  2.3689  0.269  2.367  0.6753
707491.0  9.2849  4.8767  1.1081  1.1374  2.2455  0.0936  1.2302  0.5281
710139.0  7.8282  7.8252  1.1079  1.1079  2.2159  0.0433  0.4449  0.4107
728972.0  8.0766  3.2329  1.2608  1.1079  2.3688  2.0346  20.668  0.9594
736869.0  8.2628  8.2614  1.1079  1.1079  2.2159  0.0429  0.6174  0.4036
738402.0  8.1465  3.641  1.2609  1.1079  2.3689  0.0735  0.7369  0.1866
742185.0  7.2732  3.2063  1.261  1.1079  2.3689  0.3559  3.1228  0.7461
746700.0  6.5003  5.1212  1.2609  1.1079  2.3689  0.1822  1.5572  0.4862
764110.0  6.9978  3.239  1.261  1.1079  2.3689  0.1567  1.3924  0.4624
770225.0  7.2866  3.3158  1.1082  1.1079  2.2161  0.0897  2.6524  0.9202
772037.0  6.1085  5.7112  1.261  1.1079  2.3689  0.133  1.8524  0.6948
772982.0  7.1981  2.9914  1.2609  1.1079  2.3689  0.6632  6.8177  0.8864
775240.0  6.774  4.9866  1.2609  1.1079  2.3689  0.0913  0.9179  0.3487
785557.0  6.3145  5.524  1.261  1.1079  2.3689  0.1143  0.9877  0.1736
790481.0  6.333  5.8693  1.2611  1.1079  2.369  0.3988  2.7874  0.683
791023.0  7.4586  2.4686  1.2609  1.1079  2.3689  0.0851  0.6595  0.2745
797326.0  6.3305  5.5112  1.261  1.2608  2.5218  0.3379  1.9518  0.4467
799846.0  6.5483  5.6745  1.261  1.1253  2.3864  0.0796  1.0029  0.6061
801516.0  6.5185  5.2162  1.2609  1.1079  2.3689  1.3174  16.629  0.9545
821519.0  8.1772  4.2456  1.2611  1.1253  2.3863  0.0784  3.102  0.8952
821785.0  6.0029  5.8824  1.261  1.1079  2.3689  0.1625  1.3986  0.4372
839527.0  7.0119  4.7117  1.2609  1.1079  2.3688  0.3589  2.6023  0.6656
848383.0  7.8339  3.5409  1.2608  1.1079  2.3688  0.0882  1.5127  0.706
852316.0  13.095  11.4643  1.2954  1.8004  3.0958  9.3003  6.6075  0.5882
853180.0  6.575  5.9671  1.108  1.1517  2.2598  1.4073  10.53  0.9196
858048.0  11.063  11.0556  1.1543  1.1538  2.3081  2.3568  19.447  0.9545
861418.0  7.4036  4.5304  1.261  1.1134  2.3744  0.076  0.7228  0.1732
863607.0  7.2306  4.4931  1.261  1.1079  2.369  0.0794  0.9728  0.5647
869420.0  20.6632  20.5968  1.8695  1.8494  3.7189  0.0501  4.9644  0.8891
874080.0  6.7714  5.3539  1.261  1.1241  2.3851  0.2812  8.5855  0.9396
887194.0  6.3364  5.5671  1.2611  1.1079  2.369  0.0732  0.9016  0.7748
897796.0  6.3571  5.4753  1.2608  1.1079  2.3688  0.0745  0.5034  0.5587
901322.0  9.623  9.623  1.1079  1.1079  2.2159  0.031  0.4803  0.4715
910424.0  7.8741  2.9925  1.2611  1.1079  2.369  0.0709  0.577  0.591
910535.0  7.0634  4.3493  1.1081  1.1079  2.216  0.3577  4.4125  0.8509
913081.0  7.2894  3.2583  1.2609  1.1079  2.3688  0.4004  3.0554  0.724
915102.0  7.0936  5.5698  1.2611  1.1381  2.3992  0.0754  4.0001  0.9356
953358.0  7.0778  4.2121  1.2609  1.1079  2.3688  0.6713  5.8503  0.8598
960430.0  7.374  5.7784  1.2608  1.2033  2.4642  5.7981  3514.9  0.9999
971435.0  7.2323  2.7107  1.261  1.1079  2.369  0.253  2.5265  0.712
979356.0  7.1963  3.0979  1.261  1.1079  2.3689  0.0913  0.747  0.122
983657.0  7.6925  6.7907  1.2611  1.2972  2.5583  0.7799  3.7952  0.706
1007348.0  7.9153  3.2511  1.261  1.1079  2.369  0.138  2.4006  0.7734
1010840.0  7.3765  3.6471  1.2611  1.1079  2.369  0.0725  0.373  0.2947
1025356.0  7.0879  6.9208  1.108  1.2608  2.3688  0.0814  1.0479  0.4232
1026178.0  6.2103  5.7663  1.261  1.1079  2.369  6.073  10.675  0.8624
1033850.0  7.9674  7.7511  1.2608  1.3921  2.653  5.6333  4.3113  0.4349
1034109.0  6.202  5.9938  1.261  1.133  2.394  13.5333  7.4908  0.7015
1036826.0  6.69  5.2496  1.2611  1.1079  2.369  0.0778  2.1678  0.8802
1037011.0  20.4587  20.3023  1.8544  1.8069  3.6613  11.2019  9.0592  0.6641
1039655.0  6.8668  6.5117  1.2611  1.2054  2.4665  0.0694  1.3761  0.7579
1053358.0  7.8788  3.867  1.261  1.1079  2.3689  0.0765  1.3932  0.7349
1077639.0  7.837  5.6499  1.2612  1.1963  2.4575  0.0566  0.7773  0.7474
1093559.0  6.1626  5.5808  1.2609  1.2608  2.5216  0.131  1.283  0.4089
1097115.0  6.0664  5.7172  1.261  1.1079  2.3689  0.4413  3.6501  0.7763
1105803.0  6.12  5.7327  1.2609  1.2608  2.5217  0.2363  1.7077  0.4304
1108364.0  7.0309  2.4394  1.2609  1.1079  2.3689  0.086  0.4984  0.685
1110629.0  7.8703  5.4226  1.2608  1.2156  2.4765  0.0562  5.6693  0.981
1115886.0  6.0808  5.4876  1.2609  1.1079  2.3689  0.1501  1.2861  0.3865
1120367.0  7.1287  4.5449  1.261  1.1079  2.369  0.0798  0.8769  0.4984
1124805.0  7.5436  3.9451  1.1081  1.1079  2.216  0.0785  3.8865  0.9452
1128668.0  18.671  18.6521  1.716  1.7097  3.4257  14.469  12.186  0.7737
1130346.0  7.5067  4.818  1.261  1.135  2.3961  0.1051  1.4991  0.6246
1132557.0  7.8181  3.4319  1.2611  1.1079  2.369  0.0746  3.2725  0.9291
1142778.0  7.0064  6.7763  1.108  1.1924  2.3004  0.0591  0.7544  0.6937
1154049.0  6.1044  5.6167  1.2609  1.1079  2.3688  0.0743  0.4156  0.3589
1157576.0  8.04  3.3233  1.261  1.1079  2.3689  0.0825  0.7927  0.0672
1174315.0  9.2509  4.7826  1.108  1.1079  2.2159  0.0562  1.2578  0.8243
1178979.0  7.4844  7.4819  1.1079  1.1079  2.2159  0.0745  1.0641  0.4872
1179704.0  6.8908  5.0538  1.261  1.1115  2.3724  0.0678  0.4605  0.7745
1181466.0  7.649  3.0424  1.1081  1.1079  2.216  0.0872  0.5722  0.1945
1187018.0  11.9411  8.0543  1.2201  1.4948  2.7149  1.7133  9.4482  0.8809
1193331.0  7.5521  3.4642  1.108  1.1079  2.2159  0.0823  0.8172  0.6572
1220194.0  7.0265  4.1197  1.2608  1.1079  2.3688  0.1046  0.9078  0.0534
1221716.0  6.026  5.2163  1.261  1.2608  2.5218  0.6254  2.2435  0.4004
1223490.0  7.0556  3.7522  1.1081  1.1079  2.216  0.0811  0.4322  0.544
1241997.0  6.2104  5.8085  1.261  1.1079  2.369  0.0768  0.5167  0.2417
1248801.0  7.9882  4.4157  1.2611  1.1106  2.3717  0.0635  1.3232  0.8187
1249429.0  8.9195  4.415  1.108  1.1079  2.216  0.064  0.5842  0.136
1251556.0  7.4664  4.3287  1.1081  1.1079  2.216  0.0746  2.5136  0.9102
1264693.0  7.1918  4.9818  1.108  1.1167  2.2247  0.0667  0.4832  0.3444
1266618.0  19.2776  19.0537  1.7674  1.6903  3.4578  0.0175  5.8687  0.9561
1271210.0  7.0979  3.7527  1.2609  1.1079  2.3689  0.2005  1.8164  0.577
1277287.0  8.1392  4.7991  1.108  1.1079  2.2159  0.0602  0.473  0.53
1301486.0  6.1518  5.3728  1.2609  1.2608  2.5217  0.0781  0.5068  0.464
1303071.0  8.1591  7.8928  1.108  1.1079  2.2159  0.0429  0.8567  0.7691
1316709.0  7.075  4.2606  1.2609  1.1079  2.3689  0.1922  1.566  0.4667
1326278.0  9.9205  6.1221  1.1081  1.2605  2.3686  3.2846  9.7038  0.8739
1340308.0  6.2128  5.2806  1.261  1.2608  2.5218  0.3818  1.9564  0.4115
1345371.0  6.5041  5.4348  1.2609  1.1125  2.3735  0.0881  0.779  0.0591
1348993.0  7.518  6.051  1.2612  1.2012  2.4624  0.0611  2.5252  0.9139
1364795.0  6.2911  5.4423  1.261  1.1079  2.369  0.3105  6.8421  0.9167
1378284.0  7.6952  2.6174  1.261  1.1079  2.369  0.0729  0.5558  0.7862
1379558.0  7.613  5.1233  1.2609  1.1738  2.4346  0.0747  5.4755  0.9526
1397072.0  8.6183  3.989  1.2608  1.1354  2.3963  0.0984  12.546  0.9773
1401341.0  7.6429  4.5334  1.2611  1.1095  2.3705  0.1075  3.8861  0.8981
1402288.0  6.1223  5.4919  1.2609  1.1079  2.3689  0.1698  1.438  0.4438
1405999.0  8.3879  3.5415  1.2611  1.1079  2.369  0.0634  0.5381  0.2705
1408578.0  7.7904  4.0617  1.261  1.1079  2.369  0.0782  0.8626  0.4029
1412915.0  7.0319  3.4979  1.2609  1.1079  2.3688  0.0764  0.6107  0.8162
1439838.0  7.1231  3.5959  1.2611  1.1079  2.369  0.0785  0.6086  0.4977
1450349.0  9.6616  9.6578  1.108  1.1079  2.2159  0.0314  0.294  0.698
1454083.0  8.2817  5.5617  1.261  1.2518  2.5128  0.0773  2.6634  0.8509
1461473.0  7.6028  3.9294  1.2611  1.1079  2.369  0.0764  2.3004  0.8788
1464811.0  7.1192  4.3534  1.2611  1.1079  2.369  0.0716  0.3755  0.1095
1465352.0  6.0336  5.6492  1.2609  1.1079  2.3688  0.3562  3.8061  0.8066
1475619.0  7.0107  7.0103  1.2608  1.2608  2.5216  0.0763  1.0731  0.4359
1482891.0  9.3711  4.5079  1.1081  1.1119  2.22  0.309  4.5579  0.8626
1487493.0  18.7538  18.4228  1.7291  1.6163  3.3454  0.2241  2.4743  0.5192
1515901.0  8.1648  8.0006  1.108  1.1079  2.2159  0.0534  3.4515  0.9265
1518414.0  6.0366  5.4188  1.261  1.1079  2.369  2.5996  7.6196  0.841
1540431.0  6.1317  5.3796  1.2609  1.2608  2.5217  0.1509  1.4632  0.4761
1546266.0  7.2251  5.1738  1.1081  1.1079  2.216  0.2765  3.3053  0.8021
1551282.0  7.0622  2.7754  1.2609  1.1079  2.3688  0.1469  1.1251  0.2243
1556457.0  7.0402  3.8875  1.2609  1.1079  2.3688  0.0902  0.8097  0.2444
1569837.0  7.1416  2.7122  1.261  1.1079  2.3689  0.1229  1.1391  0.4167
1571760.0  7.186  7.1753  1.2611  1.2916  2.5527  0.1009  6.8246  0.9464
1575325.0  6.3185  5.672  1.2609  1.2608  2.5217  0.0723  0.5092  0.4648
1584809.0  9.6502  9.2506  1.108  1.1079  2.2159  0.1419  1.1917  0.1457
1585460.0  7.6281  3.8121  1.2609  1.1079  2.3688  0.0964  1.0134  0.3653
1603006.0  7.2864  3.104  1.261  1.1079  2.3689  0.2252  1.7635  0.5256
1606855.0  12.5095  12.435  1.2627  1.2454  2.508  0.0212  0.5893  0.5843
1612341.0  7.3783  3.0005  1.261  1.1079  2.3689  0.11  0.936  0.1212
1612731.0  9.3559  8.7052  1.108  1.4296  2.5375  0.0591  2.7969  0.87
1614790.0  7.0882  3.716  1.108  1.1079  2.2159  0.0794  0.5732  0.2332
1617407.0  8.2365  8.0962  1.108  1.1079  2.2159  0.0405  0.4697  0.5966
1618501.0  7.026  6.8994  1.2612  1.2373  2.4985  0.059  0.7791  0.7137
1619884.0  6.1228  5.1749  1.261  1.2608  2.5218  0.236  1.5846  0.3567
1629752.0  6.9245  5.3566  1.2611  1.1099  2.371  0.0717  1.0048  0.7011
1631543.0  6.9645  5.6936  1.2611  1.1322  2.3933  0.066  0.6976  0.6622
1635612.0  7.7635  3.9168  1.2611  1.1079  2.369  0.0688  0.7998  0.6205
1637502.0  7.4447  6.543  1.2612  1.2515  2.5127  0.0588  0.7838  0.5912
1641007.0  7.2654  3.4317  1.2609  1.1079  2.3688  0.0763  1.2246  0.8073
1644268.0  7.5208  2.7558  1.2609  1.1079  2.3688  0.1173  1.0105  0.2138
1661247.0  6.907  4.8722  1.2609  1.1079  2.3689  0.337  2.7943  0.7073
1663029.0  6.0844  5.6966  1.261  1.1079  2.3689  0.0874  0.8901  0.4242
1664592.0  6.6247  6.2321  1.2609  1.1828  2.4437  1.7751  6.1125  0.8062
1667221.0  6.002  5.249  1.2609  1.2608  2.5217  0.1501  1.424  0.4639
1671646.0  6.56  5.4488  1.2609  1.117  2.3779  0.1802  1.7279  0.5648
1673271.0  7.5399  4.0432  1.261  1.1079  2.3689  0.7061  6.2357  0.8684
1673708.0  7.0608  5.7413  1.2611  1.1467  2.4078  0.0739  3.8431  0.9339
1679675.0  6.2678  6.059  1.2611  1.1186  2.3796  0.0755  0.7906  0.5942
1684607.0  7.0833  3.3697  1.261  1.1079  2.369  0.1188  1.1885  0.456
1685829.0  6.0303  5.1227  1.261  1.2608  2.5218  0.4827  2.1167  0.422
1691637.0  7.2255  2.8713  1.2608  1.1079  2.3688  0.0863  3.6278  0.9414
1695200.0  6.0582  5.7781  1.2609  1.1079  2.3689  0.3401  2.5064  0.6584
1695392.0  6.7099  5.6845  1.261  1.1483  2.4093  1.9121  6.1983  0.8077
1698469.0  6.323  6.1438  1.261  1.1501  2.4111  4.4513  12.443  0.8967
1703547.0  8.1742  4.1487  1.2611  1.1099  2.371  0.0641  1.1112  0.7448
1709488.0  6.8763  4.9925  1.2609  1.1079  2.3689  0.2081  1.8835  0.5853
1719412.0  7.0367  2.6117  1.261  1.1079  2.369  0.313  2.6361  0.6993
1719718.0  6.1397  5.6818  1.261  1.1079  2.369  1.1449  8.5497  0.8972
1726582.0  6.3692  5.9275  1.261  1.1079  2.3689  2.2875  3.6489  0.5652
1728166.0  7.039  3.888  1.2609  1.1079  2.3688  0.3633  3.1926  0.7512
1767382.0  6.231  5.0484  1.2611  1.2608  2.5218  1.4056  3.3696  0.5662
1768677.0  7.1314  3.9404  1.261  1.1079  2.3689  0.2118  1.7096  0.5135
1775090.0  7.736  7.735  1.1079  1.1079  2.2159  0.0462  0.609  0.4802
1776983.0  7.1612  3.3988  1.261  1.1079  2.369  0.1257  1.6944  0.6746
1786983.0  11.087  11.0839  1.1428  1.131  2.2738  0.2463  6.276  0.9119
1787140.0  7.2856  4.5517  1.2611  1.1079  2.3691  0.0715  2.5612  0.9177
1803251.0  7.0857  3.2699  1.2609  1.1079  2.3688  1.0884  15.65  0.9542
1817299.0  7.2294  4.5619  1.261  1.1079  2.369  0.0707  0.5071  0.1611
1819924.0  7.1051  4.2544  1.108  1.1079  2.2159  0.0797  0.5758  0.5399
1820478.0  11.4888  10.8367  1.1862  1.1179  2.3041  0.0654  6.1938  0.9471
1841199.0  7.2079  3.5746  1.2611  1.1079  2.3691  0.0757  0.5642  0.6418
1845548.0  7.0114  2.7728  1.261  1.1079  2.369  0.1563  1.2394  0.3438
1846505.0  8.4039  3.799  1.1081  1.1079  2.216  1.898  45.468  0.986
1857152.0  6.157  6.0147  1.2611  1.1079  2.369  0.0739  0.3637  0.3195
1861949.0  7.4605  7.4584  1.1079  1.1079  2.2159  0.0865  1.2943  0.5738
1873076.0  6.3098  5.6531  1.261  1.1079  2.369  0.1318  4.6757  0.9124
1881064.0  9.9388  6.883  1.1081  1.3155  2.4236  0.1795  2.9767  0.7827
1881692.0  7.4942  3.447  1.261  1.1079  2.3689  1.0275  8.1095  0.8938
1882419.0  6.5976  5.4207  1.2609  1.1206  2.3815  9.6511  7.7329  0.7491
1885408.0  8.5566  8.5516  1.1079  1.1079  2.2159  0.0398  1.2465  0.8117
1895929.0  6.4193  5.879  1.261  1.1388  2.3998  11.2869  12.234  0.8554
1901156.0  8.9561  7.0371  1.1082  1.2825  2.3907  6.6579  13.863  0.8975
1927703.0  7.4593  3.4356  1.108  1.1079  2.216  0.1442  1.8785  0.7117
1928436.0  7.1046  4.7091  1.1081  1.1079  2.216  0.1791  1.9273  0.6666
1933377.0  7.3973  2.9723  1.2611  1.1079  2.369  0.0853  1.0127  0.6308
1935716.0  9.2593  9.1289  1.108  1.1079  2.2159  0.0363  2.1198  0.9049
1944596.0  18.0275  17.178  1.6695  1.6115  3.2809  14.8857  5.8277  0.2881
1974583.0  6.2424  5.7076  1.2609  1.2608  2.5217  0.0725  0.5158  0.4719
1981234.0  11.8981  8.2657  1.217  1.1079  2.3249  0.0394  0.5145  0.5301
1981241.0  10.3456  4.2577  1.108  1.1399  2.2479  0.0662  1.0618  0.578
1986018.0  6.4776  5.762  1.261  1.1161  2.3771  0.1007  2.5073  0.8397
1991243.0  6.3961  5.8189  1.261  1.1318  2.3928  7.656  26.24  0.9516
2013742.0  7.3574  2.5011  1.2611  1.1079  2.369  0.1145  0.9631  0.2575
2044236.0  7.7141  5.9585  1.2611  1.2426  2.5037  11.2044  6.3649  0.6289
2055138.0  7.5885  3.247  1.2611  1.1079  2.369  0.0731  0.686  0.6908
2060118.0  7.2868  4.8215  1.261  1.1187  2.3797  0.2109  4.3876  0.8714
2066757.0  7.3902  2.9257  1.2608  1.1079  2.3688  0.6432  4.9485  0.828
2072200.0  7.4208  5.1759  1.2611  1.127  2.3881  0.0647  1.319  0.8302
2077430.0  7.0057  4.121  1.2609  1.1079  2.3689  0.3928  2.9331  0.7092
2079104.0  7.1973  3.6328  1.108  1.1079  2.2159  0.1035  1.0116  0.4291
2084148.0  7.7838  2.6987  1.261  1.1079  2.3689  0.4407  3.4568  0.7578
2090756.0  9.2612  6.2384  1.108  1.2396  2.3477  1.6576  5.1296  0.7682
2092157.0  8.09  8.0858  1.1079  1.1079  2.2159  0.0431  0.549  0.3497
2104635.0  7.3461  3.8595  1.261  1.1079  2.3689  0.1733  1.4385  0.4194
2115879.0  6.3438  5.9561  1.2611  1.1079  2.3691  0.0719  0.5136  0.5647
2117042.0  7.047  4.218  1.2609  1.1079  2.3689  0.3613  2.7933  0.6988
2141140.0  7.0763  4.376  1.261  1.1079  2.3689  0.2486  2.4215  0.6888
2141145.0  6.9494  4.875  1.2609  1.1079  2.3688  0.0981  0.9306  0.2301
2142880.0  6.8539  4.924  1.261  1.1079  2.3689  0.0744  0.6525  0.3654
2148548.0  8.4175  8.4154  1.1079  1.1079  2.2159  0.143  8.5463  0.9547
2152788.0  6.3457  5.0173  1.261  1.2608  2.5218  0.3818  1.9206  0.3924
2166685.0  6.6424  5.6805  1.2611  1.1079  2.369  0.0746  2.3384  0.8971
2198365.0  7.2693  3.6301  1.2609  1.1079  2.3689  0.0916  0.9751  0.4477
2199383.0  7.2681  3.1179  1.261  1.1079  2.3689  0.0769  0.547  0.5487
2200628.0  7.7403  7.7396  1.1079  1.1079  2.2159  0.0848  0.9691  0.2433
2204783.0  7.0446  3.1997  1.261  1.1079  2.3689  0.1632  1.4802  0.4984
2205293.0  7.0197  5.2382  1.1081  1.1079  2.216  0.0685  0.4992  0.5471
2211287.0  7.0033  3.6362  1.261  1.1079  2.3689  0.8189  6.4552  0.868
2254624.0  7.7261  3.3563  1.2611  1.1079  2.369  0.0706  0.423  0.1964
2255930.0  6.6356  5.3765  1.2609  1.1185  2.3794  0.7917  7.3415  0.8891
2258239.0  7.0806  4.2481  1.261  1.1079  2.3689  0.0816  0.7487  0.2831
2262071.0  8.6951  6.8438  1.108  1.2597  2.3678  13.4414  5.8318  0.5724
2280942.0  5.829  5.7943  1.2609  1.1079  2.3689  0.3369  2.7809  0.7095
2283926.0  7.0297  4.2128  1.261  1.1079  2.3689  0.2963  2.5032  0.6777
2291885.0  6.2189  5.7685  1.261  1.1079  2.3689  0.1007  1.014  0.3638
2294010.0  6.5851  5.8044  1.261  1.1395  2.4005  0.0687  0.3873  0.7655
2296418.0  7.2251  3.9531  1.261  1.1079  2.3689  0.2385  2.1145  0.6277
2324062.0  8.8028  8.7994  1.1079  1.1079  2.2159  0.0553  1.261  0.6569
2324279.0  7.9683  3.1406  1.261  1.1079  2.3689  0.0871  1.6683  0.7515
2354326.0  7.2317  5.3267  1.2611  1.1266  2.3878  0.0819  5.8928  0.9556
2357833.0  7.0477  3.6217  1.2611  1.1079  2.369  0.0821  1.3571  0.803
2386489.0  7.1847  3.5866  1.108  1.1079  2.216  0.0849  0.6089  0.5686
2390741.0  12.1644  12.1526  1.2303  1.19  2.4203  0.0805  1.3214  0.4585
2418067.0  18.999  18.768  1.7468  1.6668  3.4136  0.0128  5.7915  0.9803
2420536.0  8.2264  5.5373  1.261  1.247  2.508  0.0594  0.928  0.5654
2438813.0  7.4346  3.8953  1.1081  1.1079  2.2161  0.0769  0.4255  0.5487
2453276.0  7.1385  4.4665  1.2611  1.1079  2.369  0.0708  0.5676  0.5885
2453575.0  7.2935  5.0636  1.108  1.1079  2.216  0.0733  0.5688  0.2912
2454130.0  6.3043  5.9123  1.2608  1.2608  2.5216  0.0854  1.0002  0.4628
2460971.0  7.4211  3.8661  1.261  1.1079  2.3689  0.0688  0.5264  0.6088
2468142.0  18.6771  18.5139  1.7227  1.6692  3.3919  3.2422  4.7686  0.4886
2479076.0  7.5953  3.5334  1.261  1.1079  2.3689  0.0697  0.5623  0.4944
2493214.0  7.3611  7.3599  1.1079  1.1079  2.2159  0.0559  0.857  0.5485
2497928.0  6.0797  5.1386  1.261  1.2608  2.5218  0.2261  1.6524  0.4295
2501562.0  6.3127  5.6621  1.261  1.1079  2.369  0.5033  1.7777  0.1787
2527790.0  7.4029  4.1012  1.261  1.1079  2.3689  0.1575  1.7869  0.6198
2549143.0  7.1946  3.838  1.261  1.1079  2.3689  0.0797  0.7088  0.316
2550604.0  6.725  5.6591  1.2611  1.1091  2.3702  0.0701  1.26  0.8259
2554224.0  9.9586  9.9554  1.1079  1.1079  2.2159  9.0899  6.2868  0.6949
2554870.0  15.7585  15.6683  1.5058  1.4679  2.9737  5.3502  4.1135  0.2657
2557133.0  7.1127  6.2203  1.108  1.109  2.217  0.0619  1.0097  0.7834
2568933.0  5.9201  5.8831  1.2609  1.1079  2.3689  0.2075  1.923  0.6089
2573955.0  7.2266  7.0637  1.2611  1.2831  2.5442  0.4831  5.2442  0.8445
2586663.0  20.7365  20.5187  1.876  1.803  3.679  0.9283  3.2711  0.3522
2588418.0  7.7492  3.2053  1.2609  1.1079  2.3688  0.8362  7.1048  0.8824
2589325.0  7.2159  6.3937  1.261  1.2381  2.4992  0.3402  6.4846  0.8997
2620041.0  6.6852  5.9128  1.2611  1.1302  2.3913  0.0747  3.1446  0.9221
2621734.0  7.0753  3.6067  1.261  1.1079  2.3689  0.5259  3.976  0.7863
2653172.0  7.4031  7.4025  1.1079  1.1079  2.2159  3.6092  15.333  0.9318
2656668.0  7.412  4.1375  1.2611  1.1079  2.369  0.0853  2.9129  0.8915
2673251.0  9.2574  5.6361  1.1082  1.1903  2.2984  0.1175  3.5293  0.8714
2675216.0  7.6447  3.5556  1.261  1.1079  2.3689  0.0731  0.6884  0.3953
2677244.0  6.2464  5.9648  1.2609  1.1318  2.3927  1.4304  5.9242  0.8169
2678865.0  7.2531  3.5551  1.261  1.1079  2.3689  0.2177  1.6675  0.4843
2686867.0  7.933  6.1873  1.261  1.2755  2.5366  0.106  3.0492  0.8389
2688818.0  7.5191  4.7693  1.1081  1.1342  2.2423  0.1134  1.2439  0.4902
2726483.0  7.1812  3.5071  1.2609  1.1079  2.3688  0.3744  2.7716  0.6917
2738118.0  20.4615  20.2424  1.8535  1.7871  3.6405  0.2085  3.696  0.7204
2739867.0  6.5587  6.2124  1.2609  1.1747  2.4356  1.4148  87.475  0.994
2756314.0  7.3131  3.6207  1.1081  1.1079  2.2161  0.0814  0.4406  0.5073
2758462.0  8.3643  7.1431  1.1081  1.2669  2.375  6.9621  10.867  0.8584
2760779.0  6.1266  5.3001  1.2609  1.1079  2.3689  0.1637  1.5982  0.5572
2780576.0  7.9083  3.2805  1.1081  1.1079  2.216  0.074  0.2029  0.0885
2784207.0  6.6368  5.1745  1.2609  1.1079  2.3688  0.0804  0.7888  0.3997
2789725.0  7.0546  4.9094  1.2611  1.1079  2.369  0.0689  0.5125  0.5673
2812818.0  7.0741  5.8949  1.2611  1.1774  2.4385  0.082  1.8272  0.7802
2832947.0  5.9835  5.8669  1.2611  1.1079  2.369  0.0778  0.3955  0.4659
2834090.0  7.402  4.7514  1.108  1.1079  2.2159  0.0828  0.7236  0.2449
2849966.0  7.1758  2.8308  1.108  1.1079  2.2159  0.213  2.5153  0.7605
2893513.0  7.1626  3.2727  1.261  1.1079  2.3689  0.7597  6.2051  0.8647
2897935.0  7.308  3.8954  1.2611  1.1079  2.369  0.0822  1.7003  0.8084
2898291.0  7.3284  3.6533  1.2609  1.1079  2.3689  0.1596  1.5804  0.5418
2899467.0  6.8634  4.8998  1.261  1.1079  2.3689  0.0916  0.8282  0.0647
2903447.0  7.039  6.1136  1.2611  1.1792  2.4403  0.0644  0.7119  0.5645
2905646.0  7.0933  4.2363  1.2611  1.1079  2.369  0.0746  0.8515  0.6915
2910189.0  7.6124  7.1701  1.261  1.3278  2.5888  5.501  6.2583  0.6992
2913589.0  7.1068  4.6918  1.2608  1.1079  2.3688  0.0953  0.9223  0.241
2921110.0  8.0088  3.4775  1.2611  1.1079  2.369  0.0656  0.6195  0.6645
2929804.0  13.4438  12.9243  1.3326  1.2819  2.6145  0.0271  3.2909  0.9198
2944768.0  7.7046  3.4517  1.2609  1.1079  2.3689  0.0907  0.8368  0.0304
2955244.0  15.0533  7.2226  1.453  1.2608  2.7138  0.0508  0.6045  0.415
2956329.0  8.4239  2.8685  1.2609  1.1079  2.3688  0.0649  0.7913  0.6405
2957343.0  14.8593  14.0743  1.4384  1.3799  2.8184  7.6885  20.374  0.9224
2964139.0  7.0976  5.1014  1.261  1.1263  2.3873  0.0795  0.7572  0.2099
2964239.0  6.1213  5.7127  1.261  1.1079  2.3689  1.1635  3.1487  0.5853
2970376.0  7.0091  4.1983  1.2611  1.1079  2.369  0.0734  0.2451  0.0661
2985375.0  6.5942  5.1671  1.261  1.1079  2.369  3.888  80.466  0.9902
2992043.0  7.0218  3.2193  1.261  1.1079  2.3689  0.0789  0.4872  0.7241
3003990.0  7.821  4.8537  1.2611  1.1568  2.4178  0.0725  1.0102  0.5544
3020838.0  7.2795  2.5098  1.2611  1.1079  2.369  0.1377  7.6815  0.9547
3033954.0  6.2804  5.5531  1.261  1.1079  2.369  0.0749  0.3271  0.5301
3034559.0  7.6955  3.8518  1.261  1.1079  2.3689  0.3085  2.5702  0.6809
3049396.0  6.3816  5.839  1.2611  1.1109  2.372  0.0776  0.832  0.5558
3055368.0  8.7334  3.313  1.1082  1.1079  2.2161  0.0701  0.5555  0.5098
3064538.0  8.1266  3.0525  1.2611  1.1079  2.369  0.0712  0.6911  0.4397
3082652.0  9.7042  9.698  1.1079  1.1079  2.2159  0.4185  6.1026  0.8925
3084555.0  7.2071  4.7631  1.2609  1.1159  2.3769  0.0966  0.9077  0.1082
3085042.0  8.4467  8.3661  1.108  1.1079  2.2159  0.0717  1.095  0.4759
3104449.0  8.0047  7.9909  1.261  1.4137  2.6747  0.5356  6.9705  0.8826
3117507.0  8.3896  4.6564  1.108  1.1079  2.2159  0.1468  1.7396  0.6393
3119684.0  7.0715  2.7302  1.261  1.1079  2.369  0.0871  0.6369  0.3744
3126067.0  12.2711  10.3714  1.2449  1.6788  2.9237  0.0512  3.1205  0.8642
3132273.0  6.0882  5.3901  1.2609  1.2608  2.5217  0.1729  1.4775  0.4202
3138407.0  9.2003  8.2566  1.108  1.3853  2.4933  0.3904  3.012  0.6952
3149322.0  6.3546  5.1421  1.261  1.2608  2.5218  0.5276  2.3745  0.5058
3153799.0  7.2032  2.8428  1.2611  1.1079  2.369  0.0843  1.4803  0.8496
3156976.0  6.8064  5.1728  1.2609  1.1142  2.3751  0.1296  1.3433  0.4818
3157147.0  7.7653  4.3703  1.2611  1.1079  2.369  0.0666  0.7555  0.5675
3162627.0  6.0584  5.973  1.2611  1.1079  2.369  0.077  0.8319  0.7232
3167336.0  6.9947  4.5334  1.2608  1.1079  2.3688  0.2923  2.432  0.6651
3172430.0  7.1043  3.7752  1.2609  1.1079  2.3689  0.2165  1.6487  0.4771
3177621.0  8.2369  2.7456  1.2611  1.1079  2.369  0.0679  0.6751  0.6556
3187024.0  9.216  9.2144  1.1079  1.1079  2.2159  0.0575  1.2786  0.6373
3194879.0  7.3574  3.8369  1.108  1.1079  2.2159  0.1021  0.9988  0.4319
3203160.0  7.4192  4.6821  1.261  1.1272  2.3881  7.7552  14.123  0.8947
3204154.0  7.4574  2.941  1.261  1.1079  2.369  0.1623  3.4544  0.8518
3204294.0  7.0452  3.0997  1.261  1.1079  2.3689  0.1481  1.4243  0.5109
3209508.0  6.2335  5.6195  1.2609  1.2608  2.5217  0.146  1.4636  0.4792
3220082.0  6.5305  6.2538  1.2611  1.1419  2.4031  0.088  9.7512  0.9752
3220612.0  7.3957  3.1418  1.2609  1.1079  2.3688  0.9501  8.1018  0.8967
3226112.0  7.4741  2.9079  1.2611  1.1079  2.369  0.0765  0.3003  0.0472
3227218.0  7.0602  6.7625  1.261  1.2514  2.5124  2.5368  5.8579  0.7595
3227432.0  6.5764  5.4028  1.2609  1.1151  2.376  0.0698  0.6067  0.8647
3234161.0  9.4048  7.6017  1.108  1.3511  2.4591  0.5352  5.1819  0.8401
3256473.0  7.2708  7.269  1.1079  1.2608  2.3687  0.0506  0.5971  0.466
3259044.0  8.166  3.6345  1.2609  1.1079  2.3689  0.0613  0.3742  0.316
3262459.0  7.4914  3.0843  1.261  1.1079  2.3689  0.2546  1.9513  0.5645
3263665.0  7.1661  4.2632  1.261  1.1079  2.3689  0.1396  1.2111  0.3219
3279238.0  7.1281  3.8019  1.2611  1.1079  2.369  0.0815  1.491  0.8027
3283199.0  6.3407  5.6882  1.2609  1.1079  2.3688  0.6575  7.5639  0.9007
3288207.0  7.041  5.4088  1.2611  1.1131  2.3743  0.0658  0.4814  0.5633
3295092.0  8.2644  3.6278  1.1081  1.1079  2.216  0.0773  0.6346  0.1762
3295934.0  6.1436  5.7121  1.261  1.1079  2.3689  0.1722  1.5124  0.4851
3296174.0  7.2145  4.0175  1.2609  1.1079  2.3689  0.0807  0.7176  0.2242
3323558.0  7.5124  3.5397  1.261  1.1079  2.3689  0.074  0.6364  0.3571
3350062.0  6.762  5.1229  1.261  1.1079  2.3689  0.2055  1.7508  0.5378
3356496.0  11.8412  8.5556  1.2095  1.5262  2.7357  0.9095  2.3808  0.2013
3366386.0  6.3075  5.5533  1.261  1.1079  2.3689  0.4067  4.5966  0.8416
3384097.0  8.0392  6.6787  1.108  1.2038  2.3118  0.0527  0.7002  0.6131
3391666.0  7.1906  3.2441  1.261  1.1079  2.3689  0.1232  1.0543  0.2544
3408325.0  7.7552  6.2906  1.2611  1.2673  2.5284  1.6671  4.3621  0.6835
3431262.0  6.0368  5.8733  1.2609  1.1094  2.3703  0.1254  1.0866  0.2782
3433431.0  7.3155  3.1854  1.2609  1.1079  2.3689  0.0772  0.5945  0.4498
3439999.0  7.0192  3.9005  1.2609  1.1079  2.3689  0.1039  1.405  0.6389
3453799.0  6.1147  5.7328  1.261  1.1079  2.3689  0.161  1.1931  0.1669
3457036.0  18.6788  18.4744  1.7231  1.6507  3.3738  2.8005  5.5624  0.6272
3465753.0  7.091  2.5942  1.2611  1.1079  2.369  0.0857  0.3379  0.4333
3474948.0  6.7901  5.3039  1.2609  1.1262  2.3871  0.1488  5.4556  0.9196
3483805.0  7.6992  3.2984  1.1081  1.1079  2.216  0.1641  1.6772  0.6196
3484864.0  7.651  4.377  1.2611  1.1079  2.369  0.0744  1.436  0.7607
3484876.0  7.3509  3.5607  1.2609  1.1079  2.3688  0.0891  0.8275  0.2509
3486777.0  6.2585  5.3301  1.261  1.1079  2.3689  0.0781  0.6705  0.6264
3499240.0  7.1021  4.5489  1.261  1.1079  2.3689  0.2536  2.0942  0.6078
3507236.0  8.6033  8.5993  1.1079  1.1079  2.2159  0.0486  1.5962  0.7936
3515845.0  6.8801  5.2857  1.261  1.1296  2.3906  4.923  7.1408  0.7795
3527035.0  7.1584  3.7309  1.261  1.1079  2.3689  0.0798  0.7045  0.3635
3527090.0  6.2587  5.7782  1.2611  1.1079  2.369  0.3827  1.6758  0.2328
3528335.0  6.2879  5.8303  1.2609  1.1079  2.3689  0.1452  1.1784  0.2314
3537203.0  7.3413  2.9545  1.2609  1.1079  2.3688  0.0837  0.7111  0.3386
3542459.0  7.1288  2.8592  1.2611  1.1079  2.369  0.0838  0.4909  0.4014
3545299.0  7.2949  4.1903  1.261  1.1079  2.369  0.1722  1.9547  0.652
3554224.0  7.4032  6.4425  1.261  1.2568  2.5179  8.68  6.2362  0.6512
3559481.0  7.021  2.8558  1.261  1.1079  2.3689  2.4062  30.745  0.9737
3563600.0  7.8179  3.0329  1.261  1.1079  2.3689  0.1226  1.063  0.1905
3594291.0  6.2546  5.2032  1.261  1.2608  2.5218  0.6627  2.4996  0.4931
3596537.0  7.3704  4.0228  1.2609  1.1079  2.3689  0.1259  1.1357  0.2962
3599931.0  7.5732  3.6831  1.261  1.1079  2.3689  0.1938  1.64  0.5003
3607987.0  6.1833  5.5475  1.2609  1.1079  2.3688  0.0774  1.1328  0.7658
3633064.0  7.0359  3.1341  1.2609  1.1079  2.3689  0.6  7.8719  0.9094
3667319.0  7.2086  3.0451  1.2609  1.1079  2.3688  0.3325  2.7608  0.7076
3669258.0  7.1755  3.3617  1.261  1.1079  2.3689  0.2752  2.1606  0.6154
3676445.0  7.3136  4.8846  1.261  1.1197  2.3807  0.1037  1.909  0.7458
3703543.0  5.7564  5.7409  1.261  1.1079  2.3689  0.1805  1.4208  0.4174
3704426.0  6.2843  5.8551  1.2611  1.1079  2.369  0.504  1.8757  0.2928
3710469.0  7.8436  7.84  1.1079  1.1079  2.2159  0.0426  0.4516  0.5646
3712053.0  9.44  9.4325  1.1079  1.1079  2.2159  0.0308  0.5511  0.834
3720485.0  7.0437  4.8941  1.261  1.1079  2.369  0.1072  1.1024  0.3965
3722310.0  8.8841  8.089  1.108  1.1079  2.2159  1.096  18.349  0.9645
3733378.0  7.446  4.6807  1.1081  1.1079  2.216  0.104  0.9415  0.2865
3734806.0  6.7509  5.3868  1.261  1.1214  2.3825  0.0699  0.4567  0.4646
3744300.0  7.3399  4.9981  1.261  1.1361  2.3971  0.1234  1.8778  0.6944
3765291.0  6.2497  5.6333  1.2609  1.1079  2.3688  0.2089  1.8561  0.5786
3770750.0  7.3352  5.478  1.261  1.1776  2.4386  8.4748  8.5823  0.787
3786814.0  11.7471  6.8058  1.2057  1.393  2.5987  0.7229  8.0059  0.8937
3790334.0  6.8912  4.7947  1.261  1.1079  2.369  0.4257  10.165  0.9425
3800900.0  7.1916  3.258  1.1081  1.1079  2.216  0.095  0.6354  0.1727
3812809.0  7.0016  6.0328  1.2611  1.1712  2.4323  0.064  0.6324  0.5623
3815177.0  6.2584  5.7326  1.261  1.1079  2.369  0.6617  3.2136  0.6817
3815844.0  7.1414  3.512  1.2609  1.1079  2.3689  0.156  1.2923  0.3635
3816630.0  7.6529  4.0079  1.108  1.1079  2.216  0.1446  1.4443  0.5506
3826897.0  7.6689  3.6936  1.261  1.1079  2.369  0.0836  0.82  0.2905
3839834.0  8.2468  4.767  1.261  1.1727  2.4336  0.063  1.8735  0.8413
3843200.0  6.6255  5.1  1.2609  1.1079  2.3689  0.0843  0.7504  0.1979
3844883.0  7.0966  4.2267  1.261  1.1079  2.3689  0.3719  2.9033  0.7112
3858768.0  6.1076  5.1301  1.261  1.2608  2.5217  0.1865  1.4774  0.3929
3860286.0  6.1665  6.0045  1.261  1.1124  2.3734  0.0853  0.8944  0.4851
3865528.0  7.2898  5.3071  1.261  1.153  2.414  0.0659  0.5205  0.1538
3872407.0  7.1919  4.2057  1.1081  1.1079  2.2161  0.1286  1.1981  0.4354
3893486.0  7.0514  4.1582  1.2609  1.1079  2.3688  0.1622  1.2823  0.3115
3903742.0  6.8924  5.5063  1.2611  1.1278  2.3889  0.2352  21.527  0.983
3910538.0  9.488  8.0899  1.1082  1.1079  2.2162  0.0427  0.4388  0.545
3920080.0  8.2983  4.0565  1.2611  1.1101  2.3712  0.0599  0.6589  0.6467
3922508.0  6.1373  5.4135  1.261  1.1079  2.3689  0.0846  0.7631  0.4223
3933370.0  7.3098  4.1751  1.2609  1.1079  2.3688  0.0942  1.0293  0.4276
3934386.0  7.8738  3.0773  1.261  1.1079  2.369  0.0693  0.4016  0.5787
3940886.0  7.7064  3.5503  1.261  1.1079  2.3689  0.2975  2.8099  0.7248
3959565.0  7.9662  3.134  1.261  1.1079  2.3689  0.0741  0.6926  0.2702
3967553.0  7.5845  3.8647  1.2609  1.1079  2.3689  0.542  4.3747  0.8089
3970006.0  7.0952  2.7871  1.261  1.1079  2.3689  0.2154  1.7012  0.5185
3974787.0  7.2557  3.0707  1.261  1.1079  2.3689  0.0825  0.8065  0.5341
3977342.0  6.6467  5.1792  1.261  1.1079  2.3689  0.1418  1.2518  0.3646
3984530.0  7.0497  3.9337  1.2609  1.1079  2.3688  0.4488  3.0156  0.7041
3985212.0  7.4863  3.2615  1.2609  1.1079  2.3688  0.1021  1.8939  0.7647
3985276.0  7.4741  6.468  1.261  1.2608  2.5218  3.4979  14.769  0.9201
4012133.0  6.0961  5.2979  1.2609  1.2608  2.5217  0.2248  1.7338  0.4758
4028175.0  6.1553  5.6824  1.2611  1.1079  2.369  0.8414  2.5578  0.4942
4037845.0  7.553  4.3467  1.2609  1.1079  2.3689  0.2418  2.0412  0.5983
4040239.0  7.171  4.6058  1.261  1.1079  2.369  0.158  3.0658  0.8239
4052155.0  7.7454  6.3506  1.108  1.1564  2.2645  0.0551  0.7968  0.7164
4054758.0  7.57  4.3747  1.261  1.1128  2.3738  0.2074  2.0173  0.622
4057450.0  7.3166  2.9808  1.2609  1.1079  2.3688  0.1446  1.1603  0.2594
4099047.0  7.3661  4.1112  1.261  1.1079  2.369  0.0779  0.6721  0.1815
4108188.0  6.2999  5.388  1.2611  1.1079  2.369  0.077  0.5282  0.4773
4119778.0  6.3712  5.5611  1.261  1.1125  2.3734  0.5391  4.9417  0.8385
4125758.0  9.2066  4.2806  1.108  1.1079  2.2159  0.058  0.8034  0.7223
4135534.0  7.1886  5.7783  1.2609  1.1876  2.4485  0.0613  87.885  0.9995
4139111.0  6.2472  5.7187  1.2609  1.1079  2.3688  0.2446  2.3773  0.6837
4148448.0  7.3369  6.1208  1.2611  1.2147  2.4759  0.2205  15.594  0.974
4152349.0  7.3554  2.6271  1.2609  1.1079  2.3689  0.0785  0.5055  0.6887
4170367.0  7.1345  6.8221  1.2609  1.2658  2.5268  8.5049  6.9966  0.7061
4174817.0  7.6196  3.8245  1.2611  1.1079  2.369  0.0681  0.5258  0.6096
4176891.0  6.4863  5.7184  1.261  1.1239  2.3849  0.1046  1.2127  0.5178
4181669.0  8.0064  6.0894  1.2612  1.2463  2.5076  0.0545  1.2214  0.8188
4196312.0  6.3812  5.6169  1.261  1.1181  2.379  0.1904  1.7456  0.5582
4198668.0  7.5639  5.2017  1.2611  1.142  2.4031  0.062  0.6732  0.6377
4212379.0  7.2434  3.8737  1.2609  1.1079  2.3689  0.0866  0.8757  0.3885
4226820.0  6.32  5.6093  1.2609  1.2608  2.5217  0.1317  1.2684  0.3832
4245906.0  6.9225  4.6812  1.261  1.1079  2.369  0.1979  2.6609  0.7594
4271359.0  8.303  6.0473  1.261  1.2929  2.5539  1.4991  5.4158  0.7735
4275445.0  20.5685  20.1534  1.863  1.7328  3.5958  0.0338  2.8734  0.816
4300557.0  20.1916  19.9997  1.8287  1.7698  3.5985  0.2052  2.0456  0.2405
4303268.0  6.9757  6.4385  1.2611  1.2215  2.4826  0.1636  5.4284  0.9092
4310515.0  20.6438  20.2577  1.8686  1.7471  3.6157  11.8718  6.7818  0.4626
4327316.0  8.6284  3.9981  1.108  1.1079  2.216  0.0772  5.5519  0.9586
4338292.0  7.8129  5.8739  1.2611  1.2363  2.4975  0.0625  1.0633  0.6533
4338366.0  6.0128  5.5531  1.261  1.1079  2.3689  0.4481  2.2297  0.5308
4341899.0  6.3788  5.7745  1.2609  1.1286  2.3895  10.8247  7.9787  0.7487
4349953.0  7.8327  2.7938  1.2609  1.1079  2.3688  0.1526  1.3295  0.3942
4370235.0  10.7771  7.4212  1.133  1.1079  2.2409  0.0464  0.2526  0.1495
4386655.0  6.5835  5.0911  1.2609  1.1079  2.3689  0.1744  1.6929  0.5652
4387169.0  6.7962  4.7779  1.2611  1.1079  2.369  0.0744  1.1435  0.8113
4393070.0  9.7601  9.7529  1.1079  1.1079  2.2159  0.0298  0.3751  0.3689
4402295.0  7.4107  6.4132  1.2612  1.2409  2.502  0.0637  1.3186  0.7472
4415538.0  7.5594  3.8025  1.108  1.1079  2.216  0.0796  1.6205  0.8629
4435251.0  8.3389  3.614  1.2609  1.1129  2.3738  0.4466  3.8841  0.7901
4436864.0  8.5337  3.1039  1.261  1.1079  2.3689  0.0762  4.0169  0.9294
4444727.0  7.1377  3.2574  1.2609  1.1079  2.3688  0.1655  1.3552  0.3969
4467441.0  7.7241  4.1167  1.2608  1.1079  2.3688  0.2393  3.4244  0.8097
4475313.0  6.858  5.0033  1.2609  1.1079  2.3689  0.242  2.3796  0.6843
4476077.0  8.4342  2.895  1.261  1.1079  2.3689  0.0648  0.801  0.644
4502165.0  6.6848  5.408  1.2611  1.1079  2.369  0.0725  0.691  0.5643
4508346.0  6.0273  5.6135  1.261  1.1079  2.3689  0.1451  1.2524  0.3807
4544647.0  7.4755  4.894  1.2611  1.1249  2.386  0.067  0.684  0.4811
4546494.0  15.2322  7.3277  1.4663  1.5797  3.046  5.4235  7.2815  0.7127
4559081.0  7.0803  3.507  1.261  1.1079  2.3689  0.6265  7.835  0.9071
4567294.0  6.6976  5.1949  1.2609  1.1095  2.3704  0.1356  1.304  0.4359
4575661.0  6.1309  5.9517  1.2611  1.1079  2.369  0.0744  0.2402  0.3004
4576943.0  7.3771  7.3751  1.1079  1.1079  2.2159  1.0363  5.1487  0.8159
4607171.0  20.456  20.1174  1.8545  1.7464  3.6009  0.3078  5.8425  0.8315
4612734.0  9.1303  8.0275  1.108  1.1079  2.216  0.3679  5.597  0.8866
4615670.0  6.5281  6.0989  1.2611  1.1448  2.4058  0.092  3.1219  0.8872
4616668.0  6.4339  5.5465  1.261  1.1159  2.3769  1.2474  21.706  0.968
4625682.0  7.3421  2.7926  1.2611  1.1079  2.369  0.1219  4.0556  0.9047
4625959.0  6.479  6.0953  1.2611  1.1482  2.4092  0.1094  3.0727  0.8625
4628897.0  6.6329  5.6509  1.2609  1.1396  2.4005  2.717  5.9584  0.7709
4692632.0  7.46  3.2805  1.2609  1.1079  2.3689  0.0745  0.6235  0.4649
4729847.0  7.0784  3.7906  1.2611  1.1079  2.369  0.076  0.4053  0.3776
4735078.0  6.1018  5.9504  1.2611  1.1079  2.369  0.0762  0.5291  0.4901
4738779.0  8.5347  8.406  1.108  1.1079  2.2159  0.0383  0.4651  0.4758
4744357.0  7.3027  2.5748  1.2611  1.1079  2.369  0.1467  3.4969  0.8675
4769576.0  7.8463  2.8295  1.1082  1.1079  2.2161  0.0814  0.5507  0.6242
4773063.0  7.0126  3.5198  1.261  1.1079  2.369  0.1444  5.6862  0.9294
4774912.0  20.5102  20.1115  1.8587  1.733  3.5917  11.6086  9.0534  0.6665
4776667.0  17.5542  17.4512  1.6396  1.5987  3.2383  1.3683  3.5118  0.4358
4778640.0  8.0496  5.1714  1.2611  1.1883  2.4494  0.0612  1.0689  0.7044
4779352.0  7.012  4.161  1.2611  1.1079  2.369  0.1085  16.935  0.9857
4793736.0  7.5583  7.2774  1.2612  1.3246  2.5858  0.3817  3.0147  0.6885
4793967.0  8.2766  3.3031  1.2609  1.1079  2.3689  0.0667  1.3141  0.783
4797745.0  6.8083  4.9212  1.2611  1.1079  2.369  0.0762  2.0322  0.8839
4799213.0  7.0788  5.2789  1.2611  1.1181  2.3791  0.2101  26.608  0.988
4805999.0  7.178  2.5207  1.261  1.1079  2.369  0.1757  1.5049  0.4918
4806600.0  7.4543  3.3414  1.108  1.1079  2.2159  0.14  2.6215  0.8237
4806658.0  7.9181  3.0898  1.261  1.1079  2.369  0.3561  2.8415  0.7064
4821110.0  7.6768  3.9543  1.2609  1.1079  2.3688  0.076  0.804  0.3834
4835440.0  6.1913  5.2023  1.261  1.2608  2.5218  0.7171  2.5106  0.477
4836164.0  8.2066  5.2427  1.2612  1.1969  2.4581  0.0553  0.5458  0.5451
4849812.0  7.3403  3.6277  1.261  1.1079  2.3689  0.0752  0.7794  0.5703
4852953.0  6.1992  5.7781  1.2609  1.1079  2.3689  6.4886  142.4  0.9941
4858840.0  7.5354  3.3171  1.2609  1.1079  2.3689  0.6141  4.5841  0.8121
4861508.0  6.9366  4.7681  1.2609  1.1079  2.3689  0.1031  0.9933  0.2926
4878196.0  18.4399  18.149  1.7056  1.6046  3.3102  0.0216  2.2864  0.8319
4881265.0  7.1926  2.9242  1.2609  1.1079  2.3688  0.1209  1.0756  0.3333
4897840.0  11.5341  6.7329  1.1898  1.3747  2.5645  1.5858  3.5082  0.5585
4899251.0  8.7361  8.7324  1.1079  1.1079  2.2159  0.0377  0.4941  0.2408
4900329.0  7.3705  4.3323  1.261  1.1079  2.3689  0.4144  3.3925  0.7563
4905298.0  7.3703  5.3264  1.2611  1.1311  2.3922  0.0657  2.1558  0.9005
4914707.0  7.9738  3.0803  1.2611  1.1079  2.369  0.079  1.7611  0.8144
4916762.0  7.3391  3.9267  1.108  1.1079  2.2159  0.7561  7.703  0.9046
4925772.0  7.1622  5.2498  1.2611  1.1139  2.375  0.0676  1.1278  0.783
4942589.0  7.0648  6.9661  1.1081  1.174  2.2821  0.0572  0.6132  0.6148
4950390.0  7.0533  4.6911  1.2611  1.1079  2.369  0.0706  0.4265  0.243
4952650.0  9.2829  9.2595  1.108  1.1079  2.216  0.0358  1.4035  0.8582
4963148.0  8.2052  3.2777  1.1081  1.1079  2.2161  0.0737  0.6966  0.679
4992310.0  18.6452  18.3035  1.7208  1.6044  3.3252  1.1547  5.9399  0.7585
4993504.0  6.2261  5.3792  1.261  1.1079  2.3689  0.0766  0.6166  0.7263
5003004.0  6.9361  4.5759  1.261  1.1079  2.3689  1.0062  9.0053  0.9081
5003201.0  7.2103  4.7401  1.2609  1.1109  2.3719  0.1199  1.0977  0.2624
5014922.0  12.9293  11.3673  1.2941  1.7761  3.0702  3.8922  4.1459  0.3776
5015814.0  7.1287  4.6151  1.261  1.1079  2.3689  0.0842  0.8119  0.2412
5017102.0  21.0276  20.813  1.8966  1.8259  3.7226  2.7826  5.2729  0.5452
5026941.0  7.1417  4.434  1.261  1.1079  2.3689  0.1369  1.1837  0.2963
5029025.0  6.1402  5.6601  1.2609  1.1079  2.3689  0.0783  0.8752  0.5979
5030639.0  7.5847  3.3742  1.261  1.1079  2.3689  0.9533  7.5522  0.8864
5039880.0  6.1736  5.5141  1.2611  1.1079  2.369  3.3683  5.9511  0.7558
5041005.0  12.2446  12.0166  1.2428  1.2109  2.4537  0.0212  0.2152  0.3459
5045728.0  8.5163  8.5141  1.1079  1.1079  2.2159  0.1642  1.3666  0.353
5053260.0  6.8256  5.5618  1.261  1.1457  2.4066  0.0701  5.2195  0.9659
5053396.0  7.3137  4.7175  1.261  1.1155  2.3766  0.1878  1.9999  0.6401
5058470.0  7.6451  6.4478  1.2612  1.2522  2.5134  0.0553  0.6287  0.6076
5061737.0  6.19  5.8843  1.2609  1.1226  2.3835  5.2895  13.323  0.9007
5079517.0  7.654  3.0905  1.2611  1.1079  2.3691  0.0741  1.3674  0.8545
5080022.0  6.3324  5.4495  1.261  1.1079  2.3689  1.0455  11.284  0.9307
5083189.0  7.1087  4.094  1.2609  1.1079  2.3689  0.4839  4.6367  0.8318
5121197.0  5.9934  5.9789  1.2609  1.1142  2.3751  0.2201  1.8035  0.5469
5127297.0  8.6715  2.9253  1.108  1.1079  2.2159  0.0741  1.7052  0.8705
5127378.0  7.1148  4.17  1.261  1.1079  2.3689  0.3525  3.2019  0.7546
5133532.0  7.6319  4.3835  1.261  1.1133  2.3743  0.0891  0.8605  0.1245
5135182.0  7.0531  3.7923  1.261  1.1079  2.3689  0.1052  0.9236  0.1832
5149333.0  5.8575  5.6266  1.2611  1.1079  2.369  0.0987  6.554  0.9625
5151880.0  7.7715  6.1796  1.2612  1.2392  2.5004  0.0549  0.5133  0.5355
5154037.0  6.9999  3.5441  1.261  1.1079  2.369  0.0912  1.2399  0.6853
5160113.0  6.9579  4.8028  1.261  1.1079  2.3689  0.5215  5.5705  0.8639
5162290.0  6.965  6.5865  1.2612  1.2176  2.4788  0.0824  3.2311  0.8919
5164753.0  8.2711  2.8557  1.108  1.1079  2.2159  0.1023  1.2575  0.62
5189182.0  7.6872  3.2059  1.2611  1.1079  2.369  0.0761  1.8502  0.8646
5196229.0  8.31  3.9655  1.2611  1.1162  2.3773  0.0608  0.4582  0.1988
5223970.0  7.398  4.4448  1.1081  1.1079  2.216  0.1416  1.4974  0.5698
5228581.0  7.0426  6.4947  1.261  1.2302  2.4912  1.8242  5.901  0.7902
5229522.0  20.2554  20.0035  1.8399  1.7565  3.5964  2.9302  4.2728  0.3451
5235830.0  7.872  2.9934  1.261  1.1079  2.369  0.0741  0.586  0.2483
5239367.0  8.3406  4.5194  1.261  1.1599  2.4209  0.0579  0.8904  0.6832
5243640.0  6.0404  5.7092  1.261  1.1079  2.3689  0.6336  6.7426  0.8865
5247347.0  7.1411  4.4814  1.2609  1.1079  2.3688  0.1907  2.5008  0.7403
5248223.0  11.0461  4.1409  1.1532  1.1346  2.2878  0.0492  1.2206  0.8046
5250456.0  7.1108  5.7586  1.2611  1.1461  2.4072  0.0626  0.2615  0.1743
5250548.0  6.3239  5.2823  1.2609  1.1079  2.3688  0.446  4.3542  0.8238
5250772.0  7.3323  2.9855  1.1082  1.1079  2.2161  3.9593  236.42  0.9974
5255046.0  7.2328  4.0665  1.261  1.1079  2.369  0.0734  0.4673  0.1089
5256388.0  8.1486  3.1372  1.108  1.1079  2.2159  0.1075  0.9692  0.3424
5261184.0  18.0951  17.9901  1.6799  1.6386  3.3185  3.1626  3.6905  0.0967
5269099.0  8.5268  8.525  1.1079  1.1079  2.2159  0.2274  1.4257  0.2561
5278295.0  7.2362  5.4661  1.261  1.1625  2.4235  0.1061  2.3221  0.7946
5285871.0  9.8014  5.6119  1.108  1.2042  2.3122  0.0479  0.5908  0.5534
5289261.0  6.3191  5.7865  1.2609  1.1079  2.3688  0.7314  9.7699  0.926
5300876.0  6.1072  5.3618  1.2609  1.1079  2.3689  0.526  5.2696  0.854
5307693.0  7.0665  2.6083  1.2611  1.1079  2.369  0.0874  0.5945  0.5783
5312609.0  7.9008  3.0746  1.2611  1.1079  2.369  0.0867  1.2675  0.6545
5314256.0  7.1165  4.3599  1.261  1.1079  2.3689  0.076  0.8888  0.5814
5329585.0  20.1225  19.9194  1.8297  1.767  3.5967  0.0802  2.2558  0.6113
5333062.0  7.3872  3.2584  1.2611  1.1079  2.369  0.078  0.7478  0.5985
5337595.0  7.107  3.2088  1.261  1.1079  2.3689  0.0909  1.2704  0.691
5338037.0  7.0223  5.7071  1.2611  1.1472  2.4083  0.1295  12.82  0.975
5347465.0  6.8396  5.8377  1.2609  1.17  2.431  0.6136  10.114  0.9315
5361916.0  7.4937  4.865  1.261  1.129  2.3901  0.0642  0.4105  0.2127
5364346.0  7.1305  3.2983  1.261  1.1079  2.3689  0.1689  1.3569  0.3861
5378625.0  7.4051  3.3799  1.2609  1.1079  2.3689  0.3482  3.932  0.8164
5379454.0  7.3072  4.0777  1.261  1.1079  2.3689  0.4795  4.2041  0.8083
5404887.0  6.509  5.8314  1.2609  1.1442  2.405  5.1844  6.9258  0.7642
5411205.0  6.9514  4.8111  1.2609  1.1079  2.3689  0.1199  1.239  0.4484
5416580.0  7.0419  2.4833  1.2609  1.1079  2.3689  0.1065  0.8138  0.0137
5433391.0  7.5869  3.6059  1.261  1.1079  2.3689  0.0794  0.8632  0.4582
5437505.0  6.1088  5.2116  1.2609  1.2608  2.5216  0.1655  1.5943  0.5186
5444638.0  7.4211  7.1716  1.2612  1.3042  2.5654  0.2469  2.944  0.7359
5457188.0  7.0228  4.4015  1.2609  1.1079  2.3689  0.1139  1.0145  0.211
5466487.0  7.4263  3.8269  1.1081  1.1079  2.2161  0.0785  2.1553  0.9046
5476524.0  6.03  5.2332  1.261  1.2608  2.5217  0.1522  1.4117  0.4475
5493975.0  7.1423  4.6498  1.261  1.1079  2.3689  0.0838  0.7729  0.0876
5495485.0  6.8255  5.0151  1.2609  1.1079  2.3689  0.0757  0.6547  0.2633
5510327.0  7.4597  4.4841  1.1081  1.1079  2.216  0.0711  2.2149  0.8994
5511501.0  12.387  12.2034  1.2535  1.2308  2.4843  0.0267  1.9983  0.8667
5533258.0  7.1129  4.6904  1.261  1.1079  2.3689  0.1653  1.8169  0.6177
5534168.0  10.5709  4.8287  1.1177  1.1697  2.2873  0.0462  0.4344  0.4551
5534734.0  9.7864  3.3965  1.1082  1.1079  2.2161  0.0623  0.5314  0.2399
5539244.0  7.8216  3.3219  1.261  1.1079  2.3689  0.5186  11.267  0.9455
5560869.0  6.8774  4.9936  1.261  1.1079  2.3689  0.3517  2.9146  0.7191
5561242.0  7.5182  4.8407  1.2608  1.1446  2.4054  0.5607  5.6117  0.8584
5563494.0  7.9065  6.2657  1.2611  1.2775  2.5386  3.7841  6.2669  0.744
5574631.0  7.0242  3.7624  1.2609  1.1079  2.3689  1.0617  13.954  0.9472
5583613.0  8.2008  3.3463  1.261  1.1079  2.3689  0.0649  0.8063  0.6475
5587472.0  11.8022  7.8621  1.2097  1.1079  2.3176  0.0436  0.723  0.6642
5593317.0  7.6403  7.6375  1.1079  1.1079  2.2159  0.0659  2.8734  0.8878
5594833.0  8.6431  4.0095  1.261  1.1398  2.4007  0.0569  1.0293  0.7628
5618650.0  9.1948  8.7748  1.108  1.1079  2.2159  0.0376  1.4641  0.8571
5629775.0  16.4478  16.3703  1.5544  1.5261  3.0805  7.5201  5.2566  0.4452
5635328.0  6.938  6.6977  1.2611  1.2354  2.4965  0.1268  6.8163  0.9407
5659856.0  7.2482  4.7917  1.2609  1.1183  2.3792  0.0983  1.0361  0.3603
5664645.0  7.0234  3.2614  1.261  1.1079  2.3689  0.119  0.9958  0.2097
5681256.0  7.6887  4.8764  1.2609  1.1586  2.4196  0.0741  28.292  0.9944
5706184.0  6.1517  5.3644  1.261  1.1079  2.369  1.2662  9.4305  0.9066
5710494.0  6.0359  5.3296  1.2611  1.1079  2.369  0.784  2.2527  0.3846
5711811.0  7.1239  4.2591  1.261  1.1079  2.3689  0.1795  1.4807  0.4359
5730484.0  7.1631  4.492  1.261  1.1079  2.3689  0.0683  0.5345  0.6095
5743481.0  20.6916  20.3934  1.8728  1.7763  3.6491  2.1475  5.781  0.6523
5744376.0  7.6257  2.8912  1.261  1.1079  2.3689  0.1933  1.5582  0.4631
5776973.0  7.9033  3.828  1.108  1.1079  2.216  0.1026  1.3898  0.6541
5783489.0  7.3889  2.9061  1.2609  1.1079  2.3688  0.1493  1.2258  0.3235
5791955.0  7.4327  3.0713  1.1081  1.1079  2.2161  0.1005  0.7516  0.1619
5793808.0  6.0815  5.9223  1.2611  1.1079  2.369  0.0758  0.4673  0.5784
5800597.0  7.6404  4.0035  1.2609  1.1079  2.3688  0.1665  1.5559  0.5016
5807309.0  7.0437  4.5734  1.261  1.1079  2.3689  0.085  0.781  0.1647
5810244.0  6.2236  6.0179  1.261  1.1281  2.3891  0.2296  4.2382  0.8613
5810715.0  8.1782  2.857  1.2611  1.1079  2.369  0.0904  1.6929  0.7484
5812036.0  6.3595  5.8856  1.2609  1.2608  2.5217  0.1531  1.6093  0.5285
5812679.0  6.2728  5.6339  1.261  1.1079  2.3689  0.1643  1.272  0.2884
5816771.0  6.1274  5.5919  1.2609  1.1079  2.3688  0.3864  3.5175  0.7768
5819691.0  7.3859  3.9053  1.261  1.1079  2.3689  0.0895  0.8686  0.2664
5830253.0  7.9194  3.7792  1.261  1.1079  2.3689  0.219  1.8707  0.5617
5841802.0  7.8264  3.9777  1.108  1.1079  2.2159  0.5456  9.8204  0.9379
5844064.0  6.2253  6.0214  1.2609  1.1342  2.3952  0.0946  11.914  0.98
5845033.0  7.7848  4.9058  1.108  1.1079  2.2159  0.5947  8.3787  0.9211
5848215.0  7.1014  4.7319  1.2609  1.1079  2.3689  0.2666  3.2712  0.7886
5856302.0  7.2658  2.7015  1.108  1.1079  2.2159  0.1506  1.3463  0.5343
5861289.0  6.2703  5.3238  1.2609  1.2608  2.5217  0.1455  1.4051  0.455
5864168.0  5.8436  5.6724  1.2611  1.1079  2.369  0.0856  1.6258  0.8503
5865021.0  7.8534  3.0719  1.261  1.1079  2.3689  0.2194  2.266  0.6771
5868581.0  7.103  3.7204  1.2609  1.1079  2.3689  0.0737  0.4989  0.7337
5868823.0  7.7179  7.4354  1.2611  1.3474  2.6086  0.925  4.7105  0.764
5870092.0  8.384  2.9645  1.261  1.1079  2.3689  0.0638  0.621  0.5488
5887923.0  7.1774  2.7303  1.2609  1.1079  2.3688  0.1913  1.5073  0.4518
5898728.0  7.0886  2.3736  1.2611  1.1079  2.369  0.0889  0.3996  0.2256
5921376.0  9.9671  8.1462  1.1081  1.1079  2.216  0.0971  1.2974  0.5095
5927937.0  7.3987  4.5063  1.261  1.1079  2.3689  0.8395  7.6596  0.8931
5938875.0  6.3229  5.6352  1.2609  1.1079  2.3689  0.0839  0.7944  0.3282
5946297.0  6.0576  5.662  1.261  1.2608  2.5218  0.6854  2.304  0.3976
5947928.0  7.391  3.9624  1.261  1.1079  2.3689  0.3056  2.3659  0.6423
5972701.0  6.8305  5.0059  1.2609  1.1079  2.3689  0.0689  0.4819  0.7274
5980649.0  7.2879  3.8233  1.1081  1.1079  2.216  0.0864  0.603  0.1364
6010379.0  21.1894  21.102  1.9083  1.8741  3.7824  0.944  8.9778  0.8533
6011710.0  7.2678  4.2507  1.261  1.1079  2.3689  1.9903  27.4  0.9716
6011862.0  9.2502  9.2333  1.108  1.1079  2.2159  0.0364  0.5355  0.3836
6013855.0  6.3471  5.4872  1.2609  1.1079  2.3689  0.6786  6.1531  0.8685
6020817.0  7.1185  3.7961  1.2609  1.1079  2.3689  0.1673  1.3687  0.3904
6023497.0  7.4638  2.8361  1.261  1.1079  2.3689  0.7223  6.6384  0.8784
6027371.0  7.8586  4.6509  1.2611  1.1393  2.4004  0.0899  2.4111  0.8304
6028943.0  7.2493  3.8708  1.261  1.1079  2.3689  0.2693  2.6993  0.7237
6033177.0  6.9274  4.8367  1.261  1.1079  2.3689  1.2704  14.126  0.9447
6041507.0  7.6547  6.15  1.2611  1.2476  2.5087  0.0737  4.0405  0.9234
6045077.0  7.1347  2.6035  1.108  1.2608  2.3688  0.0919  0.4403  0.5138
6046085.0  7.9612  6.9499  1.2611  1.3341  2.5952  8.3832  7.4273  0.7236
6061198.0  6.3973  6.0189  1.2609  1.1478  2.4087  0.0684  5.7302  0.9973
6062956.0  7.9258  4.2355  1.1082  1.1079  2.2161  0.0666  2.8999  0.932
6073857.0  6.3182  5.773  1.2611  1.1079  2.369  0.0922  2.8134  0.8748
6083622.0  20.949  20.5423  1.891  1.765  3.656  0.4507  7.5528  0.8613
6099339.0  6.8868  5.7887  1.261  1.1664  2.4274  1.383  5.6064  0.8016
6104843.0  7.6982  3.1703  1.2609  1.1079  2.3688  0.2137  1.6656  0.4838
6113733.0  7.7503  3.878  1.261  1.1079  2.3689  0.3894  6.7463  0.9054
6117068.0  7.0391  5.0164  1.108  1.1079  2.2159  0.1087  1.1284  0.4555
6122660.0  11.9728  11.9472  1.2224  1.2031  2.4256  0.026  0.6043  0.3827
6124450.0  7.0301  4.0623  1.261  1.1079  2.369  0.1013  1.0654  0.4558
6124720.0  6.187  5.0985  1.261  1.2608  2.5218  0.5227  2.1104  0.3899
6132432.0  7.0119  4.3922  1.2609  1.1079  2.3688  0.0927  0.8422  0.1549
6153414.0  7.2209  2.4936  1.2609  1.1079  2.3688  0.6056  7.7002  0.9065
6156570.0  7.0342  3.1115  1.2611  1.1079  2.369  0.0897  0.807  0.481
6161112.0  6.7053  6.4124  1.2611  1.1879  2.449  0.3469  47.74  0.9923
6163676.0  7.2664  3.4343  1.2611  1.1079  2.369  0.0852  4.0199  0.9398
6165378.0  6.9472  4.938  1.2609  1.1079  2.3689  0.1376  1.2969  0.4157
6181380.0  6.0639  5.491  1.2609  1.1079  2.3689  0.772  6.484  0.8716
6186267.0  7.4478  2.926  1.261  1.1079  2.369  0.1102  0.9362  0.1108
6190979.0  8.606  4.0063  1.2611  1.1317  2.3928  0.0653  2.6038  0.896
6195209.0  6.5331  5.4909  1.261  1.1203  2.3812  0.1052  0.9498  0.1606
6198917.0  7.1827  3.9017  1.261  1.1079  2.3689  0.1077  1.0373  0.3355
6201872.0  7.1607  3.3754  1.261  1.1079  2.3689  0.4291  3.2701  0.7421
6217476.0  7.2563  3.7556  1.261  1.1079  2.3689  0.1792  1.9461  0.6429
6218293.0  16.7264  16.6716  1.5781  1.5532  3.1313  1.4353  3.198  0.3359
6218919.0  7.5632  4.1393  1.1081  1.1079  2.2161  0.2943  6.4411  0.9165
6221016.0  6.3144  5.3052  1.2609  1.2608  2.5217  0.1652  1.6497  0.5399
6228708.0  7.0728  5.169  1.261  1.1212  2.3823  0.0772  0.8574  0.4602
6230786.0  6.2279  5.6372  1.2609  1.1079  2.3688  0.6628  6.6976  0.8833
6234964.0  7.756  4.2329  1.1081  1.1079  2.2161  0.0702  0.4093  0.4575
6239595.0  6.2882  5.3037  1.261  1.1079  2.3689  0.0842  0.8884  0.5728
6249158.0  8.1677  4.597  1.2609  1.1734  2.4343  0.0573  13.655  0.9942
6250532.0  7.0405  4.5071  1.261  1.1079  2.3689  0.1156  1.0185  0.1807
6252149.0  10.5832  8.0762  1.1185  1.436  2.5545  0.0358  3.4993  0.9772
6268475.0  6.0742  5.6941  1.2609  1.2608  2.5217  0.095  1.0212  0.4195
6273446.0  7.9839  3.8916  1.261  1.1079  2.369  0.1476  1.6976  0.5989
6308844.0  7.7191  3.4468  1.261  1.1079  2.3689  0.1068  1.69  0.6958
6309182.0  6.3016  6.1643  1.2611  1.1131  2.3742  0.0797  6.3351  0.9675
6311830.0  6.8441  5.4271  1.261  1.1374  2.3984  6.7369  12.887  0.8867
6313874.0  7.8244  5.8852  1.2611  1.247  2.5081  0.3871  7.6457  0.9141
6314898.0  6.5744  5.0974  1.261  1.1079  2.3689  0.3729  3.0825  0.735
6326457.0  7.0209  5.9951  1.2611  1.1884  2.4495  0.1016  2.1451  0.7761
6336412.0  6.3107  5.8791  1.2609  1.1079  2.3688  1.0861  8.7392  0.9018
6337784.0  6.4676  5.4741  1.261  1.1079  2.369  0.108  1.0741  0.3922
6339604.0  6.9693  4.8581  1.2609  1.1079  2.3688  0.2917  2.2164  0.6138
6349144.0  8.3011  8.0362  1.108  1.1079  2.2159  0.0408  0.4503  0.5613
6391902.0  8.7815  5.0501  1.1081  1.1279  2.236  0.092  1.124  0.4763
6400968.0  6.0525  5.798  1.2609  1.1079  2.3688  0.2766  2.4736  0.685
6406160.0  6.306  5.3518  1.2609  1.1079  2.3689  0.1097  0.9861  0.2836
6411434.0  6.8406  5.2577  1.261  1.1161  2.3771  0.1155  1.8885  0.7245
6414843.0  8.2444  6.0208  1.2612  1.2748  2.536  0.0544  0.8295  0.6155
6422976.0  7.8418  3.5419  1.2611  1.1079  2.369  0.0898  2.7957  0.8732
6431340.0  6.4896  5.9487  1.2611  1.12  2.3811  0.0755  1.9294  0.8627
6432534.0  12.9327  7.2386  1.2888  1.4766  2.7653  0.0314  1.7096  0.9177
6433252.0  6.2353  5.3678  1.261  1.1079  2.369  0.9506  3.2711  0.6411
6435052.0  7.0983  3.0521  1.261  1.1079  2.3689  0.1503  4.2378  0.8938
6440215.0  7.098  3.1559  1.108  1.1079  2.2159  0.1064  0.8231  0.3426
6440418.0  6.1113  5.6513  1.2609  1.1079  2.3689  0.2271  1.5226  0.3686
6447716.0  6.0042  5.3646  1.2611  1.1079  2.369  0.7539  2.0162  0.2165
6447952.0  19.1652  18.9806  1.7593  1.694  3.4532  7.3036  5.9632  0.4908
6470704.0  6.7545  6.6328  1.2611  1.1939  2.4551  0.0636  0.6287  0.5739
6474250.0  7.3595  4.5702  1.261  1.1079  2.369  0.241  3.7005  0.8292
6477296.0  7.1838  3.7459  1.261  1.1079  2.3689  0.1073  0.9649  0.225
6482772.0  7.0039  4.1009  1.2609  1.1079  2.3688  0.6069  3.6187  0.7413
6518031.0  6.2647  5.148  1.2609  1.2608  2.5217  0.1585  1.5378  0.5062
6525779.0  6.9373  5.0956  1.261  1.1157  2.3767  0.1016  0.9386  0.1805
6530025.0  11.8355  10.3515  1.2114  1.6621  2.8735  0.0895  3.45  0.8401
6531208.0  7.0776  3.3664  1.108  1.1079  2.2159  0.11  0.9637  0.3404
6537724.0  7.9729  5.58  1.2608  1.2347  2.4956  10.9148  7.6618  0.7204
6543297.0  7.2437  3.2266  1.261  1.1079  2.3689  0.1677  2.0945  0.6976
6551768.0  6.9505  4.6057  1.261  1.1079  2.3689  0.1396  1.4031  0.4939
6557671.0  6.1532  5.7762  1.2609  1.2608  2.5217  0.2995  2.1042  0.5437
6559181.0  7.8483  3.4168  1.261  1.1079  2.369  0.0813  0.8025  0.3079
6566300.0  7.1735  2.7562  1.261  1.1079  2.369  0.0933  0.7092  0.1686
6571754.0  8.2596  3.3679  1.2609  1.1079  2.3688  0.1434  1.3437  0.4089
6580982.0  6.1736  5.6138  1.261  1.1079  2.3689  0.0874  1.9885  0.828
6584944.0  7.2716  3.4524  1.2609  1.1079  2.3689  0.3996  3.1044  0.7301
6585337.0  7.0742  3.3307  1.261  1.1079  2.3689  0.4269  3.2985  0.7462
6589865.0  7.104  6.1826  1.108  1.1362  2.2442  0.1039  1.1545  0.4585
6590326.0  7.1107  3.8109  1.2611  1.1079  2.369  0.0777  1.0419  0.7551
6604789.0  7.218  5.2574  1.2611  1.1269  2.388  0.0741  1.583  0.792
6612061.0  7.1895  2.4309  1.261  1.1079  2.3689  0.0919  0.7197  0.3083
6621900.0  6.6813  4.9333  1.2609  1.1079  2.3689  0.296  2.5284  0.6826
6631310.0  12.044  10.9809  1.2235  1.7156  2.9391  0.0492  3.7446  0.8952
6644654.0  8.2327  6.9639  1.1081  1.2608  2.3689  0.2399  1.672  0.4225
6670620.0  7.3732  2.5864  1.261  1.1079  2.3689  0.1534  1.2787  0.376
6672919.0  7.6003  5.7319  1.108  1.1241  2.2321  0.1165  1.2951  0.512
6672958.0  5.6885  5.6079  1.2609  1.1079  2.3689  0.1664  1.3766  0.4328
6690196.0  7.2855  4.5413  1.2609  1.1079  2.3689  4.9393  103.72  0.9921
6694056.0  7.4854  3.1729  1.261  1.1079  2.369  0.084  0.7019  0.2068
6696481.0  7.7494  5.7606  1.2611  1.2196  2.4808  0.0645  0.9789  0.5931
6706708.0  6.1345  6.0335  1.261  1.129  2.39  8.8547  6.5601  0.6923
6711960.0  7.1882  5.0098  1.261  1.1165  2.3775  0.0666  0.4026  0.3066
6724973.0  7.2732  4.6623  1.1081  1.1079  2.216  0.0685  0.4358  0.5122
6732357.0  7.1021  3.4092  1.261  1.1079  2.3689  0.0976  0.909  0.3355
6752227.0  8.3553  3.5261  1.2609  1.1079  2.3689  0.0649  1.3795  0.7967
6762303.0  6.1575  5.4059  1.2609  1.1079  2.3688  0.0764  0.477  0.6277
6765245.0  6.3204  5.7975  1.2611  1.1079  2.369  3.5062  8.0679  0.836
6773512.0  7.0452  6.9204  1.261  1.2653  2.5263  1.2465  5.7478  0.807
6774853.0  6.1812  5.597  1.261  1.1079  2.3689  0.8769  8.1041  0.8996
6780187.0  6.0645  5.5451  1.2609  1.1079  2.3689  0.3032  2.0972  0.5752
6782673.0  6.7988  6.2213  1.2611  1.1648  2.426  0.067  1.1943  0.7859
6793852.0  7.2692  5.0376  1.1081  1.1079  2.216  0.0659  0.3741  0.4159
6795715.0  8.8457  8.8416  1.1079  1.1079  2.2159  0.67  39.217  0.9888
6809225.0  7.6556  3.5239  1.2609  1.1079  2.3689  0.7079  5.6412  0.8497
6820385.0  6.8576  6.2905  1.2609  1.2027  2.4636  0.0629  5.1978  0.9756
6821483.0  9.1692  3.102  1.108  1.1079  2.2159  0.0641  0.3645  0.4289
6823137.0  7.612  3.1553  1.2611  1.1079  2.369  0.0769  1.6843  0.8507
6824379.0  7.4203  3.8193  1.261  1.1079  2.369  0.0759  0.7338  0.4674
6828960.0  9.6504  9.65  1.1079  1.1079  2.2159  0.2927  2.3857  0.6591
6830316.0  6.8469  5.641  1.2611  1.1278  2.3889  0.0703  0.9121  0.6699
6831483.0  7.5578  3.1456  1.261  1.1079  2.3689  1.8035  22.764  0.9657
6847650.0  6.2009  5.9932  1.2611  1.1079  2.369  0.0756  0.6454  0.529
6853897.0  6.1507  5.4485  1.261  1.1079  2.369  1.1172  3.1454  0.5922
6860131.0  7.6888  2.5503  1.261  1.1079  2.3689  0.1218  1.037  0.2054
6861236.0  6.0726  5.2387  1.261  1.1079  2.3689  2.2933  6.0168  0.791
6863601.0  7.3301  6.0175  1.2611  1.1966  2.4577  0.0725  2.9572  0.8974
6864139.0  7.3755  7.3049  1.108  1.2608  2.3688  0.0481  0.409  0.5285
6875363.0  6.4658  5.3147  1.261  1.1079  2.3689  0.0928  0.8265  0.1502
6876164.0  6.1735  5.8906  1.261  1.1218  2.3828  0.1666  1.6824  0.573
6881754.0  9.8448  9.3457  1.108  1.1079  2.2159  0.032  0.5322  0.6273
6897713.0  6.1493  5.6098  1.261  1.1079  2.3689  0.0922  0.8536  0.2741
6909760.0  7.4634  5.6597  1.261  1.1813  2.4423  0.0659  1.7008  0.8218
6930876.0  8.5646  3.5626  1.2609  1.1079  2.3689  0.0698  3.1595  0.9114
6931217.0  7.3903  3.7748  1.2609  1.1079  2.3688  0.1687  1.387  0.3895
6933026.0  8.6101  7.3502  1.108  1.2927  2.4007  2.8223  5.511  0.7406
6938141.0  6.1309  6.1098  1.261  1.1347  2.3957  3.9335  5.9764  0.7396
6953556.0  16.4559  14.8296  1.5578  1.822  3.3798  1.5656  9.7701  0.8619
6960305.0  8.3146  3.7291  1.1081  1.1079  2.216  0.0689  0.802  0.7349
6960363.0  7.7305  3.7038  1.108  1.1079  2.216  0.0943  1.2514  0.6339
6964162.0  7.7348  6.5135  1.108  1.1665  2.2746  0.0547  0.4852  0.5363
6972648.0  6.039  5.4486  1.261  1.1079  2.369  0.6905  5.0704  0.8291
6975562.0  8.0842  3.8996  1.1081  1.1079  2.216  0.0729  1.7781  0.874
6989102.0  6.1929  6.1189  1.2608  1.1292  2.39  0.0733  0.4235  0.2541
7020862.0  7.2405  5.1093  1.2611  1.1191  2.3801  0.0747  1.4763  0.772
7025916.0  8.087  3.433  1.1081  1.1079  2.216  0.0724  0.3291  0.3259
7031105.0  7.3403  5.1228  1.2611  1.1169  2.378  0.0641  0.4411  0.448
7032050.0  7.8991  7.5747  1.261  1.3755  2.6364  0.0743  3.2836  0.8798
7037816.0  6.0052  5.2065  1.2609  1.2608  2.5217  0.1643  1.4038  0.4017
7039877.0  18.4869  18.3996  1.7087  1.6737  3.3824  0.0127  4.3285  0.9868
7061197.0  6.0298  5.9809  1.261  1.1174  2.3784  0.0779  0.5983  0.3619
7063689.0  9.3347  9.3305  1.1079  1.1079  2.2159  0.0723  4.7818  0.9287
7078664.0  6.9003  4.8743  1.2609  1.1079  2.3688  0.262  2.1414  0.6149
7083934.0  7.0057  3.308  1.2611  1.1079  2.369  0.0819  0.474  0.4005
7084578.0  7.2244  4.5027  1.261  1.1079  2.3689  0.2721  2.2552  0.6361
7100366.0  7.3456  3.4262  1.261  1.1079  2.369  0.0847  0.7438  0.2952
7100641.0  11.3541  11.351  1.1661  1.1542  2.3203  4.4589  5.4241  0.696
7107799.0  7.358  7.0911  1.108  1.2608  2.3688  0.0862  1.1804  0.4874
7114969.0  7.1862  2.4735  1.2611  1.1079  2.369  0.0918  0.8945  0.5899
7117024.0  6.1896  5.7081  1.2609  1.2608  2.5217  0.1312  1.31  0.4209
7117855.0  7.0607  4.3469  1.261  1.1079  2.369  0.0955  1.6029  0.7275
7123924.0  7.4733  2.7056  1.2609  1.1079  2.3688  0.1084  1.0154  0.3468
7130713.0  7.3425  3.6487  1.261  1.1079  2.3689  0.0812  0.7323  0.2696
7132732.0  7.0204  4.082  1.261  1.1079  2.3689  0.0751  0.6085  0.4581
7133190.0  6.2615  5.2063  1.261  1.2608  2.5218  0.1421  1.3558  0.4405
7140683.0  6.0302  5.6247  1.2609  1.1079  2.3688  0.5173  5.1488  0.8501
7145469.0  7.0322  4.6793  1.2609  1.1079  2.3689  0.0774  0.8959  0.5417
7154449.0  7.1931  5.3798  1.2609  1.1603  2.4212  0.2034  9.8955  0.9554
7165418.0  9.9963  9.9887  1.108  1.1079  2.2159  0.0281  0.2748  0.5419
7169377.0  7.6274  3.9376  1.261  1.1079  2.3689  0.1901  2.3866  0.7206
7171519.0  7.8885  6.0101  1.261  1.259  2.5201  12.6347  6.0157  0.5719
7171988.0  7.2011  4.2705  1.261  1.1079  2.369  0.5228  8.2635  0.9187
7179160.0  5.526  4.9559  1.3765  1.2608  2.6373  4.9093  2713.7  0.9998
7184268.0  7.2127  3.1736  1.261  1.1079  2.3689  0.232  1.8108  0.5382
7194131.0  10.0527  8.6358  1.108  1.1079  2.216  0.2144  3.7873  0.8438
7195420.0  7.1066  3.6069  1.261  1.1079  2.3689  0.5324  4.4879  0.8178
7198442.0  6.9363  4.3651  1.261  1.1079  2.3689  0.0994  2.3635  0.8315
7201466.0  7.0078  3.1321  1.261  1.1079  2.3689  0.0899  0.7223  0.2679
7212120.0  6.6015  5.7908  1.261  1.14  2.4011  0.1323  2.0125  0.7156
7218355.0  7.0012  4.6926  1.2609  1.1079  2.3688  0.4059  4.0902  0.8139
7231886.0  7.0487  6.0703  1.108  1.1232  2.2312  0.1087  1.1318  0.4339
7234593.0  6.2009  5.7906  1.261  1.1164  2.3774  0.2906  2.4748  0.6748
7237846.0  7.4799  3.75  1.261  1.1079  2.3689  0.0913  0.8952  0.2834
7242509.0  7.3398  3.3486  1.2609  1.1079  2.3689  0.1621  1.3744  0.4116
7248744.0  13.8697  9.1457  1.3646  1.6539  3.0184  0.1433  2.1552  0.5838
7249659.0  7.0453  3.6284  1.261  1.1079  2.369  0.1418  5.4591  0.926
7257117.0  7.4064  4.1206  1.108  1.1079  2.216  0.2767  3.2726  0.7991
7289173.0  6.8089  6.5042  1.2611  1.2135  2.4745  0.3335  17.458  0.9724
7306625.0  8.8449  8.8406  1.1079  1.1079  2.2159  0.0362  0.789  0.7088
7308584.0  6.209  5.6106  1.261  1.1079  2.3689  0.1794  1.8022  0.6001
7335391.0  8.4155  8.4134  1.1079  1.1079  2.2159  0.3904  3.1433  0.7456
7336973.0  6.5364  5.4006  1.2611  1.1079  2.369  0.0879  1.4914  0.7375
7338401.0  6.2434  5.1315  1.2609  1.2608  2.5217  0.1637  1.3948  0.3936
7339623.0  7.2228  4.0387  1.108  1.1079  2.216  0.0973  0.8674  0.2851
7345235.0  6.4413  5.9197  1.261  1.1392  2.4002  1.3121  43.349  0.9862
7347489.0  8.0625  2.9263  1.2611  1.1079  2.369  0.0682  0.3977  0.4254
7353780.0  7.0153  5.3296  1.1081  1.1079  2.216  0.0818  0.681  0.1691
7354328.0  7.4468  3.9049  1.261  1.1079  2.3689  0.0997  2.2983  0.8167
7375786.0  7.6543  2.6496  1.261  1.1079  2.3689  0.1061  0.9227  0.1341
7378910.0  15.2719  15.2302  1.4695  1.4493  2.9188  0.0162  2.5115  0.9675
7385683.0  19.1267  18.8853  1.7566  1.6742  3.4308  0.2084  2.5066  0.5293
7395141.0  6.2484  5.7615  1.2609  1.1079  2.3688  0.0968  0.8637  0.0286
7400784.0  6.1572  5.7687  1.261  1.1111  2.372  0.1791  1.5075  0.4637
7419262.0  16.5592  16.4999  1.5656  1.5391  3.1047  6.0604  7.7856  0.7219
7424119.0  7.0704  4.1023  1.2611  1.1079  2.369  0.0746  0.6367  0.6082
7426882.0  7.0428  6.164  1.1081  1.1305  2.2386  0.9195  19.801  0.9697
7430504.0  7.1966  6.2313  1.2611  1.2123  2.4734  0.1086  5.4929  0.9296
7434486.0  7.9117  3.4917  1.261  1.1079  2.3689  0.2868  2.2865  0.6326
7447211.0  6.0327  5.3416  1.261  1.2608  2.5218  0.4794  2.3695  0.527
7464113.0  6.1994  5.781  1.2609  1.2608  2.5217  0.155  1.5874  0.5181
7465766.0  7.4613  3.2066  1.2609  1.1079  2.3689  0.2117  1.6449  0.4807
7470520.0  7.7727  5.5954  1.2609  1.2188  2.4797  1.9003  7.6635  0.8513
7473090.0  7.086  2.8995  1.261  1.1079  2.3689  2.3699  28.128  0.9708
7477608.0  7.0148  6.1624  1.108  1.1288  2.2368  0.1146  1.2749  0.5098
7500038.0  7.0219  3.1611  1.261  1.1079  2.3689  0.0934  0.9288  0.4845
7501735.0  6.6355  5.2937  1.2611  1.1079  2.369  0.2191  18.71  0.9811
7502715.0  7.154  5.6865  1.261  1.1809  2.4419  5.7924  10.393  0.8553
7515276.0  7.1766  2.5429  1.2611  1.1079  2.3691  0.0864  1.0764  0.8139
7528193.0  6.6403  5.4411  1.261  1.1225  2.3834  6.8997  6.1816  0.6957
7537489.0  7.3574  5.7131  1.2611  1.1797  2.4408  0.1831  26.006  0.9882
7554472.0  9.3514  6.1499  1.108  1.2329  2.3409  0.0478  0.5475  0.5314
7570281.0  6.7077  6.2714  1.2609  1.1908  2.4517  13.7919  6.725  0.6385
7571426.0  14.5209  10.3025  1.4133  1.7712  3.1845  0.0433  3.7276  0.8905
7582165.0  6.253  5.7477  1.2611  1.1079  2.369  1.4046  5.1705  0.7833
7598545.0  8.0639  5.7986  1.2612  1.238  2.4992  0.0551  0.7061  0.6132
7606393.0  6.5379  5.4338  1.2609  1.1156  2.3765  0.0966  0.9746  0.3591
7607183.0  6.1449  5.4383  1.2611  1.1079  2.369  0.1355  1.2828  0.4471
7614403.0  7.0569  3.5395  1.261  1.1079  2.3689  0.193  1.7371  0.5599
7621603.0  7.8634  4.0377  1.261  1.1107  2.3717  0.2589  2.2124  0.6305
7630048.0  7.6911  3.4879  1.261  1.1079  2.3689  0.4308  4.1639  0.8136
7642084.0  6.0443  5.9013  1.261  1.1101  2.371  0.2445  2.0616  0.611
7648179.0  10.5484  10.5312  1.1158  1.1079  2.2238  0.0258  0.3848  0.9976
7700595.0  7.0981  4.0827  1.2609  1.1079  2.3688  0.2139  1.8371  0.5649
7705738.0  7.1389  4.4711  1.2609  1.1079  2.3689  0.2452  2.2982  0.6652
7706606.0  7.1625  6.8512  1.2611  1.2652  2.5263  3.294  35.351  0.9735
7713985.0  7.1028  3.9611  1.261  1.1079  2.3689  0.0912  0.8767  0.3246
7714262.0  8.0889  3.4217  1.2611  1.1079  2.369  0.0693  0.8842  0.628
7715172.0  7.0965  2.3782  1.2611  1.1079  2.369  0.1759  1.6485  0.5734
7723176.0  7.268  3.8097  1.2611  1.1079  2.369  0.0727  0.3998  0.5427
7731762.0  9.2662  4.2272  1.108  1.1079  2.216  0.0571  0.5998  0.6285
7738678.0  6.0726  5.9173  1.261  1.1168  2.3777  0.5604  4.901  0.8341
7758293.0  13.0621  9.5652  1.3041  1.659  2.9631  2.2863  8.2687  0.8287
7777978.0  8.4133  4.716  1.2611  1.1791  2.4402  0.1003  19.622  0.9869
7792587.0  7.4658  4.335  1.2611  1.1079  2.369  0.0728  0.8342  0.551
7802817.0  6.215  5.4415  1.2609  1.1079  2.3689  0.135  1.1949  0.3611
7812596.0  7.0805  3.898  1.2609  1.1079  2.3688  0.5186  3.1247  0.7011
7813635.0  7.8218  5.7006  1.2612  1.2128  2.474  0.0613  1.3268  0.7746
7819515.0  7.3239  4.5492  1.2609  1.1079  2.3688  0.1299  1.4598  0.5418
7823640.0  6.4762  5.8143  1.261  1.129  2.39  0.1206  2.0461  0.7458
7824724.0  6.96  6.6713  1.261  1.2389  2.4998  4.9274  6.2237  0.7198
7832025.0  7.6275  6.0877  1.2612  1.2174  2.4786  0.0587  1.6108  0.8598
7844223.0  10.9652  4.5293  1.146  1.1661  2.312  0.0466  0.9209  0.7559
7852552.0  7.5634  3.2359  1.261  1.1079  2.3689  0.5325  3.9943  0.7858
7861255.0  6.5446  6.3621  1.2609  1.1835  2.4444  0.4487  6.6896  0.8954
7862075.0  7.1251  3.2283  1.2609  1.1079  2.3689  0.1314  1.2758  0.4638
7862754.0  7.6073  2.8161  1.2609  1.1079  2.3689  0.1353  1.2793  0.4308
7865877.0  6.2696  6.0716  1.261  1.1353  2.3964  0.0733  0.4819  0.2572
7872520.0  7.3763  3.2129  1.2609  1.1079  2.3688  0.0827  0.7815  0.4143
7888415.0  7.1389  4.3589  1.2609  1.1079  2.3688  0.248  1.8492  0.5275
7891393.0  18.3172  18.3013  1.6892  1.6839  3.3731  12.2281  7.535  0.5813
7892481.0  6.3577  6.2295  1.2611  1.1313  2.3924  0.1058  12.229  0.9778
7906664.0  7.6033  4.6071  1.1081  1.1079  2.216  0.0706  0.4938  0.3889
7907531.0  8.3294  8.1812  1.108  1.1079  2.2159  0.0407  0.7857  0.7214
7911895.0  6.2148  5.6385  1.261  1.1079  2.3689  0.0722  0.6499  0.8939
7914346.0  6.5971  5.3996  1.2609  1.1164  2.3774  0.2291  2.8146  0.758
7930359.0  8.6311  8.5428  1.108  1.1079  2.2159  0.0371  0.6395  0.7021
7953030.0  7.0068  3.5745  1.2609  1.1079  2.3689  0.0921  0.7948  0.2328
7954203.0  7.1491  4.8139  1.261  1.1145  2.3755  0.2207  1.8982  0.5719
7972824.0  6.1914  5.7919  1.2609  1.1079  2.3689  0.1149  1.0212  0.2165
7984839.0  6.8066  5.0157  1.2609  1.1079  2.3689  0.0797  0.8015  0.4025
8013340.0  7.3425  4.1499  1.1081  1.1079  2.216  0.0919  0.7782  0.1421
8028019.0  8.4879  4.5938  1.261  1.1802  2.4412  0.0569  0.8861  0.6592
8039712.0  7.2107  3.5903  1.261  1.1079  2.3689  0.2242  1.7068  0.496
8055481.0  7.1718  6.7377  1.1082  1.156  2.2642  0.1883  40.171  0.9936
8064501.0  7.5582  4.1352  1.1081  1.1079  2.216  0.0743  0.7996  0.7197
8068493.0  6.6713  5.4021  1.2609  1.1232  2.3841  0.3637  20.5  0.9777
8093151.0  7.4132  2.9672  1.2609  1.1079  2.3689  0.0792  0.6289  0.3467
8108837.0  7.5641  3.5061  1.261  1.1079  2.3689  0.2129  1.8252  0.5585
8113318.0  8.464  4.0259  1.261  1.1294  2.3903  0.057  0.4755  0.407
8121447.0  7.5493  4.2565  1.1081  1.1079  2.2161  0.101  1.009  0.4333
8133332.0  6.7333  4.9375  1.2609  1.1079  2.3688  0.1035  1.0519  0.3901
8137180.0  6.2081  5.8166  1.261  1.2608  2.5217  0.2078  1.5781  0.3905
8143666.0  7.3838  4.7886  1.2611  1.1113  2.3723  0.0836  2.2486  0.8413
8145082.0  8.2368  8.223  1.108  1.1079  2.216  0.2332  1.9844  0.5974
8145139.0  7.0163  4.1452  1.261  1.1079  2.3689  0.3185  2.553  0.6763
8149670.0  8.0887  3.5352  1.1081  1.1079  2.2161  0.323  3.9078  0.8321
8175372.0  7.2089  6.906  1.2611  1.2734  2.5345  4.3601  5.065  0.633
8177594.0  7.8521  5.3617  1.2611  1.1846  2.4457  0.0664  2.5836  0.8912
8182051.0  8.2011  3.4776  1.1081  1.1079  2.2161  3.8241  140.38  0.9953
8182366.0  9.6511  9.6494  1.1079  1.1079  2.2159  0.0352  1.3073  0.7961
8184647.0  6.9193  4.7602  1.261  1.1079  2.369  0.1113  1.7507  0.7096
8190453.0  7.4056  3.5515  1.2611  1.1079  2.369  0.0726  0.3881  0.4443
8196234.0  6.8572  4.7507  1.261  1.1079  2.369  0.0735  0.4749  0.2691
8200564.0  7.0338  7.0326  1.2608  1.2608  2.5216  0.0547  0.5839  0.2358
8206240.0  6.9332  4.9279  1.2611  1.1079  2.369  0.0719  0.6073  0.5002
8230408.0  7.8432  3.864  1.2609  1.1079  2.3688  0.0714  0.6856  0.2566
8240765.0  7.0894  3.3388  1.1081  1.1079  2.216  0.1412  1.3761  0.5417
8246559.0  7.0179  5.5505  1.1081  1.1079  2.216  0.0647  0.3807  0.4214
8266884.0  7.2386  3.7369  1.261  1.1079  2.369  0.2114  2.1765  0.6691
8278337.0  8.2361  6.5799  1.261  1.3266  2.5876  1.5392  4.1496  0.6604
8284889.0  7.2664  3.2247  1.261  1.1079  2.369  0.0909  0.8954  0.4505
8288912.0  7.3752  4.1609  1.2609  1.1079  2.3689  0.2716  2.2997  0.6471
8296281.0  7.178  3.7884  1.261  1.1079  2.3689  1.1822  20.249  0.966
8297742.0  6.2094  5.7694  1.2611  1.1079  2.369  0.0749  0.3857  0.3566
8303097.0  6.7983  5.3233  1.261  1.1212  2.3822  0.1061  1.0968  0.3979
8309385.0  17.8078  17.6794  1.6583  1.6093  3.2676  0.8436  6.2304  0.801
8329725.0  8.4004  4.9384  1.108  1.1079  2.2159  0.083  1.0915  0.5431
8330324.0  6.1634  5.335  1.2609  1.1079  2.3688  0.0817  0.6534  0.4244
8332376.0  7.1903  2.7522  1.2609  1.1079  2.3688  0.5635  4.6176  0.8214
8339523.0  11.8156  9.3139  1.2108  1.1079  2.3188  0.1236  1.2822  0.3301
8349124.0  7.5259  3.3812  1.2609  1.1079  2.3688  0.1906  1.916  0.6187
8359237.0  6.1531  5.7957  1.2609  1.1115  2.3725  0.5539  4.8079  0.8309
8359456.0  6.5252  6.2563  1.2611  1.1638  2.4248  0.0703  0.6118  0.3795
8393139.0  7.3524  3.7549  1.261  1.1079  2.3689  0.0772  0.6774  0.294
8420942.0  6.1982  5.226  1.261  1.2608  2.5218  0.8538  2.6475  0.4807
8424064.0  8.5172  3.8086  1.261  1.1134  2.3744  0.0578  0.5644  0.5349
8429131.0  7.605  4.2005  1.261  1.1079  2.3689  0.1227  1.1151  0.2575
8434353.0  6.7099  5.6958  1.261  1.1428  2.4039  0.0729  0.5994  0.1909
8446569.0  6.086  5.2642  1.2609  1.2608  2.5217  0.1612  1.5133  0.4834
8469642.0  7.1748  3.7733  1.261  1.1079  2.3689  0.2398  1.8786  0.5524
8471500.0  6.1723  5.6876  1.2611  1.1079  2.369  4.7571  4.6566  0.6017
8473912.0  7.6623  3.9095  1.261  1.1079  2.3689  2.4442  29.028  0.9715
8478190.0  6.0946  5.6298  1.2609  1.1079  2.3689  0.1831  1.568  0.4911
8480956.0  6.0825  5.154  1.261  1.2608  2.5218  0.1396  1.3003  0.4157
8481753.0  9.1562  9.1525  1.1079  1.1079  2.2159  0.047  1.5168  0.7677
8487892.0  6.9739  4.588  1.261  1.1079  2.3689  0.0706  0.455  0.3748
8505984.0  6.8361  5.9648  1.2611  1.1521  2.4132  0.0656  0.4354  0.326
8517076.0  6.4365  5.6226  1.261  1.1107  2.3717  0.3773  8.2671  0.9287
8537313.0  8.781  8.5007  1.108  1.1079  2.2159  0.0367  0.2652  0.1926
8540481.0  7.1819  6.9765  1.261  1.2778  2.5388  9.7683  6.3486  0.6412
8555590.0  6.152  5.7382  1.261  1.1079  2.3689  0.5523  2.0649  0.3958
8572525.0  7.6984  2.5344  1.261  1.1079  2.3689  0.1654  2.6561  0.784
8575047.0  6.7551  5.9726  1.2609  1.1708  2.4318  13.2374  8.5685  0.7506
8575950.0  7.5015  3.305  1.108  1.1079  2.2159  0.0904  0.6356  0.09
8614528.0  7.2851  2.9395  1.108  1.1079  2.2159  0.0959  5.4686  0.9606
8619671.0  8.1946  8.1817  1.108  1.1079  2.2159  0.0444  1.2541  0.8246
8645805.0  7.7196  3.9229  1.1081  1.1079  2.2161  0.1039  1.0369  0.4413
8648597.0  7.6186  3.6409  1.2611  1.1079  2.369  0.0699  0.423  0.2737
8656873.0  7.6063  7.6046  1.1079  1.1079  2.2159  0.1223  3.073  0.8431
8663198.0  6.8618  5.4023  1.2611  1.1079  2.369  0.079  2.4877  0.8826
8670557.0  7.1183  2.6433  1.2611  1.1079  2.3691  0.0847  0.2842  0.2988
8674701.0  7.5289  3.9516  1.261  1.1079  2.3689  0.263  2.1243  0.6075
8675998.0  6.3283  5.6108  1.2609  1.1079  2.3688  0.0757  0.7341  0.526
8682035.0  6.855  6.7792  1.2611  1.236  2.4971  2.1821  7.0517  0.8244
8682780.0  6.1698  5.5622  1.2609  1.1079  2.3689  0.1228  1.3508  0.5399
8694564.0  6.9016  4.9518  1.2609  1.1079  2.3689  0.16  1.4196  0.4395
8698270.0  8.4573  4.6152  1.261  1.1767  2.4377  0.056  0.7149  0.5851
8700166.0  7.1589  4.7981  1.261  1.1103  2.3713  0.2523  3.2277  0.7894
8702174.0  7.3721  6.8066  1.261  1.2811  2.5421  14.7553  6.5102  0.5932
8702189.0  7.0674  2.7001  1.2611  1.1079  2.369  0.1318  1.7955  0.7051
8715991.0  7.71  2.6128  1.1082  1.1079  2.2161  0.1354  1.6336  0.6772
8718817.0  7.3838  3.9338  1.108  1.1079  2.216  0.0792  0.6008  0.1566
8721134.0  7.0932  3.9019  1.2609  1.1079  2.3689  0.078  0.6591  0.3678
8727693.0  6.1434  5.5121  1.2609  1.1079  2.3688  0.0759  0.7346  0.6822
8730645.0  6.56  6.5073  1.2609  1.1981  2.459  11.4487  8.1879  0.7449
8737633.0  8.4669  3.7377  1.108  1.1079  2.216  0.0896  17.662  0.9876
8744443.0  10.9259  6.5677  1.1444  1.3332  2.4776  0.9838  3.4002  0.6332
8744725.0  7.5373  3.4169  1.261  1.1079  2.369  0.1176  1.0611  0.2565
8750591.0  6.1938  5.3615  1.261  1.1079  2.369  0.9931  2.7763  0.5261
8755564.0  7.5237  2.7337  1.2611  1.1079  2.369  0.0779  0.4179  0.218
8773860.0  6.171  5.4528  1.2609  1.1079  2.3689  0.0872  0.8054  0.3709
8787648.0  6.9758  5.8691  1.2611  1.1441  2.4052  0.0647  0.6613  0.6507
8796864.0  7.1974  7.0577  1.1081  1.1079  2.2161  0.4896  2.0211  0.4512
8800912.0  6.4987  5.8111  1.2611  1.1079  2.369  0.0703  0.3818  0.3781
8801303.0  7.6186  2.5259  1.2608  1.1079  2.3688  0.3069  2.4256  0.6586
8809186.0  9.8048  9.7989  1.1079  1.1079  2.2159  0.0331  0.9526  0.7106
8821121.0  7.2047  7.1594  1.2611  1.286  2.5472  2.8124  3.6502  0.4769
8829763.0  7.2077  3.2233  1.261  1.1079  2.3689  1.0742  12.115  0.9363
8831906.0  7.6494  5.2617  1.1081  1.1079  2.216  0.1669  2.0364  0.6921
8846780.0  7.0769  3.0266  1.2609  1.1079  2.3689  0.2986  2.3767  0.6556
8859868.0  19.3408  19.0654  1.7724  1.6793  3.4517  1.6333  4.2319  0.5223
8860733.0  8.4647  4.35  1.261  1.1526  2.4136  0.0578  0.8961  0.6828
8888544.0  19.3218  19.2297  1.766  1.7366  3.5027  0.1089  8.1882  0.9269
8894236.0  8.7189  4.439  1.1081  1.1079  2.216  0.0906  0.9938  0.3938
8898687.0  6.5167  6.3279  1.2609  1.1825  2.4434  0.4587  85.55  0.9961
8900967.0  6.1679  5.675  1.2609  1.1079  2.3688  0.1214  1.2729  0.4838
8914447.0  8.0621  3.1997  1.2609  1.1079  2.3689  0.0773  0.7372  0.1604
8928019.0  7.5954  6.0979  1.108  1.1267  2.2347  0.0565  0.4551  0.5434
8931885.0  7.1394  3.1298  1.2611  1.1079  2.369  0.0909  0.9936  0.5818
8936002.0  7.436  3.3078  1.2609  1.1079  2.3689  0.0883  0.8016  0.2198
8946316.0  7.4753  3.5535  1.1081  1.1079  2.216  0.0802  0.6411  0.6586
8973057.0  8.4915  4.5256  1.2609  1.1708  2.4318  0.0555  0.6026  0.5065
8981516.0  6.5197  5.2132  1.2609  1.1079  2.3689  0.5095  4.2039  0.8041
8982067.0  7.0337  6.78  1.2611  1.2422  2.5034  0.0748  2.28  0.8428
8993453.0  7.7772  3.7673  1.261  1.1079  2.369  0.069  0.5022  0.076
9021935.0  7.7887  6.2369  1.2609  1.2655  2.5264  0.2826  3.1781  0.7523
9029791.0  8.4758  4.4652  1.2609  1.1649  2.4258  0.0552  0.502  0.4228
9046850.0  11.1138  6.5348  1.1582  1.3454  2.5035  1.0141  5.4816  0.8096
9082775.0  7.3279  4.2832  1.2611  1.1079  2.369  0.0763  0.8933  0.5672
9083031.0  12.2732  9.6769  1.245  1.6305  2.8756  0.0309  5.6156  0.9686
9083880.0  6.2742  5.1701  1.2611  1.2608  2.5219  0.1294  1.2053  0.3693
9095049.0  7.4742  4.2705  1.2611  1.1079  2.369  0.0907  2.5197  0.8532
9105162.0  8.8137  8.5353  1.108  1.1079  2.2159  0.0394  2.1603  0.9136
9114724.0  7.0479  2.9608  1.261  1.1079  2.3689  0.1127  1.1724  0.5085
9115597.0  7.18  3.0697  1.261  1.1079  2.3689  0.2321  1.8069  0.5382
9117506.0  6.4744  5.4285  1.2609  1.1079  2.3689  0.1772  1.4779  0.4436
9134910.0  7.1708  4.1842  1.261  1.1079  2.3689  1.3874  14.33  0.9439
9141728.0  5.9726  5.8415  1.261  1.1079  2.3689  0.6657  5.8624  0.8611
9149257.0  7.1721  5.3997  1.2609  1.1592  2.4201  2.8564  7.9604  0.841
9153399.0  7.6081  3.4397  1.261  1.1079  2.3689  0.0708  0.5879  0.4644
9154033.0  6.3265  5.3384  1.2609  1.1079  2.3689  0.2129  1.9445  0.6085
9160489.0  6.0917  5.4892  1.261  1.1079  2.369  1.3084  2.8256  0.4775
9162908.0  7.1023  2.5604  1.261  1.1079  2.3689  0.1041  0.9351  0.3864
9163324.0  8.0444  8.0413  1.1079  1.1079  2.2159  0.0411  0.4814  0.5238
9165555.0  7.3025  2.991  1.261  1.1079  2.3689  0.1929  1.7375  0.5609
9169919.0  6.9863  6.0984  1.2611  1.1759  2.437  0.0661  1.0523  0.7276
9175731.0  7.2415  4.4414  1.2609  1.1079  2.3688  0.7454  6.5406  0.874
9178922.0  8.2137  3.4612  1.2609  1.1079  2.3688  0.1069  1.0524  0.2661
9180218.0  6.4878  6.0062  1.261  1.1466  2.4077  0.0692  0.4118  0.5022
9181221.0  8.3565  4.4457  1.261  1.1759  2.4368  6.8646  6.0331  0.6772
9194891.0  7.8169  7.4993  1.2609  1.3667  2.6276  5.8575  48.918  0.9774
9202337.0  8.261  4.0049  1.108  1.1079  2.216  0.0757  3.729  0.9384
9203933.0  20.9837  20.8386  1.8936  1.8425  3.7361  0.2255  4.7438  0.7916
9204302.0  7.5619  2.8979  1.108  1.1079  2.2159  0.7653  9.0356  0.9221
9215089.0  6.5652  6.15  1.2611  1.1538  2.4148  0.0738  0.7616  0.4469
9227860.0  6.0008  5.756  1.261  1.1079  2.3689  0.0817  0.7856  0.5399
9229418.0  7.5891  5.4831  1.261  1.1968  2.4577  0.0602  5.1188  0.97
9231070.0  7.0037  4.7232  1.2609  1.1079  2.3688  0.1175  1.0431  0.2072
9269655.0  6.4142  5.553  1.2609  1.115  2.3759  0.0889  0.789  0.1163
9271992.0  7.0729  2.8872  1.2609  1.1079  2.3689  0.0965  0.774  0.1824
9279333.0  8.3081  3.4622  1.2609  1.1079  2.3689  0.0702  0.7218  0.262
9290601.0  8.6738  3.9975  1.261  1.1454  2.4064  0.0543  0.2905  0.0905
9297366.0  7.429  3.3076  1.261  1.1079  2.369  0.0779  0.5573  0.1768
9302964.0  7.9204  4.3847  1.108  1.1079  2.2159  0.0706  0.5578  0.2969
9305405.0  7.5668  3.7572  1.2609  1.1079  2.3689  0.5351  4.804  0.8325
9306716.0  11.4765  8.7358  1.1853  1.5261  2.7114  9.9248  7.888  0.7184
9332850.0  7.6353  3.096  1.261  1.1079  2.3689  0.0862  0.7882  0.207
9349496.0  7.0555  4.2291  1.261  1.1079  2.369  0.1114  4.2092  0.9121
9352120.0  7.0425  3.9206  1.261  1.1079  2.369  0.1002  2.3732  0.8377
9366205.0  7.9584  3.886  1.261  1.1079  2.3689  0.1889  1.7621  0.5557
9368088.0  7.856  4.8456  1.108  1.1349  2.2429  0.0589  0.5258  0.5888
9373033.0  6.8076  5.6696  1.2611  1.13  2.3911  0.0818  1.8945  0.8131
9388945.0  6.8425  6.6446  1.2611  1.2175  2.4786  0.1221  6.1266  0.9344
9389172.0  8.5523  3.9825  1.1081  1.1079  2.216  0.1187  1.299  0.5188
9390290.0  7.3028  3.5391  1.261  1.1079  2.369  0.2017  2.5542  0.7443
9395025.0  6.2311  5.7834  1.2609  1.1079  2.3688  0.134  1.2817  0.425
9398816.0  7.2126  4.5277  1.261  1.1079  2.369  0.0872  1.4773  0.7177
9419104.0  15.5649  14.882  1.4912  1.4402  2.9313  1.4537  3.5373  0.4999
9424924.0  7.2525  4.6668  1.261  1.1079  2.3689  3.161  46.595  0.9825
9439124.0  7.1985  2.6751  1.261  1.1079  2.369  0.0829  0.4313  0.6959
9442563.0  6.2832  5.5808  1.2609  1.1079  2.3688  0.1087  0.9606  0.192
9445754.0  7.0544  3.4047  1.261  1.1079  2.3689  0.764  6.962  0.8835
9454499.0  10.48  4.9926  1.108  1.182  2.29  0.0468  0.7951  0.7196
9460390.0  6.2781  5.347  1.2609  1.1079  2.3688  0.0895  0.8055  0.3357
9475483.0  8.0313  6.0371  1.108  1.1686  2.2766  0.0694  10.416  0.982
9496605.0  7.3072  3.326  1.2609  1.1079  2.3689  0.1743  1.3931  0.3911
9507172.0  16.1455  16.0466  1.5346  1.4939  3.0285  2.3234  14.732  0.9167
9528810.0  7.2995  2.6218  1.2609  1.1079  2.3689  0.7887  7.3136  0.8897
9541457.0  7.1332  3.3735  1.261  1.1079  2.3689  0.2058  2.0138  0.6364
9564516.0  7.1142  3.0768  1.261  1.1079  2.3689  0.3235  2.6793  0.6991
9566021.0  6.9167  4.7109  1.2609  1.1079  2.3689  3.5864  53.537  0.9845
9569888.0  7.6719  7.3859  1.108  1.1079  2.2159  0.0494  1.01  0.7728
9578112.0  10.6426  5.7352  1.1229  1.2636  2.3865  0.069  5.3676  0.9428
9585516.0  7.4268  6.308  1.2609  1.2453  2.5062  0.117  15.475  0.98
9589287.0  7.3299  4.5457  1.261  1.1079  2.3689  1.1717  12.631  0.9377
9592199.0  6.2526  5.2128  1.261  1.2608  2.5218  0.1404  1.3056  0.4038
9592924.0  7.0869  3.2938  1.261  1.1079  2.3689  0.1036  0.8707  0.1238
9594640.0  7.7761  7.7748  1.1079  1.1079  2.2159  0.5401  2.5033  0.5963
9598255.0  7.2781  2.8151  1.2611  1.1079  2.369  0.0911  2.5733  0.8886
9615198.0  7.8798  7.7295  1.108  1.1079  2.2159  0.0434  0.4516  0.6297
9616523.0  8.141  3.7382  1.1081  1.1079  2.216  0.0853  1.0346  0.5777
9620555.0  8.1012  3.3127  1.261  1.1079  2.369  0.0656  0.3975  0.3066
9621771.0  6.0691  6.0005  1.2611  1.1079  2.369  0.0769  0.9211  0.7504
9626015.0  8.1258  5.1964  1.261  1.2007  2.4617  0.0606  1.2541  0.7413
9629085.0  7.1738  6.0748  1.108  1.1209  2.2289  0.1493  1.886  0.6788
9631347.0  6.263  5.4121  1.2609  1.1079  2.3688  0.1544  1.6816  0.6032
9637956.0  7.6586  4.9201  1.108  1.1079  2.216  0.0706  1.0148  0.7121
9651514.0  6.0112  5.4963  1.261  1.1079  2.3689  1.0568  4.4361  0.7591
9655014.0  7.2616  3.2383  1.261  1.1079  2.3689  0.2975  3.6422  0.8106
9655750.0  8.3815  4.8202  1.108  1.1079  2.216  0.087  0.9445  0.3729
9658047.0  7.0636  2.7077  1.261  1.1079  2.369  0.0882  0.664  0.3892
9658236.0  7.5226  4.0914  1.261  1.1079  2.3689  0.5139  4.2813  0.8072
9674945.0  7.3714  5.4596  1.1081  1.1079  2.216  0.0689  1.4889  0.8518
9698970.0  7.295  3.7729  1.2609  1.1079  2.3688  0.0719  0.5566  0.5541
9699992.0  7.9386  7.1594  1.2612  1.3342  2.5954  0.0505  0.8146  0.7096
9714406.0  7.579  4.8054  1.2609  1.1465  2.4074  1.0228  18.163  0.9622
9739034.0  12.9459  8.7191  1.291  1.587  2.878  0.5074  2.3538  0.3794
9747890.0  6.3398  6.0556  1.2611  1.1079  2.3691  0.0715  0.623  0.6514
9748379.0  12.6506  7.2662  1.2725  1.4639  2.7364  8.6938  6.2842  0.6214
9750527.0  6.9996  3.0061  1.2611  1.1079  2.369  0.0882  0.573  0.1817
9762646.0  6.908  4.5262  1.261  1.1079  2.369  0.1384  1.6885  0.6329
9765259.0  7.4333  3.401  1.261  1.1079  2.3689  0.084  0.8148  0.363
9775864.0  6.7853  5.1281  1.2609  1.1102  2.3711  2.7465  42.597  0.9815
9795360.0  7.4976  3.118  1.2611  1.1079  2.369  0.075  0.3889  0.3195
9809186.0  5.9273  5.5757  1.261  1.1079  2.3689  0.5852  4.7137  0.8235
9812659.0  8.3234  4.2705  1.2609  1.136  2.397  0.0561  0.2223  0.291
9823264.0  7.5263  4.1211  1.2609  1.1079  2.3689  0.2525  2.0925  0.6058
9825347.0  7.4782  4.055  1.2609  1.1079  2.3688  0.4354  3.6664  0.7769
9836162.0  6.9157  6.07  1.108  1.1227  2.2308  0.5562  10.368  0.941
9853661.0  6.9402  5.9007  1.261  1.1807  2.4416  0.3172  6.1692  0.8989
9856462.0  7.9012  3.7498  1.1081  1.1079  2.216  0.1005  0.9007  0.2841
9895332.0  7.6755  3.4161  1.108  1.1079  2.2159  0.7842  16.888  0.9651
9905021.0  7.3443  5.9311  1.2611  1.1989  2.46  0.074  2.1884  0.8426
9909108.0  6.896  6.0976  1.2611  1.1614  2.4225  0.0644  0.545  0.5286
9926028.0  7.3457  7.1858  1.1081  1.2099  2.318  0.0579  1.066  0.7293
9930389.0  6.0048  5.5834  1.2608  1.1079  2.3688  0.193  1.8805  0.6106
9933606.0  10.9558  10.9476  1.1343  1.1079  2.2422  0.0395  0.8648  0.432
9942277.0  7.105  7.1044  1.2608  1.2608  2.5216  0.0577  0.7889  0.4212
9948844.0  7.2456  4.9294  1.2611  1.1079  2.369  0.0669  0.4485  0.2712
9959847.0  7.4761  4.1181  1.261  1.1079  2.369  0.0733  0.6311  0.2833
9963341.0  7.3944  4.8975  1.2611  1.1195  2.3806  0.0999  3.6012  0.8947
9966087.0  7.4008  4.7194  1.1081  1.1079  2.216  0.902  16.423  0.962
9968457.0  7.0892  2.9248  1.261  1.1079  2.3689  0.2978  2.3233  0.6444
9976905.0  7.1844  4.54  1.261  1.1079  2.3689  0.7234  8.8531  0.9161
9986048.0  8.5032  7.7025  1.108  1.3143  2.4223  3.5481  7.1845  0.8029
9986745.0  7.5293  7.5274  1.1079  1.1079  2.2159  0.0453  0.5912  0.806
9988963.0  7.3179  6.2293  1.2612  1.2116  2.4728  0.0602  0.8795  0.7117
