215212362.52  49
300583.0  75.7049  71.479  8.7169  7.3449  16.0618  0.1828  7.0305  0.4376
309105.0  61.5149  61.0494  6.0119  5.9068  11.9186  7.7718  17.04  0.5718
520374.0  62.6444  57.2894  7.8302  6.1892  14.0194  2.5693  10.753  0.2364
660722.0  48.0695  46.4851  8.0157  7.4977  15.5134  12.3671  16.596  0.0893
674214.0  47.8138  45.6829  5.6324  7.8264  13.4588  0.7803  8.034  0.3142
1135374.0  51.583  51.5066  7.9224  7.8805  15.8029  3.3322  11.961  0.0146
1806492.0  54.4731  54.2336  8.1236  8.0405  16.1641  13.9511  17.726  0.1104
2304335.0  55.9748  55.8836  5.5119  8.279  13.7909  9.3019  14.471  0.2114
2622491.0  47.6645  46.3686  7.9085  7.4467  15.3551  6.6692  13.986  0.0478
2624849.0  45.7738  45.7311  7.3224  7.2927  14.615  6.4776  13.473  0.0993
2898300.0  85.3986  80.7304  9.8538  8.2179  18.0717  0.0593  5.1679  0.3045
2991621.0  93.2438  86.9495  10.4811  8.4194  18.9005  0.1535  6.4246  0.1578
3586031.0  45.3556  44.6616  7.5067  7.2803  14.787  4.8464  12.562  0.0693
3639900.0  58.7976  29.2617  7.7881  5.6931  13.4812  1.2544  7724.9  0.9999
3642539.0  103.409  101.3382  9.563  8.9683  18.5313  0.3047  7.6987  0.2111
3734612.0  86.5224  76.7954  10.2268  7.1323  17.3591  13.6151  19.636  0.2808
4326465.0  54.0148  53.9226  8.1292  8.0848  16.2141  3.8803  12.717  0.0654
4667961.0  46.1395  45.8911  7.4798  7.3597  14.8394  2.8708  11.0  0.0319
4814248.0  52.2312  52.1497  8.0627  8.0179  16.0806  1.2358  9.5589  0.1108
5079680.0  45.2661  43.4883  7.8996  7.1558  15.0554  9.0711  14.921  0.0582
5098779.0  43.3512  42.3108  7.8876  7.4537  15.3413  0.0295  3.4121  0.0131
5169082.0  42.6223  41.8469  7.7225  7.3752  15.0977  0.0249  3.2233  0.1001
5366893.0  44.3981  43.1286  7.6833  7.1982  14.8815  2.5174  10.707  0.0732
5580341.0  51.3538  51.2725  7.8313  7.7908  15.6221  11.4235  16.263  0.0444
5621210.0  46.5188  46.4164  7.388  7.3389  14.727  11.9128  15.715  0.0338
5707758.0  50.0326  49.9414  7.7987  7.7494  15.5481  2.7598  11.282  0.0342
5725934.0  52.3842  52.3029  8.0669  8.0225  16.0894  1.3712  9.7351  0.0571
5773272.0  58.2754  29.1254  7.6962  5.5956  13.2918  10.4572  11096.0  0.9998
5861501.0  52.4377  52.3646  7.9317  7.8944  15.8261  10.6867  16.256  0.0976
5972361.0  46.7106  46.66  7.4113  7.3788  14.7901  7.2666  13.875  0.0042
5981716.0  44.4767  41.9824  8.2845  7.2673  15.5518  1.4667  9.7003  0.1002
6360136.0  47.3754  47.0162  7.6088  7.4852  15.0939  3.3113  11.581  0.0653
6421572.0  47.5635  47.3582  7.521  7.4393  14.9603  10.421  15.433  0.0771
6855425.0  57.6945  56.1903  5.9401  5.6491  11.5891  11.6261  13.035  0.0143
7105549.0  57.1649  56.0354  6.1964  5.9176  12.1139  0.3704  5.7541  0.1477
7225595.0  98.1216  97.675  9.4452  9.2758  18.721  0.1367  6.2049  0.1546
7283287.0  111.34  101.1531  11.8399  8.7929  20.6329  0.6843  9.8341  0.0871
7325591.0  96.526  93.1121  8.7189  8.0186  16.7375  4.6269  14.575  0.2771
7798260.0  50.9374  50.0749  8.0237  7.786  15.8097  9.2609  15.575  0.0614
7953521.0  126.475  119.1811  10.8793  9.2139  20.0932  6.2835  17.966  0.2681
8252897.0  51.2311  51.1665  7.8072  7.7727  15.5799  13.6986  17.063  0.0763
8313748.0  46.1021  42.7013  6.1154  7.8163  13.9318  0.285  6.4025  0.3126
8776883.0  50.6539  50.585  7.9093  7.8647  15.774  1.1884  9.32  0.1056
8813806.0  52.4885  52.4057  7.9479  7.9076  15.8555  8.9022  15.404  0.0201
8928955.0  48.7493  48.2744  7.7505  7.5734  15.3239  7.1219  14.257  0.0795
8943408.0  44.7274  43.8858  7.6445  7.2892  14.9337  0.6189  7.5197  0.0403
9130072.0  46.4199  46.3778  7.3781  7.3496  14.7277  8.1508  14.392  0.1063
9199336.0  51.3394  51.2547  7.9227  7.8758  15.7986  2.4952  11.178  0.0738
9425808.0  77.5026  77.1869  6.9649  6.8607  13.8256  11.77  15.643  0.2244
