# 	 Z 	 BHBs 	 DNSs 	 BHNS 
0.0002  160042  20015  23467
0.0004  198165  7717  20208
0.0008  174379  6047  15510
0.0012  161073  4905  13364
0.0016  150955  3402  8459
0.002  129795  3110  7250
0.004  26355  4498  9984
0.006  4900  3999  6093
0.008  2254  4820  2446
0.012  220  6603  455
0.016  128  7447  359
0.02  49  9266  156
