215212362.52  53
474638.0  80.171  14.3432  6.5595  1.1079  7.6674  0.3606  34.594  0.9706
654070.0  89.1793  16.6009  7.0231  1.1557  8.1788  2.5403  74.899  0.9772
700783.0  49.8632  25.1585  7.5434  1.4301  8.9735  5.8806  20.917  0.8288
1609934.0  79.6538  15.6409  6.5218  1.133  7.6548  6.4493  12.785  0.7115
1633875.0  78.5846  17.1341  6.4817  1.1408  7.6226  0.0326  7.5345  0.9165
1776005.0  16.3423  15.4976  6.8965  1.1079  8.0044  0.0178  9.6538  0.9632
1855340.0  54.6042  41.9498  6.1982  1.8808  8.079  3.0455  6.8269  0.2302
2137534.0  18.8045  17.8143  7.7346  1.1701  8.9047  0.7456  18.679  0.907
2179230.0  55.064  42.1954  5.9545  1.8577  7.8122  2.6018  7.5949  0.4651
3077356.0  65.8372  14.6544  5.8278  1.1079  6.9358  8.1008  14.067  0.7475
3154428.0  18.8052  18.1125  6.7505  1.1822  7.9327  14.2114  14.626  0.6678
3257574.0  18.0914  17.6209  6.1533  1.1333  7.2866  5.9925  7.8284  0.4148
3549291.0  14.8906  14.2416  5.988  1.1079  7.096  0.2139  3.3377  0.4375
3624686.0  74.5537  14.9724  6.2545  1.1079  7.3625  3.9382  13.354  0.7809
3742582.0  87.9652  18.7165  6.9688  1.2217  8.1904  2.2449  13.5  0.803
3782204.0  58.757  12.2569  8.2373  1.1079  9.3453  0.4899  69.009  0.9848
3998219.0  20.0134  19.1201  7.6159  1.2248  8.8407  0.509  9.793  0.8061
4060184.0  16.8851  15.4874  11.797  1.1079  12.905  1.0326  22.52  0.8969
4338746.0  94.5287  17.2643  7.1462  1.1479  8.2941  0.6251  24.141  0.9404
4453178.0  53.419  11.3807  7.8305  1.1079  8.9384  0.3016  54.12  0.9827
4549774.0  49.2378  11.3078  7.4821  1.1079  8.59  1.9234  45.982  0.9614
4697370.0  78.4474  15.7751  6.4547  1.1079  7.5626  5.4158  13.887  0.7626
4736924.0  17.9923  16.8623  8.6423  1.13  9.7723  0.3883  43.907  0.9736
4749963.0  19.6897  18.139  11.8612  1.183  13.0442  11.5038  37.861  0.8778
4888678.0  17.3238  15.7871  13.3801  1.1079  14.4881  0.2244  26.38  0.9462
4889905.0  17.4491  15.9297  13.1938  1.1079  14.3017  1.1836  4092.6  0.9998
4977596.0  19.7548  18.6534  8.5093  1.2058  9.7151  1.1456  14.656  0.8416
5018890.0  60.9876  15.1917  5.5968  1.1079  6.7048  4.0093  11.447  0.7458
5884054.0  16.6196  15.9184  6.4296  1.1079  7.5375  1.0796  8.0339  0.7129
6753373.0  16.9808  15.8159  8.9731  1.1079  10.0811  4.288  14.595  0.7478
6912791.0  50.2026  25.9817  7.5702  1.4558  9.026  0.2063  22.001  0.948
7212911.0  41.1315  38.6551  7.7963  1.8341  9.6304  1.7138  143.94  0.9889
7375725.0  80.6884  15.4771  6.6023  1.1079  7.7102  8.2582  24.856  0.8714
7394495.0  61.8265  12.8452  5.6512  1.1079  6.7592  0.0161  8.3033  0.9808
7448048.0  14.9405  14.3474  5.8474  1.1079  6.9553  0.5979  11.851  0.8706
7992876.0  22.803  20.4255  16.0823  1.2752  17.3574  0.0162  48.1  0.9907
8194103.0  88.5713  15.9399  6.9989  1.1423  8.1411  0.5192  12.221  0.8661
8246746.0  105.9404  19.7918  7.6027  1.2607  8.8634  2.1394  22.638  0.8957
8261274.0  56.5219  11.2563  8.0767  1.1079  9.1846  6.533  54.216  0.9499
8436455.0  98.0519  18.1403  7.5018  1.1829  8.6847  12.2672  25.895  0.8457
8485748.0  16.1409  14.7643  11.7249  1.1079  12.8329  3.7942  20.26  0.8164
8785127.0  49.6126  10.9876  7.5121  1.1079  8.62  11.5373  124.86  0.979
8943408.0  44.7274  43.8858  7.3501  1.8995  9.2497  3.3268  26.446  0.8863
8960198.0  15.1003  14.0672  7.8077  1.1079  8.9156  1.4206  18.678  0.8869
9018184.0  117.4118  20.541  8.2398  1.2726  9.5124  0.2347  16.172  0.9188
9105489.0  17.144  16.9303  5.5883  1.1329  6.7211  6.7906  32.115  0.9206
9286784.0  60.9324  13.0014  5.5825  1.1079  6.6904  0.0493  11.895  0.9509
9488741.0  102.7514  21.2405  7.7121  1.3171  9.0292  0.0272  37.319  0.988
9564210.0  127.0797  18.8951  8.5698  1.2145  9.7843  0.0111  15.418  0.9896
9603497.0  50.8322  11.8034  7.6153  1.1079  8.7232  1.399  73.864  0.9808
9689817.0  54.4618  11.0354  7.9203  1.1079  9.0282  1.2917  76.103  0.9816
9695153.0  72.4263  15.1328  6.1714  1.1285  7.2999  0.0206  20.738  0.9845
9708257.0  46.4365  12.1504  7.2211  1.1079  8.3291  5.7016  165.77  0.9884
